%TF.GenerationSoftware,KiCad,Pcbnew,(7.0.0)*%
%TF.CreationDate,2023-03-21T16:04:02+02:00*%
%TF.ProjectId,XIAOShieldBasic,5849414f-5368-4696-956c-644261736963,rev?*%
%TF.SameCoordinates,Original*%
%TF.FileFunction,Plated,1,2,PTH,Drill*%
%TF.FilePolarity,Positive*%
%FSLAX46Y46*%
G04 Gerber Fmt 4.6, Leading zero omitted, Abs format (unit mm)*
G04 Created by KiCad (PCBNEW (7.0.0)) date 2023-03-21 16:04:02*
%MOMM*%
%LPD*%
G01*
G04 APERTURE LIST*
%TA.AperFunction,ComponentDrill*%
%ADD10C,0.800000*%
%TD*%
G04 APERTURE END LIST*
D10*
%TO.C,M1*%
X138120000Y-71080000D03*
X138120000Y-73620000D03*
X138120000Y-76160000D03*
X138120000Y-78700000D03*
X138120000Y-81240000D03*
X138120000Y-83780000D03*
X138120000Y-86320000D03*
X153355000Y-71080000D03*
X153355000Y-73620000D03*
X153355000Y-76160000D03*
X153355000Y-78700000D03*
X153355000Y-81240000D03*
X153355000Y-83780000D03*
X153355000Y-86320000D03*
M02*
