%TF.GenerationSoftware,KiCad,Pcbnew,(7.0.0)*%
%TF.CreationDate,2023-03-21T16:03:55+02:00*%
%TF.ProjectId,XIAOShieldBasic,5849414f-5368-4696-956c-644261736963,rev?*%
%TF.SameCoordinates,Original*%
%TF.FileFunction,Copper,L1,Top*%
%TF.FilePolarity,Positive*%
%FSLAX46Y46*%
G04 Gerber Fmt 4.6, Leading zero omitted, Abs format (unit mm)*
G04 Created by KiCad (PCBNEW (7.0.0)) date 2023-03-21 16:03:55*
%MOMM*%
%LPD*%
G01*
G04 APERTURE LIST*
%TA.AperFunction,SMDPad,CuDef*%
%ADD10R,2.500000X1.500000*%
%TD*%
%TA.AperFunction,SMDPad,CuDef*%
%ADD11R,2.000000X1.500000*%
%TD*%
%TA.AperFunction,SMDPad,CuDef*%
%ADD12R,2.500000X2.000000*%
%TD*%
%TA.AperFunction,SMDPad,CuDef*%
%ADD13R,1.700000X2.000000*%
%TD*%
%TA.AperFunction,SMDPad,CuDef*%
%ADD14R,2.000000X1.700000*%
%TD*%
%TA.AperFunction,ComponentPad*%
%ADD15C,1.600000*%
%TD*%
%TA.AperFunction,Conductor*%
%ADD16C,0.400000*%
%TD*%
%TA.AperFunction,Profile*%
%ADD17C,0.100000*%
%TD*%
G04 APERTURE END LIST*
D10*
X142999999Y-93999999D03*
X134999999Y-93999999D03*
D11*
X148089999Y-94409999D03*
D12*
X153589999Y-93249999D03*
D11*
X148089999Y-92099999D03*
D13*
X152999999Y-59999999D03*
X152999999Y-63999999D03*
D14*
X137999999Y-54199999D03*
X141999999Y-54199999D03*
X148999999Y-54199999D03*
X152999999Y-54199999D03*
D13*
X137999999Y-59999999D03*
X137999999Y-63999999D03*
D15*
X153355000Y-71080000D03*
X153355000Y-73620000D03*
X153355000Y-76160000D03*
X153355000Y-78700000D03*
X153355000Y-81240000D03*
X153355000Y-83780000D03*
X153355000Y-86320000D03*
X138120000Y-86320000D03*
X138120000Y-83780000D03*
X138120000Y-81240000D03*
X138120000Y-78700000D03*
X138120000Y-76160000D03*
X138120000Y-73620000D03*
X138120000Y-71080000D03*
D16*
X145800000Y-51000000D02*
X149000000Y-54200000D01*
X141200000Y-51000000D02*
X145800000Y-51000000D01*
X138000000Y-54200000D02*
X141200000Y-51000000D01*
X140160000Y-76160000D02*
X138120000Y-76160000D01*
X141150000Y-77150000D02*
X140160000Y-76160000D01*
X141150000Y-96000000D02*
X141150000Y-77150000D01*
X146816370Y-90750000D02*
X144850000Y-92716370D01*
X149690000Y-90750000D02*
X146816370Y-90750000D01*
X149690000Y-94210000D02*
X149690000Y-90750000D01*
X144850000Y-96000000D02*
X141150000Y-96000000D01*
X149490000Y-94410000D02*
X149690000Y-94210000D01*
X144850000Y-92716370D02*
X144850000Y-96000000D01*
X148090000Y-94410000D02*
X149490000Y-94410000D01*
X137100000Y-96100000D02*
X135000000Y-94000000D01*
X145800000Y-97000000D02*
X137100000Y-97000000D01*
X145800000Y-92990000D02*
X145800000Y-97000000D01*
X137100000Y-97000000D02*
X137100000Y-96100000D01*
X146690000Y-92100000D02*
X145800000Y-92990000D01*
X148090000Y-92100000D02*
X146690000Y-92100000D01*
X151620000Y-73620000D02*
X153355000Y-73620000D01*
X138000000Y-64000000D02*
X142000000Y-64000000D01*
X142000000Y-64000000D02*
X151620000Y-73620000D01*
X139520000Y-70500101D02*
X139520000Y-72220000D01*
X139520000Y-72220000D02*
X138120000Y-73620000D01*
X135000000Y-65980101D02*
X139520000Y-70500101D01*
X135000000Y-57200000D02*
X135000000Y-65980101D01*
X138000000Y-54200000D02*
X135000000Y-57200000D01*
X154000000Y-70435000D02*
X153355000Y-71080000D01*
X154000000Y-65000000D02*
X154000000Y-70435000D01*
X153000000Y-64000000D02*
X154000000Y-65000000D01*
X154700000Y-78700000D02*
X153355000Y-78700000D01*
X156000000Y-90840000D02*
X156000000Y-80000000D01*
X156000000Y-80000000D02*
X154700000Y-78700000D01*
X153590000Y-93250000D02*
X156000000Y-90840000D01*
X153000000Y-54200000D02*
X153000000Y-60000000D01*
X135000000Y-76740000D02*
X138120000Y-73620000D01*
X135000000Y-94000000D02*
X135000000Y-76740000D01*
X143000000Y-94000000D02*
X143000000Y-91595000D01*
X143000000Y-91595000D02*
X153355000Y-81240000D01*
X138000000Y-60000000D02*
X138000000Y-58200000D01*
X138000000Y-58200000D02*
X142000000Y-54200000D01*
%TA.AperFunction,Conductor*%
G36*
X141892846Y-45979340D02*
G01*
X141894811Y-45979391D01*
X142198360Y-45990194D01*
X142204453Y-45990564D01*
X142482539Y-46014449D01*
X142484154Y-46014601D01*
X142786976Y-46045421D01*
X142793383Y-46046246D01*
X143068212Y-46089021D01*
X143069540Y-46089236D01*
X143370572Y-46140070D01*
X143377304Y-46141402D01*
X143647083Y-46202615D01*
X143647712Y-46202761D01*
X143946535Y-46273720D01*
X143953495Y-46275590D01*
X144215476Y-46354295D01*
X144216038Y-46354466D01*
X144512266Y-46445777D01*
X144519433Y-46448231D01*
X144768751Y-46542236D01*
X145065131Y-46655442D01*
X145072490Y-46658527D01*
X145282367Y-46754600D01*
X145599607Y-46900369D01*
X145599716Y-46900647D01*
X145599976Y-46900546D01*
X145600224Y-46900670D01*
X145600356Y-46900404D01*
X145847147Y-46813197D01*
X146116521Y-46718590D01*
X146123787Y-46716290D01*
X146389224Y-46641288D01*
X146654621Y-46567922D01*
X146661623Y-46566205D01*
X146933821Y-46507878D01*
X146934522Y-46507732D01*
X147201511Y-46453156D01*
X147208166Y-46451985D01*
X147484586Y-46411113D01*
X147485886Y-46410929D01*
X147754792Y-46374797D01*
X147760993Y-46374125D01*
X148040162Y-46351038D01*
X148041895Y-46350910D01*
X148312001Y-46333195D01*
X148317770Y-46332953D01*
X148598048Y-46327846D01*
X148600445Y-46327826D01*
X148870747Y-46328523D01*
X148876065Y-46328654D01*
X149156290Y-46341572D01*
X149159134Y-46341738D01*
X149428523Y-46360802D01*
X149433355Y-46361240D01*
X149712333Y-46392154D01*
X149715724Y-46392578D01*
X149982948Y-46429888D01*
X149987339Y-46430582D01*
X150263734Y-46479350D01*
X150267598Y-46480097D01*
X150531656Y-46535494D01*
X150535473Y-46536359D01*
X150808253Y-46602806D01*
X150812418Y-46603900D01*
X151072142Y-46677143D01*
X151075450Y-46678127D01*
X151343314Y-46761935D01*
X151347917Y-46763476D01*
X151602172Y-46854256D01*
X151604973Y-46855296D01*
X151866716Y-46956070D01*
X151871705Y-46958116D01*
X152119328Y-47066037D01*
X152121636Y-47067071D01*
X152376178Y-47184367D01*
X152381436Y-47186942D01*
X152621480Y-47311631D01*
X152623275Y-47312582D01*
X152869475Y-47445836D01*
X152874932Y-47448973D01*
X152956268Y-47498522D01*
X153106460Y-47590019D01*
X153107855Y-47590882D01*
X153344412Y-47739318D01*
X153350070Y-47743088D01*
X153572408Y-47900219D01*
X153573362Y-47900900D01*
X153798947Y-48063544D01*
X153804713Y-48067963D01*
X154018127Y-48241708D01*
X154018359Y-48241898D01*
X154231119Y-48417127D01*
X154236918Y-48422215D01*
X154448231Y-48619612D01*
X154636361Y-48796020D01*
X154636301Y-48796205D01*
X154636661Y-48796324D01*
X154636932Y-48796594D01*
X154637058Y-48796467D01*
X154653937Y-48802746D01*
X154653938Y-48802747D01*
X154787673Y-48852500D01*
X154787649Y-48852564D01*
X154788034Y-48852634D01*
X155085937Y-48964512D01*
X155094142Y-48967935D01*
X155293731Y-49059728D01*
X155294367Y-49060025D01*
X155482337Y-49148617D01*
X155531101Y-49171600D01*
X155538334Y-49175303D01*
X155739390Y-49286705D01*
X155741075Y-49287656D01*
X155958831Y-49412791D01*
X155965057Y-49416620D01*
X156101686Y-49506307D01*
X156160721Y-49545059D01*
X156162925Y-49546540D01*
X156292525Y-49635724D01*
X156366452Y-49686597D01*
X156371770Y-49690469D01*
X156558912Y-49834452D01*
X156561570Y-49836556D01*
X156751600Y-49991448D01*
X156755949Y-49995167D01*
X156932554Y-50153435D01*
X156935675Y-50156330D01*
X157111850Y-50325471D01*
X157115408Y-50329028D01*
X157279870Y-50500275D01*
X157283267Y-50503959D01*
X157445169Y-50686843D01*
X157447901Y-50690038D01*
X157598908Y-50872897D01*
X157602498Y-50877458D01*
X157749494Y-51073466D01*
X157751545Y-51076282D01*
X157887856Y-51269097D01*
X157891509Y-51274567D01*
X158023181Y-51483508D01*
X158024601Y-51485816D01*
X158145051Y-51686544D01*
X158148645Y-51692958D01*
X158264851Y-51915534D01*
X158265733Y-51917256D01*
X158368920Y-52122645D01*
X158372329Y-52130022D01*
X158474183Y-52370915D01*
X158474630Y-52371986D01*
X158558186Y-52574879D01*
X158561277Y-52583225D01*
X158660043Y-52882396D01*
X158659966Y-52882421D01*
X158660165Y-52882763D01*
X158705476Y-53021467D01*
X158705477Y-53021469D01*
X158711045Y-53038512D01*
X158710924Y-53038624D01*
X158711181Y-53038904D01*
X158711287Y-53039271D01*
X158711457Y-53039222D01*
X158723201Y-53053044D01*
X158827184Y-53175426D01*
X158837340Y-53187447D01*
X159000423Y-53380477D01*
X159006353Y-53388076D01*
X159132694Y-53563653D01*
X159133316Y-53564524D01*
X159267215Y-53754032D01*
X159272094Y-53761494D01*
X159386758Y-53951402D01*
X159387669Y-53952936D01*
X159501939Y-54148496D01*
X159505841Y-54155711D01*
X159605848Y-54356226D01*
X159606940Y-54358472D01*
X159702972Y-54561135D01*
X159705973Y-54567997D01*
X159789953Y-54776978D01*
X159791112Y-54779972D01*
X159868928Y-54989108D01*
X159871117Y-54995522D01*
X159938186Y-55211151D01*
X159939292Y-55214915D01*
X159998642Y-55429439D01*
X160000115Y-55435321D01*
X160049684Y-55655949D01*
X160050616Y-55660491D01*
X160091203Y-55879053D01*
X160092066Y-55884333D01*
X160123746Y-56108393D01*
X160124380Y-56113706D01*
X160145970Y-56334886D01*
X160146335Y-56339509D01*
X160159878Y-56565313D01*
X160160092Y-56571372D01*
X160162541Y-56793859D01*
X160162523Y-56797784D01*
X160157860Y-57023609D01*
X160157535Y-57030377D01*
X160140750Y-57252884D01*
X160140467Y-57256082D01*
X160117717Y-57480148D01*
X160116735Y-57487573D01*
X160080657Y-57708882D01*
X160080231Y-57711343D01*
X160039722Y-57931775D01*
X160037973Y-57939789D01*
X159982415Y-58159295D01*
X159981965Y-58161021D01*
X159924426Y-58375340D01*
X159921806Y-58383862D01*
X159845743Y-58602920D01*
X159845388Y-58603929D01*
X159772622Y-58807800D01*
X159769036Y-58816736D01*
X159663087Y-59053666D01*
X159585951Y-59224838D01*
X159585741Y-59224904D01*
X159585829Y-59225188D01*
X159585696Y-59225456D01*
X159585941Y-59225578D01*
X159590669Y-59243237D01*
X159622897Y-59363614D01*
X159623008Y-59364033D01*
X159698459Y-59649852D01*
X159700610Y-59659567D01*
X159735493Y-59853651D01*
X159735716Y-59854929D01*
X159775996Y-60093347D01*
X159777181Y-60102357D01*
X159796703Y-60309278D01*
X159796887Y-60311433D01*
X159814585Y-60541949D01*
X159814942Y-60550162D01*
X159817129Y-60762191D01*
X159817124Y-60765221D01*
X159813918Y-60992261D01*
X159813596Y-60999609D01*
X159797884Y-61213157D01*
X159797537Y-61217036D01*
X159773980Y-61440878D01*
X159773132Y-61447313D01*
X159739451Y-61659794D01*
X159738616Y-61664481D01*
X159695029Y-61884474D01*
X159693811Y-61889965D01*
X159642403Y-62099165D01*
X159640936Y-62104596D01*
X159577594Y-62319733D01*
X159576163Y-62324273D01*
X159507535Y-62528133D01*
X159505304Y-62534228D01*
X159422420Y-62743520D01*
X159420929Y-62747117D01*
X159335875Y-62943627D01*
X159332754Y-62950289D01*
X159230365Y-63152951D01*
X159228966Y-63155637D01*
X159128765Y-63342486D01*
X159124642Y-63349599D01*
X159002056Y-63545757D01*
X159000894Y-63547581D01*
X158887759Y-63721779D01*
X158882534Y-63729213D01*
X158736357Y-63921783D01*
X158735566Y-63922813D01*
X158614652Y-64078687D01*
X158608243Y-64086298D01*
X158408763Y-64304752D01*
X158408471Y-64305071D01*
X158322792Y-64398245D01*
X158322787Y-64398250D01*
X158311855Y-64410140D01*
X158311791Y-64410158D01*
X158311723Y-64410277D01*
X158311418Y-64410584D01*
X158311599Y-64410765D01*
X158310384Y-64420839D01*
X158310384Y-64420841D01*
X158000747Y-66989619D01*
X158000747Y-66989620D01*
X157999512Y-66999871D01*
X157999500Y-66999901D01*
X157999500Y-66999972D01*
X157999492Y-67000038D01*
X157999500Y-67000067D01*
X157999500Y-67009817D01*
X157999500Y-94996753D01*
X157999330Y-95003243D01*
X157992523Y-95133114D01*
X157992498Y-95133577D01*
X157982372Y-95313887D01*
X157981040Y-95326332D01*
X157957507Y-95474911D01*
X157957282Y-95476283D01*
X157930264Y-95635304D01*
X157927791Y-95646628D01*
X157887879Y-95795579D01*
X157887258Y-95797813D01*
X157843655Y-95949162D01*
X157840265Y-95959271D01*
X157784462Y-96104645D01*
X157783259Y-96107661D01*
X157723575Y-96251751D01*
X157719498Y-96260594D01*
X157648433Y-96400064D01*
X157646477Y-96403748D01*
X157571430Y-96539538D01*
X157566897Y-96547094D01*
X157481412Y-96678728D01*
X157478546Y-96682947D01*
X157389002Y-96809147D01*
X157384239Y-96815428D01*
X157285333Y-96937567D01*
X157281427Y-96942158D01*
X157178419Y-97057424D01*
X157173640Y-97062478D01*
X157062478Y-97173640D01*
X157057424Y-97178419D01*
X156942158Y-97281427D01*
X156937567Y-97285333D01*
X156815428Y-97384239D01*
X156809147Y-97389002D01*
X156682947Y-97478546D01*
X156678728Y-97481412D01*
X156547094Y-97566897D01*
X156539538Y-97571430D01*
X156403748Y-97646477D01*
X156400064Y-97648433D01*
X156260594Y-97719498D01*
X156251751Y-97723575D01*
X156107661Y-97783259D01*
X156104645Y-97784462D01*
X155959271Y-97840265D01*
X155949162Y-97843655D01*
X155797813Y-97887258D01*
X155795579Y-97887879D01*
X155646628Y-97927791D01*
X155635304Y-97930264D01*
X155476283Y-97957282D01*
X155474911Y-97957507D01*
X155326332Y-97981040D01*
X155313887Y-97982372D01*
X155133577Y-97992498D01*
X155133114Y-97992523D01*
X155003243Y-97999330D01*
X154996753Y-97999500D01*
X135003247Y-97999500D01*
X134996757Y-97999330D01*
X134866884Y-97992523D01*
X134866421Y-97992498D01*
X134686111Y-97982372D01*
X134673666Y-97981040D01*
X134525087Y-97957507D01*
X134523715Y-97957282D01*
X134364694Y-97930264D01*
X134353370Y-97927791D01*
X134204419Y-97887879D01*
X134202185Y-97887258D01*
X134050836Y-97843655D01*
X134040727Y-97840265D01*
X133895353Y-97784462D01*
X133892337Y-97783259D01*
X133748247Y-97723575D01*
X133739404Y-97719498D01*
X133599934Y-97648433D01*
X133596250Y-97646477D01*
X133460460Y-97571430D01*
X133452921Y-97566907D01*
X133321266Y-97481409D01*
X133317051Y-97478546D01*
X133190851Y-97389002D01*
X133184570Y-97384239D01*
X133062431Y-97285333D01*
X133057840Y-97281427D01*
X132942574Y-97178419D01*
X132937520Y-97173640D01*
X132826358Y-97062478D01*
X132821579Y-97057424D01*
X132718571Y-96942158D01*
X132714665Y-96937567D01*
X132615759Y-96815428D01*
X132610996Y-96809147D01*
X132521452Y-96682947D01*
X132518604Y-96678754D01*
X132433081Y-96547061D01*
X132428568Y-96539538D01*
X132424648Y-96532446D01*
X132391741Y-96472903D01*
X132353521Y-96403748D01*
X132351565Y-96400064D01*
X132280500Y-96260594D01*
X132276430Y-96251768D01*
X132216714Y-96107599D01*
X132215562Y-96104710D01*
X132159729Y-95959260D01*
X132156347Y-95949174D01*
X132112725Y-95797761D01*
X132112134Y-95795635D01*
X132072202Y-95646606D01*
X132069738Y-95635324D01*
X132042709Y-95476245D01*
X132042491Y-95474911D01*
X132018955Y-95326309D01*
X132017628Y-95313908D01*
X132007485Y-95133285D01*
X132007476Y-95133114D01*
X132000669Y-95003243D01*
X132000500Y-94996755D01*
X132000500Y-94794518D01*
X133250000Y-94794518D01*
X133250353Y-94801114D01*
X133255573Y-94849667D01*
X133259111Y-94864641D01*
X133303547Y-94983777D01*
X133311962Y-94999189D01*
X133387498Y-95100092D01*
X133399907Y-95112501D01*
X133500810Y-95188037D01*
X133516222Y-95196452D01*
X133635358Y-95240888D01*
X133650332Y-95244426D01*
X133698885Y-95249646D01*
X133705482Y-95250000D01*
X134733674Y-95250000D01*
X134746549Y-95246549D01*
X134750000Y-95233674D01*
X135250000Y-95233674D01*
X135253450Y-95246549D01*
X135266326Y-95250000D01*
X136294518Y-95250000D01*
X136301114Y-95249646D01*
X136349667Y-95244426D01*
X136364641Y-95240888D01*
X136483777Y-95196452D01*
X136499189Y-95188037D01*
X136600092Y-95112501D01*
X136612501Y-95100092D01*
X136688037Y-94999189D01*
X136696452Y-94983777D01*
X136740888Y-94864641D01*
X136744426Y-94849667D01*
X136749646Y-94801114D01*
X136750000Y-94794518D01*
X136750000Y-94266326D01*
X136746549Y-94253450D01*
X136733674Y-94250000D01*
X135266326Y-94250000D01*
X135253450Y-94253450D01*
X135250000Y-94266326D01*
X135250000Y-95233674D01*
X134750000Y-95233674D01*
X134750000Y-94266326D01*
X134746549Y-94253450D01*
X134733674Y-94250000D01*
X133266326Y-94250000D01*
X133253450Y-94253450D01*
X133250000Y-94266326D01*
X133250000Y-94794518D01*
X132000500Y-94794518D01*
X132000500Y-93733674D01*
X133250000Y-93733674D01*
X133253450Y-93746549D01*
X133266326Y-93750000D01*
X134733674Y-93750000D01*
X134746549Y-93746549D01*
X134750000Y-93733674D01*
X135250000Y-93733674D01*
X135253450Y-93746549D01*
X135266326Y-93750000D01*
X136733674Y-93750000D01*
X136746549Y-93746549D01*
X136750000Y-93733674D01*
X136750000Y-93205482D01*
X136749646Y-93198885D01*
X136744426Y-93150332D01*
X136740888Y-93135358D01*
X136696452Y-93016222D01*
X136688037Y-93000810D01*
X136612501Y-92899907D01*
X136600092Y-92887498D01*
X136499189Y-92811962D01*
X136483777Y-92803547D01*
X136364641Y-92759111D01*
X136349667Y-92755573D01*
X136301114Y-92750353D01*
X136294518Y-92750000D01*
X135266326Y-92750000D01*
X135253450Y-92753450D01*
X135250000Y-92766326D01*
X135250000Y-93733674D01*
X134750000Y-93733674D01*
X134750000Y-92766326D01*
X134746549Y-92753450D01*
X134733674Y-92750000D01*
X133705482Y-92750000D01*
X133698885Y-92750353D01*
X133650332Y-92755573D01*
X133635358Y-92759111D01*
X133516222Y-92803547D01*
X133500810Y-92811962D01*
X133399907Y-92887498D01*
X133387498Y-92899907D01*
X133311962Y-93000810D01*
X133303547Y-93016222D01*
X133259111Y-93135358D01*
X133255573Y-93150332D01*
X133250353Y-93198885D01*
X133250000Y-93205482D01*
X133250000Y-93733674D01*
X132000500Y-93733674D01*
X132000500Y-73625395D01*
X136815506Y-73625395D01*
X136834386Y-73841206D01*
X136836260Y-73851837D01*
X136892332Y-74061097D01*
X136896020Y-74071231D01*
X136987576Y-74267572D01*
X136992974Y-74276922D01*
X137033184Y-74334348D01*
X137041295Y-74341781D01*
X137050574Y-74335870D01*
X137754903Y-73631542D01*
X137761566Y-73620000D01*
X138478431Y-73620000D01*
X138485095Y-73631542D01*
X139189421Y-74335867D01*
X139198703Y-74341780D01*
X139206814Y-74334348D01*
X139247026Y-74276920D01*
X139252422Y-74267575D01*
X139343979Y-74071231D01*
X139347667Y-74061097D01*
X139403739Y-73851837D01*
X139405613Y-73841206D01*
X139424494Y-73625395D01*
X139424494Y-73614605D01*
X139405613Y-73398793D01*
X139403739Y-73388162D01*
X139347667Y-73178902D01*
X139343979Y-73168768D01*
X139252423Y-72972427D01*
X139247025Y-72963077D01*
X139206814Y-72905650D01*
X139198703Y-72898217D01*
X139189424Y-72904128D01*
X138485095Y-73608457D01*
X138478431Y-73620000D01*
X137761566Y-73620000D01*
X137761567Y-73619999D01*
X137754903Y-73608457D01*
X137050574Y-72904128D01*
X137041296Y-72898217D01*
X137033183Y-72905651D01*
X136992971Y-72963081D01*
X136987577Y-72972425D01*
X136896020Y-73168768D01*
X136892332Y-73178902D01*
X136836260Y-73388162D01*
X136834386Y-73398793D01*
X136815506Y-73614605D01*
X136815506Y-73625395D01*
X132000500Y-73625395D01*
X132000500Y-71080000D01*
X136814532Y-71080000D01*
X136834365Y-71306692D01*
X136835762Y-71311907D01*
X136835764Y-71311916D01*
X136891858Y-71521263D01*
X136891861Y-71521271D01*
X136893261Y-71526496D01*
X136989432Y-71732734D01*
X137119953Y-71919139D01*
X137280861Y-72080047D01*
X137467266Y-72210568D01*
X137472175Y-72212857D01*
X137472180Y-72212860D01*
X137525864Y-72237893D01*
X137578040Y-72283649D01*
X137597460Y-72350274D01*
X137578041Y-72416899D01*
X137525866Y-72462657D01*
X137472421Y-72487579D01*
X137463081Y-72492971D01*
X137405651Y-72533183D01*
X137398217Y-72541296D01*
X137404128Y-72550574D01*
X138108457Y-73254903D01*
X138120000Y-73261567D01*
X138131542Y-73254903D01*
X138835870Y-72550574D01*
X138841781Y-72541295D01*
X138834348Y-72533184D01*
X138776922Y-72492974D01*
X138767572Y-72487575D01*
X138714134Y-72462657D01*
X138661958Y-72416899D01*
X138642539Y-72350274D01*
X138661959Y-72283649D01*
X138714131Y-72237894D01*
X138772734Y-72210568D01*
X138959139Y-72080047D01*
X139120047Y-71919139D01*
X139250568Y-71732734D01*
X139346739Y-71526496D01*
X139405635Y-71306692D01*
X139425468Y-71080000D01*
X139405635Y-70853308D01*
X139346739Y-70633504D01*
X139250568Y-70427266D01*
X139120047Y-70240861D01*
X138959139Y-70079953D01*
X138772734Y-69949432D01*
X138566496Y-69853261D01*
X138561271Y-69851861D01*
X138561263Y-69851858D01*
X138351916Y-69795764D01*
X138351907Y-69795762D01*
X138346692Y-69794365D01*
X138341304Y-69793893D01*
X138341301Y-69793893D01*
X138125395Y-69775004D01*
X138120000Y-69774532D01*
X138114605Y-69775004D01*
X137898698Y-69793893D01*
X137898693Y-69793893D01*
X137893308Y-69794365D01*
X137888094Y-69795762D01*
X137888083Y-69795764D01*
X137678736Y-69851858D01*
X137678724Y-69851862D01*
X137673504Y-69853261D01*
X137668599Y-69855547D01*
X137668594Y-69855550D01*
X137472176Y-69947142D01*
X137472172Y-69947144D01*
X137467266Y-69949432D01*
X137462833Y-69952535D01*
X137462826Y-69952540D01*
X137285296Y-70076847D01*
X137285291Y-70076850D01*
X137280861Y-70079953D01*
X137277037Y-70083776D01*
X137277031Y-70083782D01*
X137123782Y-70237031D01*
X137123776Y-70237037D01*
X137119953Y-70240861D01*
X137116850Y-70245291D01*
X137116847Y-70245296D01*
X136992540Y-70422826D01*
X136992535Y-70422833D01*
X136989432Y-70427266D01*
X136987144Y-70432172D01*
X136987142Y-70432176D01*
X136895550Y-70628594D01*
X136895547Y-70628599D01*
X136893261Y-70633504D01*
X136891862Y-70638724D01*
X136891858Y-70638736D01*
X136835764Y-70848083D01*
X136835762Y-70848094D01*
X136834365Y-70853308D01*
X136814532Y-71080000D01*
X132000500Y-71080000D01*
X132000500Y-67007581D01*
X132000500Y-67000061D01*
X132000509Y-67000025D01*
X132000500Y-66999965D01*
X132000500Y-66999901D01*
X132000485Y-66999864D01*
X131709235Y-65044578D01*
X136649500Y-65044578D01*
X136649501Y-65047872D01*
X136649853Y-65051150D01*
X136649854Y-65051161D01*
X136655079Y-65099768D01*
X136655080Y-65099773D01*
X136655909Y-65107483D01*
X136658619Y-65114749D01*
X136658620Y-65114753D01*
X136692217Y-65204831D01*
X136706204Y-65242331D01*
X136792454Y-65357546D01*
X136907669Y-65443796D01*
X137042517Y-65494091D01*
X137102127Y-65500500D01*
X138897872Y-65500499D01*
X138957483Y-65494091D01*
X139092331Y-65443796D01*
X139207546Y-65357546D01*
X139293796Y-65242331D01*
X139344091Y-65107483D01*
X139350500Y-65047873D01*
X139350500Y-64824500D01*
X139367113Y-64762500D01*
X139412500Y-64717113D01*
X139474500Y-64700500D01*
X141658481Y-64700500D01*
X141705934Y-64709939D01*
X141746162Y-64736819D01*
X151107052Y-74097708D01*
X151112186Y-74103162D01*
X151152071Y-74148183D01*
X151201589Y-74182362D01*
X151207611Y-74186794D01*
X151249039Y-74219252D01*
X151249042Y-74219253D01*
X151254943Y-74223877D01*
X151261784Y-74226955D01*
X151261783Y-74226955D01*
X151264175Y-74228032D01*
X151283724Y-74239058D01*
X151285888Y-74240552D01*
X151285896Y-74240556D01*
X151292070Y-74244818D01*
X151299087Y-74247479D01*
X151348306Y-74266145D01*
X151355228Y-74269012D01*
X151410068Y-74293694D01*
X151420035Y-74295520D01*
X151441653Y-74301547D01*
X151444113Y-74302480D01*
X151444116Y-74302480D01*
X151451128Y-74305140D01*
X151508602Y-74312118D01*
X151510830Y-74312389D01*
X151518235Y-74313516D01*
X151534066Y-74316416D01*
X151577394Y-74324357D01*
X151637421Y-74320726D01*
X151644909Y-74320500D01*
X152193327Y-74320500D01*
X152250584Y-74334511D01*
X152294902Y-74373377D01*
X152354953Y-74459139D01*
X152515861Y-74620047D01*
X152702266Y-74750568D01*
X152707172Y-74752855D01*
X152707176Y-74752858D01*
X152760274Y-74777618D01*
X152812450Y-74823375D01*
X152831869Y-74890000D01*
X152812450Y-74956625D01*
X152760274Y-75002382D01*
X152707176Y-75027141D01*
X152707163Y-75027148D01*
X152702266Y-75029432D01*
X152697833Y-75032535D01*
X152697826Y-75032540D01*
X152520296Y-75156847D01*
X152520291Y-75156850D01*
X152515861Y-75159953D01*
X152512037Y-75163776D01*
X152512031Y-75163782D01*
X152358782Y-75317031D01*
X152358776Y-75317037D01*
X152354953Y-75320861D01*
X152351850Y-75325291D01*
X152351847Y-75325296D01*
X152227540Y-75502826D01*
X152227535Y-75502833D01*
X152224432Y-75507266D01*
X152222144Y-75512172D01*
X152222142Y-75512176D01*
X152130550Y-75708594D01*
X152130547Y-75708599D01*
X152128261Y-75713504D01*
X152126862Y-75718724D01*
X152126858Y-75718736D01*
X152070764Y-75928083D01*
X152070762Y-75928094D01*
X152069365Y-75933308D01*
X152049532Y-76160000D01*
X152069365Y-76386692D01*
X152070762Y-76391907D01*
X152070764Y-76391916D01*
X152126858Y-76601263D01*
X152126861Y-76601271D01*
X152128261Y-76606496D01*
X152224432Y-76812734D01*
X152227539Y-76817171D01*
X152227540Y-76817173D01*
X152272801Y-76881813D01*
X152354953Y-76999139D01*
X152515861Y-77160047D01*
X152702266Y-77290568D01*
X152707172Y-77292855D01*
X152707176Y-77292858D01*
X152760274Y-77317618D01*
X152812450Y-77363375D01*
X152831869Y-77430000D01*
X152812450Y-77496625D01*
X152760274Y-77542382D01*
X152707176Y-77567141D01*
X152707163Y-77567148D01*
X152702266Y-77569432D01*
X152697833Y-77572535D01*
X152697826Y-77572540D01*
X152520296Y-77696847D01*
X152520291Y-77696850D01*
X152515861Y-77699953D01*
X152512037Y-77703776D01*
X152512031Y-77703782D01*
X152358782Y-77857031D01*
X152358776Y-77857037D01*
X152354953Y-77860861D01*
X152351850Y-77865291D01*
X152351847Y-77865296D01*
X152227540Y-78042826D01*
X152227535Y-78042833D01*
X152224432Y-78047266D01*
X152222144Y-78052172D01*
X152222142Y-78052176D01*
X152130550Y-78248594D01*
X152130547Y-78248599D01*
X152128261Y-78253504D01*
X152126862Y-78258724D01*
X152126858Y-78258736D01*
X152070764Y-78468083D01*
X152070762Y-78468094D01*
X152069365Y-78473308D01*
X152049532Y-78700000D01*
X152069365Y-78926692D01*
X152070762Y-78931907D01*
X152070764Y-78931916D01*
X152126858Y-79141263D01*
X152126861Y-79141271D01*
X152128261Y-79146496D01*
X152224432Y-79352734D01*
X152354953Y-79539139D01*
X152515861Y-79700047D01*
X152702266Y-79830568D01*
X152707172Y-79832855D01*
X152707176Y-79832858D01*
X152760274Y-79857618D01*
X152812450Y-79903375D01*
X152831869Y-79970000D01*
X152812450Y-80036625D01*
X152760274Y-80082382D01*
X152707176Y-80107141D01*
X152707163Y-80107148D01*
X152702266Y-80109432D01*
X152697833Y-80112535D01*
X152697826Y-80112540D01*
X152520296Y-80236847D01*
X152520291Y-80236850D01*
X152515861Y-80239953D01*
X152512037Y-80243776D01*
X152512031Y-80243782D01*
X152358782Y-80397031D01*
X152358776Y-80397037D01*
X152354953Y-80400861D01*
X152351850Y-80405291D01*
X152351847Y-80405296D01*
X152227540Y-80582826D01*
X152227535Y-80582833D01*
X152224432Y-80587266D01*
X152222144Y-80592172D01*
X152222142Y-80592176D01*
X152130550Y-80788594D01*
X152130547Y-80788599D01*
X152128261Y-80793504D01*
X152126862Y-80798724D01*
X152126858Y-80798736D01*
X152070764Y-81008083D01*
X152070762Y-81008094D01*
X152069365Y-81013308D01*
X152049532Y-81240000D01*
X152050004Y-81245395D01*
X152069365Y-81466692D01*
X152068409Y-81466775D01*
X152064939Y-81519597D01*
X152034363Y-81569978D01*
X142522290Y-91082051D01*
X142516838Y-91087184D01*
X142477431Y-91122096D01*
X142477425Y-91122102D01*
X142471817Y-91127071D01*
X142467560Y-91133236D01*
X142467551Y-91133248D01*
X142437649Y-91176568D01*
X142433213Y-91182597D01*
X142400749Y-91224035D01*
X142400743Y-91224043D01*
X142396122Y-91229943D01*
X142393044Y-91236780D01*
X142393043Y-91236783D01*
X142391962Y-91239185D01*
X142380940Y-91258727D01*
X142379441Y-91260898D01*
X142379437Y-91260904D01*
X142375182Y-91267070D01*
X142372526Y-91274070D01*
X142372522Y-91274080D01*
X142353853Y-91323305D01*
X142350989Y-91330219D01*
X142329382Y-91378229D01*
X142329379Y-91378235D01*
X142326305Y-91385068D01*
X142324953Y-91392439D01*
X142324951Y-91392449D01*
X142324474Y-91395053D01*
X142318456Y-91416643D01*
X142317519Y-91419114D01*
X142317517Y-91419119D01*
X142314860Y-91426128D01*
X142313956Y-91433565D01*
X142313956Y-91433569D01*
X142307610Y-91485827D01*
X142306483Y-91493226D01*
X142296994Y-91545010D01*
X142296993Y-91545018D01*
X142295642Y-91552394D01*
X142296094Y-91559873D01*
X142296094Y-91559881D01*
X142299274Y-91612433D01*
X142299500Y-91619921D01*
X142299500Y-92625501D01*
X142282887Y-92687501D01*
X142237500Y-92732888D01*
X142175500Y-92749501D01*
X141974500Y-92749501D01*
X141912500Y-92732888D01*
X141867113Y-92687501D01*
X141850500Y-92625501D01*
X141850500Y-77174909D01*
X141850726Y-77167422D01*
X141853904Y-77114881D01*
X141854357Y-77107394D01*
X141843516Y-77048235D01*
X141842389Y-77040830D01*
X141842118Y-77038602D01*
X141835140Y-76981128D01*
X141832480Y-76974116D01*
X141832480Y-76974113D01*
X141831547Y-76971653D01*
X141825520Y-76950035D01*
X141823694Y-76940068D01*
X141799012Y-76885228D01*
X141796145Y-76878306D01*
X141777479Y-76829087D01*
X141774818Y-76822070D01*
X141770556Y-76815896D01*
X141770552Y-76815888D01*
X141769058Y-76813724D01*
X141758032Y-76794175D01*
X141756956Y-76791785D01*
X141753877Y-76784943D01*
X141716788Y-76737602D01*
X141712349Y-76731569D01*
X141682442Y-76688241D01*
X141682441Y-76688240D01*
X141678183Y-76682071D01*
X141633170Y-76642193D01*
X141627716Y-76637059D01*
X140672939Y-75682282D01*
X140667822Y-75676847D01*
X140627929Y-75631817D01*
X140578410Y-75597636D01*
X140572404Y-75593216D01*
X140530961Y-75560747D01*
X140530958Y-75560745D01*
X140525057Y-75556122D01*
X140518219Y-75553044D01*
X140518210Y-75553039D01*
X140515810Y-75551959D01*
X140496268Y-75540937D01*
X140494107Y-75539445D01*
X140494102Y-75539442D01*
X140487930Y-75535182D01*
X140431702Y-75513857D01*
X140424784Y-75510991D01*
X140376772Y-75489383D01*
X140376769Y-75489382D01*
X140369932Y-75486305D01*
X140362560Y-75484954D01*
X140362551Y-75484951D01*
X140359952Y-75484475D01*
X140338340Y-75478450D01*
X140335891Y-75477521D01*
X140335885Y-75477519D01*
X140328872Y-75474860D01*
X140321430Y-75473956D01*
X140321425Y-75473955D01*
X140269171Y-75467610D01*
X140261771Y-75466483D01*
X140209987Y-75456994D01*
X140209982Y-75456993D01*
X140202606Y-75455642D01*
X140195126Y-75456094D01*
X140195118Y-75456094D01*
X140142567Y-75459274D01*
X140135079Y-75459500D01*
X139281673Y-75459500D01*
X139224416Y-75445489D01*
X139180098Y-75406623D01*
X139123152Y-75325296D01*
X139120047Y-75320861D01*
X138959139Y-75159953D01*
X138772734Y-75029432D01*
X138767831Y-75027145D01*
X138767823Y-75027141D01*
X138714134Y-75002106D01*
X138661958Y-74956349D01*
X138642539Y-74889723D01*
X138661959Y-74823098D01*
X138714135Y-74777341D01*
X138767580Y-74752419D01*
X138776920Y-74747026D01*
X138834348Y-74706814D01*
X138841780Y-74698703D01*
X138835867Y-74689421D01*
X138131542Y-73985095D01*
X138120000Y-73978431D01*
X138108457Y-73985095D01*
X137404128Y-74689424D01*
X137398217Y-74698703D01*
X137405650Y-74706814D01*
X137463077Y-74747025D01*
X137472431Y-74752426D01*
X137525864Y-74777342D01*
X137578040Y-74823098D01*
X137597460Y-74889723D01*
X137578041Y-74956348D01*
X137525866Y-75002106D01*
X137498868Y-75014695D01*
X137467266Y-75029432D01*
X137462833Y-75032535D01*
X137462826Y-75032540D01*
X137285296Y-75156847D01*
X137285291Y-75156850D01*
X137280861Y-75159953D01*
X137277037Y-75163776D01*
X137277031Y-75163782D01*
X137123782Y-75317031D01*
X137123776Y-75317037D01*
X137119953Y-75320861D01*
X137116850Y-75325291D01*
X137116847Y-75325296D01*
X136992540Y-75502826D01*
X136992535Y-75502833D01*
X136989432Y-75507266D01*
X136987144Y-75512172D01*
X136987142Y-75512176D01*
X136895550Y-75708594D01*
X136895547Y-75708599D01*
X136893261Y-75713504D01*
X136891862Y-75718724D01*
X136891858Y-75718736D01*
X136835764Y-75928083D01*
X136835762Y-75928094D01*
X136834365Y-75933308D01*
X136814532Y-76160000D01*
X136834365Y-76386692D01*
X136835762Y-76391907D01*
X136835764Y-76391916D01*
X136891858Y-76601263D01*
X136891861Y-76601271D01*
X136893261Y-76606496D01*
X136989432Y-76812734D01*
X136992539Y-76817171D01*
X136992540Y-76817173D01*
X137037801Y-76881813D01*
X137119953Y-76999139D01*
X137280861Y-77160047D01*
X137467266Y-77290568D01*
X137472172Y-77292855D01*
X137472176Y-77292858D01*
X137525274Y-77317618D01*
X137577450Y-77363375D01*
X137596869Y-77430000D01*
X137577450Y-77496625D01*
X137525274Y-77542382D01*
X137472176Y-77567141D01*
X137472163Y-77567148D01*
X137467266Y-77569432D01*
X137462833Y-77572535D01*
X137462826Y-77572540D01*
X137285296Y-77696847D01*
X137285291Y-77696850D01*
X137280861Y-77699953D01*
X137277037Y-77703776D01*
X137277031Y-77703782D01*
X137123782Y-77857031D01*
X137123776Y-77857037D01*
X137119953Y-77860861D01*
X137116850Y-77865291D01*
X137116847Y-77865296D01*
X136992540Y-78042826D01*
X136992535Y-78042833D01*
X136989432Y-78047266D01*
X136987144Y-78052172D01*
X136987142Y-78052176D01*
X136895550Y-78248594D01*
X136895547Y-78248599D01*
X136893261Y-78253504D01*
X136891862Y-78258724D01*
X136891858Y-78258736D01*
X136835764Y-78468083D01*
X136835762Y-78468094D01*
X136834365Y-78473308D01*
X136814532Y-78700000D01*
X136834365Y-78926692D01*
X136835762Y-78931907D01*
X136835764Y-78931916D01*
X136891858Y-79141263D01*
X136891861Y-79141271D01*
X136893261Y-79146496D01*
X136989432Y-79352734D01*
X137119953Y-79539139D01*
X137280861Y-79700047D01*
X137467266Y-79830568D01*
X137472172Y-79832855D01*
X137472176Y-79832858D01*
X137525274Y-79857618D01*
X137577450Y-79903375D01*
X137596869Y-79970000D01*
X137577450Y-80036625D01*
X137525274Y-80082382D01*
X137472176Y-80107141D01*
X137472163Y-80107148D01*
X137467266Y-80109432D01*
X137462833Y-80112535D01*
X137462826Y-80112540D01*
X137285296Y-80236847D01*
X137285291Y-80236850D01*
X137280861Y-80239953D01*
X137277037Y-80243776D01*
X137277031Y-80243782D01*
X137123782Y-80397031D01*
X137123776Y-80397037D01*
X137119953Y-80400861D01*
X137116850Y-80405291D01*
X137116847Y-80405296D01*
X136992540Y-80582826D01*
X136992535Y-80582833D01*
X136989432Y-80587266D01*
X136987144Y-80592172D01*
X136987142Y-80592176D01*
X136895550Y-80788594D01*
X136895547Y-80788599D01*
X136893261Y-80793504D01*
X136891862Y-80798724D01*
X136891858Y-80798736D01*
X136835764Y-81008083D01*
X136835762Y-81008094D01*
X136834365Y-81013308D01*
X136814532Y-81240000D01*
X136834365Y-81466692D01*
X136835762Y-81471907D01*
X136835764Y-81471916D01*
X136891858Y-81681263D01*
X136891861Y-81681271D01*
X136893261Y-81686496D01*
X136989432Y-81892734D01*
X137119953Y-82079139D01*
X137280861Y-82240047D01*
X137467266Y-82370568D01*
X137472172Y-82372855D01*
X137472176Y-82372858D01*
X137525274Y-82397618D01*
X137577450Y-82443375D01*
X137596869Y-82510000D01*
X137577450Y-82576625D01*
X137525274Y-82622382D01*
X137472176Y-82647141D01*
X137472163Y-82647148D01*
X137467266Y-82649432D01*
X137462833Y-82652535D01*
X137462826Y-82652540D01*
X137285296Y-82776847D01*
X137285291Y-82776850D01*
X137280861Y-82779953D01*
X137277037Y-82783776D01*
X137277031Y-82783782D01*
X137123782Y-82937031D01*
X137123776Y-82937037D01*
X137119953Y-82940861D01*
X137116850Y-82945291D01*
X137116847Y-82945296D01*
X136992540Y-83122826D01*
X136992535Y-83122833D01*
X136989432Y-83127266D01*
X136987144Y-83132172D01*
X136987142Y-83132176D01*
X136895550Y-83328594D01*
X136895547Y-83328599D01*
X136893261Y-83333504D01*
X136891862Y-83338724D01*
X136891858Y-83338736D01*
X136835764Y-83548083D01*
X136835762Y-83548094D01*
X136834365Y-83553308D01*
X136833893Y-83558693D01*
X136833893Y-83558698D01*
X136820224Y-83714935D01*
X136814532Y-83780000D01*
X136834365Y-84006692D01*
X136835762Y-84011907D01*
X136835764Y-84011916D01*
X136891858Y-84221263D01*
X136891861Y-84221271D01*
X136893261Y-84226496D01*
X136989432Y-84432734D01*
X137119953Y-84619139D01*
X137280861Y-84780047D01*
X137467266Y-84910568D01*
X137472172Y-84912855D01*
X137472176Y-84912858D01*
X137525274Y-84937618D01*
X137577450Y-84983375D01*
X137596869Y-85050000D01*
X137577450Y-85116625D01*
X137525274Y-85162382D01*
X137472176Y-85187141D01*
X137472163Y-85187148D01*
X137467266Y-85189432D01*
X137462833Y-85192535D01*
X137462826Y-85192540D01*
X137285296Y-85316847D01*
X137285291Y-85316850D01*
X137280861Y-85319953D01*
X137277037Y-85323776D01*
X137277031Y-85323782D01*
X137123782Y-85477031D01*
X137123776Y-85477037D01*
X137119953Y-85480861D01*
X137116850Y-85485291D01*
X137116847Y-85485296D01*
X136992540Y-85662826D01*
X136992535Y-85662833D01*
X136989432Y-85667266D01*
X136987144Y-85672172D01*
X136987142Y-85672176D01*
X136895550Y-85868594D01*
X136895547Y-85868599D01*
X136893261Y-85873504D01*
X136891862Y-85878724D01*
X136891858Y-85878736D01*
X136835764Y-86088083D01*
X136835762Y-86088094D01*
X136834365Y-86093308D01*
X136814532Y-86320000D01*
X136834365Y-86546692D01*
X136835762Y-86551907D01*
X136835764Y-86551916D01*
X136891858Y-86761263D01*
X136891861Y-86761271D01*
X136893261Y-86766496D01*
X136989432Y-86972734D01*
X137119953Y-87159139D01*
X137280861Y-87320047D01*
X137467266Y-87450568D01*
X137673504Y-87546739D01*
X137893308Y-87605635D01*
X138120000Y-87625468D01*
X138346692Y-87605635D01*
X138566496Y-87546739D01*
X138772734Y-87450568D01*
X138959139Y-87320047D01*
X139120047Y-87159139D01*
X139250568Y-86972734D01*
X139346739Y-86766496D01*
X139405635Y-86546692D01*
X139425468Y-86320000D01*
X139405635Y-86093308D01*
X139346739Y-85873504D01*
X139250568Y-85667266D01*
X139120047Y-85480861D01*
X138959139Y-85319953D01*
X138772734Y-85189432D01*
X138714724Y-85162381D01*
X138662549Y-85116625D01*
X138643130Y-85050000D01*
X138662549Y-84983375D01*
X138714725Y-84937618D01*
X138772734Y-84910568D01*
X138959139Y-84780047D01*
X139120047Y-84619139D01*
X139250568Y-84432734D01*
X139346739Y-84226496D01*
X139405635Y-84006692D01*
X139425468Y-83780000D01*
X139405635Y-83553308D01*
X139346739Y-83333504D01*
X139250568Y-83127266D01*
X139120047Y-82940861D01*
X138959139Y-82779953D01*
X138772734Y-82649432D01*
X138714724Y-82622381D01*
X138662549Y-82576625D01*
X138643130Y-82510000D01*
X138662549Y-82443375D01*
X138714725Y-82397618D01*
X138772734Y-82370568D01*
X138959139Y-82240047D01*
X139120047Y-82079139D01*
X139250568Y-81892734D01*
X139346739Y-81686496D01*
X139405635Y-81466692D01*
X139425468Y-81240000D01*
X139405635Y-81013308D01*
X139346739Y-80793504D01*
X139250568Y-80587266D01*
X139120047Y-80400861D01*
X138959139Y-80239953D01*
X138772734Y-80109432D01*
X138714724Y-80082381D01*
X138662549Y-80036625D01*
X138643130Y-79970000D01*
X138662549Y-79903375D01*
X138714725Y-79857618D01*
X138772734Y-79830568D01*
X138959139Y-79700047D01*
X139120047Y-79539139D01*
X139250568Y-79352734D01*
X139346739Y-79146496D01*
X139405635Y-78926692D01*
X139425468Y-78700000D01*
X139405635Y-78473308D01*
X139346739Y-78253504D01*
X139250568Y-78047266D01*
X139120047Y-77860861D01*
X138959139Y-77699953D01*
X138772734Y-77569432D01*
X138714724Y-77542381D01*
X138662549Y-77496625D01*
X138643130Y-77430000D01*
X138662549Y-77363375D01*
X138714725Y-77317618D01*
X138772734Y-77290568D01*
X138959139Y-77160047D01*
X139120047Y-76999139D01*
X139180098Y-76913377D01*
X139224416Y-76874511D01*
X139281673Y-76860500D01*
X139818481Y-76860500D01*
X139865934Y-76869939D01*
X139906162Y-76896819D01*
X140413181Y-77403838D01*
X140440061Y-77444066D01*
X140449500Y-77491519D01*
X140449500Y-95914944D01*
X140449500Y-96085056D01*
X140451293Y-96092333D01*
X140451294Y-96092336D01*
X140457920Y-96119219D01*
X140460617Y-96133941D01*
X140463954Y-96161422D01*
X140463956Y-96161432D01*
X140464860Y-96168872D01*
X140467517Y-96175878D01*
X140467518Y-96175882D01*
X140477337Y-96201773D01*
X140481789Y-96216063D01*
X140490210Y-96250225D01*
X140493695Y-96256865D01*
X140506559Y-96281376D01*
X140512702Y-96295026D01*
X140522521Y-96320914D01*
X140525182Y-96327930D01*
X140529442Y-96334101D01*
X140545173Y-96356892D01*
X140552917Y-96369703D01*
X140565778Y-96394208D01*
X140565781Y-96394213D01*
X140569266Y-96400852D01*
X140592591Y-96427181D01*
X140601824Y-96438966D01*
X140617553Y-96461753D01*
X140617556Y-96461757D01*
X140621817Y-96467929D01*
X140627430Y-96472901D01*
X140627433Y-96472905D01*
X140648149Y-96491257D01*
X140658740Y-96501848D01*
X140677096Y-96522568D01*
X140677098Y-96522570D01*
X140682071Y-96528183D01*
X140711034Y-96548175D01*
X140722813Y-96557404D01*
X140749148Y-96580734D01*
X140780289Y-96597078D01*
X140780297Y-96597082D01*
X140793112Y-96604829D01*
X140822070Y-96624818D01*
X140854982Y-96637299D01*
X140868609Y-96643432D01*
X140899775Y-96659790D01*
X140933952Y-96668213D01*
X140948228Y-96672663D01*
X140981128Y-96685140D01*
X141016055Y-96689380D01*
X141030779Y-96692078D01*
X141064944Y-96700500D01*
X141107628Y-96700500D01*
X141235056Y-96700500D01*
X144764944Y-96700500D01*
X144892372Y-96700500D01*
X144927551Y-96700500D01*
X144935056Y-96700500D01*
X144969238Y-96692074D01*
X144983926Y-96689382D01*
X145018872Y-96685140D01*
X145035779Y-96678728D01*
X145051766Y-96672665D01*
X145066066Y-96668209D01*
X145066070Y-96668208D01*
X145100225Y-96659790D01*
X145131380Y-96643437D01*
X145145022Y-96637297D01*
X145177930Y-96624818D01*
X145206909Y-96604814D01*
X145219687Y-96597089D01*
X145250852Y-96580734D01*
X145277190Y-96557400D01*
X145288971Y-96548170D01*
X145317929Y-96528183D01*
X145341264Y-96501841D01*
X145351841Y-96491264D01*
X145378183Y-96467929D01*
X145398175Y-96438966D01*
X145407400Y-96427190D01*
X145430734Y-96400852D01*
X145447089Y-96369687D01*
X145454814Y-96356909D01*
X145474818Y-96327930D01*
X145487297Y-96295022D01*
X145493440Y-96281376D01*
X145509790Y-96250225D01*
X145518209Y-96216065D01*
X145522665Y-96201766D01*
X145532478Y-96175891D01*
X145532478Y-96175890D01*
X145535140Y-96168872D01*
X145539382Y-96133926D01*
X145542074Y-96119238D01*
X145550500Y-96085056D01*
X145550500Y-95914944D01*
X145550500Y-93057889D01*
X145559939Y-93010436D01*
X145586819Y-92970208D01*
X146378319Y-92178708D01*
X146427682Y-92148458D01*
X146485398Y-92143916D01*
X146538885Y-92166071D01*
X146576485Y-92210094D01*
X146590000Y-92266389D01*
X146590000Y-92894518D01*
X146590353Y-92901114D01*
X146595573Y-92949667D01*
X146599111Y-92964641D01*
X146643547Y-93083777D01*
X146651964Y-93099193D01*
X146712660Y-93180273D01*
X146734559Y-93228225D01*
X146734559Y-93280941D01*
X146712660Y-93328893D01*
X146651521Y-93410564D01*
X146651516Y-93410572D01*
X146646204Y-93417669D01*
X146643104Y-93425978D01*
X146643104Y-93425980D01*
X146598620Y-93545247D01*
X146598619Y-93545250D01*
X146595909Y-93552517D01*
X146595079Y-93560227D01*
X146595079Y-93560232D01*
X146589855Y-93608819D01*
X146589854Y-93608831D01*
X146589500Y-93612127D01*
X146589500Y-93615448D01*
X146589500Y-93615449D01*
X146589500Y-95204560D01*
X146589500Y-95204578D01*
X146589501Y-95207872D01*
X146589853Y-95211150D01*
X146589854Y-95211161D01*
X146595079Y-95259768D01*
X146595080Y-95259773D01*
X146595909Y-95267483D01*
X146598619Y-95274749D01*
X146598620Y-95274753D01*
X146613224Y-95313908D01*
X146646204Y-95402331D01*
X146651518Y-95409430D01*
X146651519Y-95409431D01*
X146696880Y-95470026D01*
X146732454Y-95517546D01*
X146847669Y-95603796D01*
X146982517Y-95654091D01*
X147042127Y-95660500D01*
X149137872Y-95660499D01*
X149197483Y-95654091D01*
X149332331Y-95603796D01*
X149447546Y-95517546D01*
X149533796Y-95402331D01*
X149584091Y-95267483D01*
X149590500Y-95207873D01*
X149590499Y-95204547D01*
X149590678Y-95201231D01*
X149591896Y-95201296D01*
X149603519Y-95151777D01*
X149639972Y-95107985D01*
X149685609Y-95087989D01*
X149685388Y-95087280D01*
X149691762Y-95085293D01*
X149692161Y-95085119D01*
X149692553Y-95085047D01*
X149692552Y-95085047D01*
X149699932Y-95083695D01*
X149754808Y-95058996D01*
X149761673Y-95056152D01*
X149817930Y-95034818D01*
X149826264Y-95029064D01*
X149845821Y-95018034D01*
X149855057Y-95013878D01*
X149902413Y-94976775D01*
X149908420Y-94972355D01*
X149957929Y-94938183D01*
X149997822Y-94893151D01*
X150002924Y-94887731D01*
X150167731Y-94722924D01*
X150173151Y-94717822D01*
X150218183Y-94677929D01*
X150252362Y-94628411D01*
X150256789Y-94622396D01*
X150293878Y-94575056D01*
X150298034Y-94565820D01*
X150309061Y-94546269D01*
X150314818Y-94537930D01*
X150336147Y-94481686D01*
X150339001Y-94474795D01*
X150363695Y-94419931D01*
X150365522Y-94409957D01*
X150371548Y-94388340D01*
X150375140Y-94378872D01*
X150382386Y-94319184D01*
X150383514Y-94311776D01*
X150385456Y-94301180D01*
X150394358Y-94252606D01*
X150390725Y-94192566D01*
X150390500Y-94185079D01*
X150390500Y-90672449D01*
X150390500Y-90664944D01*
X150382078Y-90630779D01*
X150379380Y-90616053D01*
X150376044Y-90588574D01*
X150376043Y-90588573D01*
X150375140Y-90581128D01*
X150362663Y-90548228D01*
X150358213Y-90533952D01*
X150349790Y-90499775D01*
X150333432Y-90468609D01*
X150327299Y-90454982D01*
X150314818Y-90422070D01*
X150294829Y-90393112D01*
X150287082Y-90380297D01*
X150274219Y-90355789D01*
X150270734Y-90349148D01*
X150247404Y-90322813D01*
X150238172Y-90311030D01*
X150218183Y-90282071D01*
X150212570Y-90277098D01*
X150212568Y-90277096D01*
X150191848Y-90258740D01*
X150181257Y-90248149D01*
X150162905Y-90227433D01*
X150162901Y-90227430D01*
X150157929Y-90221817D01*
X150151757Y-90217556D01*
X150151753Y-90217553D01*
X150128966Y-90201824D01*
X150117181Y-90192591D01*
X150090852Y-90169266D01*
X150084213Y-90165781D01*
X150084208Y-90165778D01*
X150059703Y-90152917D01*
X150046892Y-90145173D01*
X150026273Y-90130941D01*
X150017930Y-90125182D01*
X150010918Y-90122522D01*
X150010915Y-90122521D01*
X149985026Y-90112702D01*
X149971376Y-90106559D01*
X149946865Y-90093695D01*
X149940225Y-90090210D01*
X149906063Y-90081789D01*
X149891773Y-90077337D01*
X149865882Y-90067518D01*
X149865878Y-90067517D01*
X149858872Y-90064860D01*
X149851432Y-90063956D01*
X149851422Y-90063954D01*
X149823941Y-90060617D01*
X149809219Y-90057920D01*
X149782336Y-90051294D01*
X149782333Y-90051293D01*
X149775056Y-90049500D01*
X149767555Y-90049500D01*
X146841280Y-90049500D01*
X146833793Y-90049274D01*
X146781251Y-90046095D01*
X146781243Y-90046095D01*
X146773764Y-90045643D01*
X146766389Y-90046994D01*
X146766379Y-90046995D01*
X146714612Y-90056481D01*
X146707213Y-90057608D01*
X146654937Y-90063956D01*
X146654931Y-90063957D01*
X146647498Y-90064860D01*
X146640493Y-90067516D01*
X146640482Y-90067519D01*
X146638009Y-90068457D01*
X146616411Y-90074478D01*
X146613821Y-90074952D01*
X146613814Y-90074954D01*
X146606438Y-90076306D01*
X146599597Y-90079384D01*
X146599593Y-90079386D01*
X146551598Y-90100986D01*
X146544683Y-90103850D01*
X146495451Y-90122522D01*
X146495443Y-90122525D01*
X146488440Y-90125182D01*
X146482279Y-90129434D01*
X146482268Y-90129440D01*
X146480095Y-90130941D01*
X146460558Y-90141960D01*
X146458148Y-90143044D01*
X146458138Y-90143049D01*
X146451313Y-90146122D01*
X146445418Y-90150739D01*
X146445410Y-90150745D01*
X146403967Y-90183213D01*
X146397938Y-90187649D01*
X146354618Y-90217551D01*
X146354606Y-90217560D01*
X146348441Y-90221817D01*
X146343472Y-90227425D01*
X146343466Y-90227431D01*
X146308554Y-90266838D01*
X146303421Y-90272290D01*
X144372290Y-92203421D01*
X144366838Y-92208554D01*
X144327431Y-92243466D01*
X144327425Y-92243472D01*
X144321817Y-92248441D01*
X144317560Y-92254606D01*
X144317551Y-92254618D01*
X144287649Y-92297938D01*
X144283213Y-92303967D01*
X144250749Y-92345405D01*
X144250743Y-92345413D01*
X144246122Y-92351313D01*
X144243044Y-92358150D01*
X144243043Y-92358153D01*
X144241962Y-92360555D01*
X144230940Y-92380097D01*
X144229441Y-92382268D01*
X144229437Y-92382274D01*
X144225182Y-92388440D01*
X144222526Y-92395440D01*
X144222522Y-92395450D01*
X144203853Y-92444675D01*
X144200989Y-92451589D01*
X144179382Y-92499599D01*
X144179379Y-92499605D01*
X144176305Y-92506438D01*
X144174953Y-92513809D01*
X144174951Y-92513819D01*
X144174474Y-92516423D01*
X144168456Y-92538013D01*
X144167519Y-92540484D01*
X144167517Y-92540489D01*
X144164860Y-92547498D01*
X144163956Y-92554935D01*
X144163956Y-92554939D01*
X144157610Y-92607197D01*
X144156484Y-92614594D01*
X144150390Y-92647848D01*
X144127555Y-92699989D01*
X144083827Y-92736434D01*
X144028422Y-92749500D01*
X143824500Y-92749500D01*
X143762500Y-92732887D01*
X143717113Y-92687500D01*
X143700500Y-92625500D01*
X143700500Y-91936519D01*
X143709939Y-91889066D01*
X143736819Y-91848838D01*
X149717062Y-85868594D01*
X151841881Y-83743774D01*
X151902721Y-83710396D01*
X151971970Y-83714935D01*
X152027936Y-83755970D01*
X152053088Y-83820649D01*
X152069365Y-84006692D01*
X152070762Y-84011907D01*
X152070764Y-84011916D01*
X152126858Y-84221263D01*
X152126861Y-84221271D01*
X152128261Y-84226496D01*
X152224432Y-84432734D01*
X152354953Y-84619139D01*
X152515861Y-84780047D01*
X152702266Y-84910568D01*
X152707172Y-84912855D01*
X152707176Y-84912858D01*
X152760274Y-84937618D01*
X152812450Y-84983375D01*
X152831869Y-85050000D01*
X152812450Y-85116625D01*
X152760274Y-85162382D01*
X152707176Y-85187141D01*
X152707163Y-85187148D01*
X152702266Y-85189432D01*
X152697833Y-85192535D01*
X152697826Y-85192540D01*
X152520296Y-85316847D01*
X152520291Y-85316850D01*
X152515861Y-85319953D01*
X152512037Y-85323776D01*
X152512031Y-85323782D01*
X152358782Y-85477031D01*
X152358776Y-85477037D01*
X152354953Y-85480861D01*
X152351850Y-85485291D01*
X152351847Y-85485296D01*
X152227540Y-85662826D01*
X152227535Y-85662833D01*
X152224432Y-85667266D01*
X152222144Y-85672172D01*
X152222142Y-85672176D01*
X152130550Y-85868594D01*
X152130547Y-85868599D01*
X152128261Y-85873504D01*
X152126862Y-85878724D01*
X152126858Y-85878736D01*
X152070764Y-86088083D01*
X152070762Y-86088094D01*
X152069365Y-86093308D01*
X152049532Y-86320000D01*
X152069365Y-86546692D01*
X152070762Y-86551907D01*
X152070764Y-86551916D01*
X152126858Y-86761263D01*
X152126861Y-86761271D01*
X152128261Y-86766496D01*
X152224432Y-86972734D01*
X152354953Y-87159139D01*
X152515861Y-87320047D01*
X152702266Y-87450568D01*
X152908504Y-87546739D01*
X153128308Y-87605635D01*
X153355000Y-87625468D01*
X153581692Y-87605635D01*
X153801496Y-87546739D01*
X154007734Y-87450568D01*
X154194139Y-87320047D01*
X154355047Y-87159139D01*
X154485568Y-86972734D01*
X154581739Y-86766496D01*
X154640635Y-86546692D01*
X154660468Y-86320000D01*
X154640635Y-86093308D01*
X154581739Y-85873504D01*
X154485568Y-85667266D01*
X154355047Y-85480861D01*
X154194139Y-85319953D01*
X154007734Y-85189432D01*
X153949724Y-85162381D01*
X153897549Y-85116625D01*
X153878130Y-85050000D01*
X153897549Y-84983375D01*
X153949725Y-84937618D01*
X154007734Y-84910568D01*
X154194139Y-84780047D01*
X154355047Y-84619139D01*
X154485568Y-84432734D01*
X154581739Y-84226496D01*
X154640635Y-84006692D01*
X154660468Y-83780000D01*
X154640635Y-83553308D01*
X154581739Y-83333504D01*
X154485568Y-83127266D01*
X154355047Y-82940861D01*
X154194139Y-82779953D01*
X154007734Y-82649432D01*
X153949724Y-82622381D01*
X153897549Y-82576625D01*
X153878130Y-82510000D01*
X153897549Y-82443375D01*
X153949725Y-82397618D01*
X154007734Y-82370568D01*
X154194139Y-82240047D01*
X154355047Y-82079139D01*
X154485568Y-81892734D01*
X154581739Y-81686496D01*
X154640635Y-81466692D01*
X154660468Y-81240000D01*
X154640635Y-81013308D01*
X154581739Y-80793504D01*
X154485568Y-80587266D01*
X154355047Y-80400861D01*
X154194139Y-80239953D01*
X154007734Y-80109432D01*
X153949724Y-80082381D01*
X153897549Y-80036625D01*
X153878130Y-79970000D01*
X153897549Y-79903375D01*
X153949725Y-79857618D01*
X154007734Y-79830568D01*
X154194139Y-79700047D01*
X154355047Y-79539139D01*
X154356664Y-79536828D01*
X154411962Y-79499289D01*
X154479565Y-79496333D01*
X154538654Y-79529311D01*
X155263181Y-80253838D01*
X155290061Y-80294066D01*
X155299500Y-80341519D01*
X155299500Y-90498481D01*
X155290061Y-90545934D01*
X155263181Y-90586162D01*
X154136161Y-91713181D01*
X154095933Y-91740061D01*
X154048480Y-91749500D01*
X152295439Y-91749500D01*
X152295420Y-91749500D01*
X152292128Y-91749501D01*
X152288850Y-91749853D01*
X152288838Y-91749854D01*
X152240231Y-91755079D01*
X152240225Y-91755080D01*
X152232517Y-91755909D01*
X152225252Y-91758618D01*
X152225246Y-91758620D01*
X152105980Y-91803104D01*
X152105978Y-91803104D01*
X152097669Y-91806204D01*
X152090572Y-91811516D01*
X152090568Y-91811519D01*
X151989550Y-91887141D01*
X151989546Y-91887144D01*
X151982454Y-91892454D01*
X151977144Y-91899546D01*
X151977141Y-91899550D01*
X151901519Y-92000568D01*
X151901516Y-92000572D01*
X151896204Y-92007669D01*
X151893104Y-92015978D01*
X151893104Y-92015980D01*
X151848620Y-92135247D01*
X151848619Y-92135250D01*
X151845909Y-92142517D01*
X151845079Y-92150227D01*
X151845079Y-92150232D01*
X151839855Y-92198819D01*
X151839854Y-92198831D01*
X151839500Y-92202127D01*
X151839500Y-92205448D01*
X151839500Y-92205449D01*
X151839500Y-94294560D01*
X151839500Y-94294578D01*
X151839501Y-94297872D01*
X151839853Y-94301150D01*
X151839854Y-94301161D01*
X151845079Y-94349768D01*
X151845080Y-94349773D01*
X151845909Y-94357483D01*
X151848619Y-94364749D01*
X151848620Y-94364753D01*
X151871751Y-94426770D01*
X151896204Y-94492331D01*
X151901518Y-94499430D01*
X151901519Y-94499431D01*
X151953014Y-94568220D01*
X151982454Y-94607546D01*
X152097669Y-94693796D01*
X152232517Y-94744091D01*
X152292127Y-94750500D01*
X154887872Y-94750499D01*
X154947483Y-94744091D01*
X155082331Y-94693796D01*
X155197546Y-94607546D01*
X155283796Y-94492331D01*
X155334091Y-94357483D01*
X155340500Y-94297873D01*
X155340499Y-92541517D01*
X155349938Y-92494065D01*
X155376815Y-92453840D01*
X156477731Y-91352924D01*
X156483151Y-91347822D01*
X156528183Y-91307929D01*
X156562362Y-91258411D01*
X156566789Y-91252396D01*
X156569092Y-91249457D01*
X156603878Y-91205056D01*
X156608034Y-91195820D01*
X156619061Y-91176269D01*
X156624818Y-91167930D01*
X156646147Y-91111686D01*
X156649001Y-91104795D01*
X156673695Y-91049931D01*
X156675522Y-91039957D01*
X156681548Y-91018340D01*
X156685140Y-91008872D01*
X156692386Y-90949184D01*
X156693514Y-90941776D01*
X156704358Y-90882606D01*
X156700725Y-90822566D01*
X156700500Y-90815079D01*
X156700500Y-80024921D01*
X156700726Y-80017433D01*
X156703905Y-79964881D01*
X156704358Y-79957394D01*
X156693514Y-79898221D01*
X156692387Y-79890815D01*
X156688356Y-79857618D01*
X156685140Y-79831128D01*
X156681547Y-79821656D01*
X156675522Y-79800041D01*
X156673695Y-79790069D01*
X156649009Y-79735220D01*
X156646142Y-79728298D01*
X156646110Y-79728214D01*
X156624818Y-79672070D01*
X156619059Y-79663727D01*
X156608033Y-79644177D01*
X156606956Y-79641784D01*
X156603878Y-79634944D01*
X156566791Y-79587605D01*
X156562353Y-79581574D01*
X156532446Y-79538247D01*
X156528183Y-79532071D01*
X156522568Y-79527097D01*
X156522565Y-79527093D01*
X156483170Y-79492193D01*
X156477716Y-79487059D01*
X155212939Y-78222282D01*
X155207822Y-78216847D01*
X155167929Y-78171817D01*
X155118410Y-78137636D01*
X155112404Y-78133216D01*
X155070961Y-78100747D01*
X155070958Y-78100745D01*
X155065057Y-78096122D01*
X155058219Y-78093044D01*
X155058210Y-78093039D01*
X155055810Y-78091959D01*
X155036268Y-78080937D01*
X155034107Y-78079445D01*
X155034102Y-78079442D01*
X155027930Y-78075182D01*
X154971702Y-78053857D01*
X154964784Y-78050991D01*
X154916772Y-78029383D01*
X154916769Y-78029382D01*
X154909932Y-78026305D01*
X154902560Y-78024954D01*
X154902551Y-78024951D01*
X154899952Y-78024475D01*
X154878340Y-78018450D01*
X154875891Y-78017521D01*
X154875885Y-78017519D01*
X154868872Y-78014860D01*
X154861430Y-78013956D01*
X154861425Y-78013955D01*
X154809171Y-78007610D01*
X154801771Y-78006483D01*
X154749987Y-77996994D01*
X154749982Y-77996993D01*
X154742606Y-77995642D01*
X154735126Y-77996094D01*
X154735118Y-77996094D01*
X154682567Y-77999274D01*
X154675079Y-77999500D01*
X154516673Y-77999500D01*
X154459416Y-77985489D01*
X154415098Y-77946623D01*
X154358152Y-77865296D01*
X154355047Y-77860861D01*
X154194139Y-77699953D01*
X154007734Y-77569432D01*
X153949724Y-77542381D01*
X153897549Y-77496625D01*
X153878130Y-77430000D01*
X153897549Y-77363375D01*
X153949725Y-77317618D01*
X154007734Y-77290568D01*
X154194139Y-77160047D01*
X154355047Y-76999139D01*
X154485568Y-76812734D01*
X154581739Y-76606496D01*
X154640635Y-76386692D01*
X154660468Y-76160000D01*
X154640635Y-75933308D01*
X154581739Y-75713504D01*
X154485568Y-75507266D01*
X154355047Y-75320861D01*
X154194139Y-75159953D01*
X154007734Y-75029432D01*
X153949724Y-75002381D01*
X153897549Y-74956625D01*
X153878130Y-74890000D01*
X153897549Y-74823375D01*
X153949725Y-74777618D01*
X153950319Y-74777341D01*
X154007734Y-74750568D01*
X154194139Y-74620047D01*
X154355047Y-74459139D01*
X154485568Y-74272734D01*
X154581739Y-74066496D01*
X154640635Y-73846692D01*
X154660468Y-73620000D01*
X154640635Y-73393308D01*
X154581739Y-73173504D01*
X154485568Y-72967266D01*
X154355047Y-72780861D01*
X154194139Y-72619953D01*
X154070219Y-72533184D01*
X154012173Y-72492540D01*
X154012171Y-72492539D01*
X154007734Y-72489432D01*
X154002827Y-72487143D01*
X154002817Y-72487138D01*
X153949724Y-72462380D01*
X153897549Y-72416623D01*
X153878130Y-72349997D01*
X153897550Y-72283372D01*
X153949723Y-72237618D01*
X154007734Y-72210568D01*
X154194139Y-72080047D01*
X154355047Y-71919139D01*
X154485568Y-71732734D01*
X154581739Y-71526496D01*
X154640635Y-71306692D01*
X154660468Y-71080000D01*
X154640635Y-70853308D01*
X154630251Y-70814557D01*
X154626184Y-70776226D01*
X154634084Y-70738497D01*
X154646144Y-70706695D01*
X154649001Y-70699795D01*
X154673695Y-70644931D01*
X154675522Y-70634957D01*
X154681548Y-70613340D01*
X154685140Y-70603872D01*
X154692386Y-70544184D01*
X154693514Y-70536776D01*
X154704358Y-70477606D01*
X154700725Y-70417566D01*
X154700500Y-70410079D01*
X154700500Y-65024921D01*
X154700726Y-65017433D01*
X154703905Y-64964881D01*
X154704358Y-64957394D01*
X154693514Y-64898221D01*
X154692387Y-64890815D01*
X154692146Y-64888831D01*
X154685140Y-64831128D01*
X154681547Y-64821656D01*
X154675522Y-64800041D01*
X154673695Y-64790069D01*
X154649009Y-64735220D01*
X154646142Y-64728298D01*
X154641900Y-64717113D01*
X154624818Y-64672070D01*
X154619059Y-64663727D01*
X154608033Y-64644177D01*
X154606956Y-64641784D01*
X154603878Y-64634944D01*
X154566788Y-64587603D01*
X154562352Y-64581573D01*
X154532444Y-64538244D01*
X154532443Y-64538243D01*
X154528183Y-64532071D01*
X154483162Y-64492186D01*
X154477708Y-64487052D01*
X154386818Y-64396162D01*
X154359938Y-64355934D01*
X154350499Y-64308481D01*
X154350499Y-62955439D01*
X154350499Y-62952128D01*
X154344091Y-62892517D01*
X154293796Y-62757669D01*
X154207546Y-62642454D01*
X154092331Y-62556204D01*
X153957483Y-62505909D01*
X153949770Y-62505079D01*
X153949767Y-62505079D01*
X153901180Y-62499855D01*
X153901169Y-62499854D01*
X153897873Y-62499500D01*
X153894550Y-62499500D01*
X152105439Y-62499500D01*
X152105420Y-62499500D01*
X152102128Y-62499501D01*
X152098850Y-62499853D01*
X152098838Y-62499854D01*
X152050231Y-62505079D01*
X152050225Y-62505080D01*
X152042517Y-62505909D01*
X152035252Y-62508618D01*
X152035246Y-62508620D01*
X151915980Y-62553104D01*
X151915978Y-62553104D01*
X151907669Y-62556204D01*
X151900572Y-62561516D01*
X151900568Y-62561519D01*
X151799550Y-62637141D01*
X151799546Y-62637144D01*
X151792454Y-62642454D01*
X151787144Y-62649546D01*
X151787141Y-62649550D01*
X151711519Y-62750568D01*
X151711516Y-62750572D01*
X151706204Y-62757669D01*
X151703104Y-62765978D01*
X151703104Y-62765980D01*
X151658620Y-62885247D01*
X151658619Y-62885250D01*
X151655909Y-62892517D01*
X151655079Y-62900227D01*
X151655079Y-62900232D01*
X151649855Y-62948819D01*
X151649854Y-62948831D01*
X151649500Y-62952127D01*
X151649500Y-62955448D01*
X151649500Y-62955449D01*
X151649500Y-65044560D01*
X151649500Y-65044578D01*
X151649501Y-65047872D01*
X151649853Y-65051150D01*
X151649854Y-65051161D01*
X151655079Y-65099768D01*
X151655080Y-65099773D01*
X151655909Y-65107483D01*
X151658619Y-65114749D01*
X151658620Y-65114753D01*
X151692217Y-65204831D01*
X151706204Y-65242331D01*
X151792454Y-65357546D01*
X151907669Y-65443796D01*
X152042517Y-65494091D01*
X152102127Y-65500500D01*
X153175500Y-65500499D01*
X153237500Y-65517112D01*
X153282887Y-65562499D01*
X153299500Y-65624499D01*
X153299500Y-69665763D01*
X153284645Y-69724614D01*
X153243639Y-69769364D01*
X153186307Y-69789290D01*
X153175813Y-69790208D01*
X153133697Y-69793893D01*
X153133690Y-69793894D01*
X153128308Y-69794365D01*
X153123094Y-69795762D01*
X153123083Y-69795764D01*
X152913736Y-69851858D01*
X152913724Y-69851862D01*
X152908504Y-69853261D01*
X152903599Y-69855547D01*
X152903594Y-69855550D01*
X152707176Y-69947142D01*
X152707172Y-69947144D01*
X152702266Y-69949432D01*
X152697833Y-69952535D01*
X152697826Y-69952540D01*
X152520296Y-70076847D01*
X152520291Y-70076850D01*
X152515861Y-70079953D01*
X152512037Y-70083776D01*
X152512031Y-70083782D01*
X152358782Y-70237031D01*
X152358776Y-70237037D01*
X152354953Y-70240861D01*
X152351850Y-70245291D01*
X152351847Y-70245296D01*
X152227540Y-70422826D01*
X152227535Y-70422833D01*
X152224432Y-70427266D01*
X152222144Y-70432172D01*
X152222142Y-70432176D01*
X152130550Y-70628594D01*
X152130547Y-70628599D01*
X152128261Y-70633504D01*
X152126862Y-70638724D01*
X152126858Y-70638736D01*
X152070764Y-70848083D01*
X152070762Y-70848094D01*
X152069365Y-70853308D01*
X152049532Y-71080000D01*
X152069365Y-71306692D01*
X152070762Y-71311907D01*
X152070764Y-71311916D01*
X152126858Y-71521263D01*
X152126861Y-71521271D01*
X152128261Y-71526496D01*
X152224432Y-71732734D01*
X152354953Y-71919139D01*
X152515861Y-72080047D01*
X152702266Y-72210568D01*
X152760276Y-72237618D01*
X152812449Y-72283373D01*
X152831869Y-72349997D01*
X152812451Y-72416622D01*
X152760276Y-72462380D01*
X152707178Y-72487141D01*
X152707173Y-72487143D01*
X152702266Y-72489432D01*
X152697833Y-72492535D01*
X152697826Y-72492540D01*
X152520296Y-72616847D01*
X152520291Y-72616850D01*
X152515861Y-72619953D01*
X152512037Y-72623776D01*
X152512031Y-72623782D01*
X152358782Y-72777031D01*
X152358776Y-72777037D01*
X152354953Y-72780861D01*
X152351850Y-72785291D01*
X152351847Y-72785296D01*
X152294902Y-72866623D01*
X152250584Y-72905489D01*
X152193327Y-72919500D01*
X151961518Y-72919500D01*
X151914065Y-72910061D01*
X151873837Y-72883181D01*
X142512939Y-63522282D01*
X142507822Y-63516847D01*
X142467929Y-63471817D01*
X142418410Y-63437636D01*
X142412404Y-63433216D01*
X142370961Y-63400747D01*
X142370958Y-63400745D01*
X142365057Y-63396122D01*
X142358219Y-63393044D01*
X142358210Y-63393039D01*
X142355810Y-63391959D01*
X142336268Y-63380937D01*
X142334107Y-63379445D01*
X142334102Y-63379442D01*
X142327930Y-63375182D01*
X142271702Y-63353857D01*
X142264784Y-63350991D01*
X142216772Y-63329383D01*
X142216769Y-63329382D01*
X142209932Y-63326305D01*
X142202560Y-63324954D01*
X142202551Y-63324951D01*
X142199952Y-63324475D01*
X142178340Y-63318450D01*
X142175891Y-63317521D01*
X142175885Y-63317519D01*
X142168872Y-63314860D01*
X142161430Y-63313956D01*
X142161425Y-63313955D01*
X142109171Y-63307610D01*
X142101771Y-63306483D01*
X142049987Y-63296994D01*
X142049982Y-63296993D01*
X142042606Y-63295642D01*
X142035126Y-63296094D01*
X142035118Y-63296094D01*
X141982567Y-63299274D01*
X141975079Y-63299500D01*
X139474499Y-63299500D01*
X139412499Y-63282887D01*
X139367112Y-63237500D01*
X139350499Y-63175500D01*
X139350499Y-62955439D01*
X139350499Y-62952128D01*
X139344091Y-62892517D01*
X139293796Y-62757669D01*
X139207546Y-62642454D01*
X139092331Y-62556204D01*
X138957483Y-62505909D01*
X138949770Y-62505079D01*
X138949767Y-62505079D01*
X138901180Y-62499855D01*
X138901169Y-62499854D01*
X138897873Y-62499500D01*
X138894550Y-62499500D01*
X137105439Y-62499500D01*
X137105420Y-62499500D01*
X137102128Y-62499501D01*
X137098850Y-62499853D01*
X137098838Y-62499854D01*
X137050231Y-62505079D01*
X137050225Y-62505080D01*
X137042517Y-62505909D01*
X137035252Y-62508618D01*
X137035246Y-62508620D01*
X136915980Y-62553104D01*
X136915978Y-62553104D01*
X136907669Y-62556204D01*
X136900572Y-62561516D01*
X136900568Y-62561519D01*
X136799550Y-62637141D01*
X136799546Y-62637144D01*
X136792454Y-62642454D01*
X136787144Y-62649546D01*
X136787141Y-62649550D01*
X136711519Y-62750568D01*
X136711516Y-62750572D01*
X136706204Y-62757669D01*
X136703104Y-62765978D01*
X136703104Y-62765980D01*
X136658620Y-62885247D01*
X136658619Y-62885250D01*
X136655909Y-62892517D01*
X136655079Y-62900227D01*
X136655079Y-62900232D01*
X136649855Y-62948819D01*
X136649854Y-62948831D01*
X136649500Y-62952127D01*
X136649500Y-62955448D01*
X136649500Y-62955449D01*
X136649500Y-65044560D01*
X136649500Y-65044578D01*
X131709235Y-65044578D01*
X131667718Y-64765860D01*
X131667880Y-64765739D01*
X131667595Y-64765359D01*
X131667502Y-64765204D01*
X131667484Y-64765199D01*
X131589855Y-64651953D01*
X131589681Y-64651698D01*
X131423412Y-64407244D01*
X131418091Y-64398691D01*
X131324189Y-64233062D01*
X131323641Y-64232083D01*
X131206268Y-64019820D01*
X131202119Y-64011609D01*
X131117739Y-63827911D01*
X131116900Y-63826041D01*
X131024316Y-63614671D01*
X131021224Y-63606909D01*
X130999874Y-63547581D01*
X130951205Y-63412335D01*
X130950202Y-63409435D01*
X130944399Y-63391959D01*
X130878970Y-63194910D01*
X130876851Y-63187820D01*
X130823008Y-62985631D01*
X130822076Y-62981893D01*
X130771406Y-62763844D01*
X130770096Y-62757434D01*
X130733459Y-62550341D01*
X130732710Y-62545565D01*
X130731158Y-62534228D01*
X130702473Y-62324710D01*
X130701843Y-62319161D01*
X130682917Y-62109287D01*
X130682540Y-62103646D01*
X130672780Y-61880969D01*
X130672663Y-61876202D01*
X130671660Y-61665825D01*
X130671804Y-61659281D01*
X130682644Y-61435765D01*
X130682898Y-61431834D01*
X130688392Y-61363644D01*
X130699698Y-61223316D01*
X130700519Y-61215920D01*
X130724791Y-61044578D01*
X136649500Y-61044578D01*
X136649501Y-61047872D01*
X136649853Y-61051150D01*
X136649854Y-61051161D01*
X136655079Y-61099768D01*
X136655080Y-61099773D01*
X136655909Y-61107483D01*
X136658619Y-61114749D01*
X136658620Y-61114753D01*
X136669626Y-61144261D01*
X136706204Y-61242331D01*
X136711518Y-61249430D01*
X136711519Y-61249431D01*
X136759402Y-61313395D01*
X136792454Y-61357546D01*
X136907669Y-61443796D01*
X137042517Y-61494091D01*
X137102127Y-61500500D01*
X138897872Y-61500499D01*
X138957483Y-61494091D01*
X139092331Y-61443796D01*
X139207546Y-61357546D01*
X139293796Y-61242331D01*
X139344091Y-61107483D01*
X139350500Y-61047873D01*
X139350499Y-60000000D01*
X144994390Y-60000000D01*
X144994706Y-60004418D01*
X145014487Y-60281005D01*
X145014488Y-60281014D01*
X145014804Y-60285428D01*
X145015744Y-60289753D01*
X145015746Y-60289761D01*
X145066660Y-60523808D01*
X145075631Y-60565046D01*
X145077175Y-60569185D01*
X145077176Y-60569189D01*
X145157720Y-60785136D01*
X145175633Y-60833161D01*
X145177753Y-60837043D01*
X145177756Y-60837050D01*
X145292875Y-61047873D01*
X145312774Y-61084315D01*
X145484261Y-61313395D01*
X145686605Y-61515739D01*
X145915685Y-61687226D01*
X146166839Y-61824367D01*
X146434954Y-61924369D01*
X146714572Y-61985196D01*
X147000000Y-62005610D01*
X147285428Y-61985196D01*
X147565046Y-61924369D01*
X147833161Y-61824367D01*
X148084315Y-61687226D01*
X148313395Y-61515739D01*
X148515739Y-61313395D01*
X148687226Y-61084315D01*
X148824367Y-60833161D01*
X148924369Y-60565046D01*
X148985196Y-60285428D01*
X149005610Y-60000000D01*
X148985196Y-59714572D01*
X148924369Y-59434954D01*
X148824367Y-59166839D01*
X148687226Y-58915685D01*
X148515739Y-58686605D01*
X148313395Y-58484261D01*
X148084315Y-58312774D01*
X148056083Y-58297358D01*
X147837050Y-58177756D01*
X147837043Y-58177753D01*
X147833161Y-58175633D01*
X147829017Y-58174087D01*
X147829012Y-58174085D01*
X147569189Y-58077176D01*
X147569185Y-58077175D01*
X147565046Y-58075631D01*
X147535075Y-58069111D01*
X147289761Y-58015746D01*
X147289753Y-58015744D01*
X147285428Y-58014804D01*
X147281014Y-58014488D01*
X147281005Y-58014487D01*
X147004418Y-57994706D01*
X147000000Y-57994390D01*
X146995582Y-57994706D01*
X146718994Y-58014487D01*
X146718983Y-58014488D01*
X146714572Y-58014804D01*
X146710248Y-58015744D01*
X146710238Y-58015746D01*
X146439279Y-58074690D01*
X146439276Y-58074690D01*
X146434954Y-58075631D01*
X146430818Y-58077173D01*
X146430810Y-58077176D01*
X146170987Y-58174085D01*
X146170976Y-58174089D01*
X146166839Y-58175633D01*
X146162961Y-58177750D01*
X146162949Y-58177756D01*
X145919579Y-58310647D01*
X145919571Y-58310651D01*
X145915685Y-58312774D01*
X145912135Y-58315431D01*
X145912131Y-58315434D01*
X145690156Y-58481602D01*
X145690149Y-58481607D01*
X145686605Y-58484261D01*
X145683474Y-58487391D01*
X145683467Y-58487398D01*
X145487398Y-58683467D01*
X145487391Y-58683474D01*
X145484261Y-58686605D01*
X145481607Y-58690149D01*
X145481602Y-58690156D01*
X145315434Y-58912131D01*
X145312774Y-58915685D01*
X145310651Y-58919571D01*
X145310647Y-58919579D01*
X145177756Y-59162949D01*
X145177750Y-59162961D01*
X145175633Y-59166839D01*
X145174089Y-59170976D01*
X145174085Y-59170987D01*
X145077176Y-59430810D01*
X145077173Y-59430818D01*
X145075631Y-59434954D01*
X145074690Y-59439276D01*
X145074690Y-59439279D01*
X145015746Y-59710238D01*
X145015744Y-59710248D01*
X145014804Y-59714572D01*
X145014488Y-59718983D01*
X145014487Y-59718994D01*
X145000236Y-59918256D01*
X144994390Y-60000000D01*
X139350499Y-60000000D01*
X139350499Y-58952128D01*
X139344091Y-58892517D01*
X139293796Y-58757669D01*
X139207546Y-58642454D01*
X139154735Y-58602920D01*
X139099431Y-58561519D01*
X139099430Y-58561518D01*
X139092331Y-58556204D01*
X139048899Y-58540005D01*
X138964750Y-58508619D01*
X138964746Y-58508618D01*
X138957483Y-58505909D01*
X138951665Y-58505283D01*
X138895275Y-58474653D01*
X138861695Y-58418909D01*
X138860969Y-58353837D01*
X138893296Y-58297360D01*
X141603838Y-55586817D01*
X141644066Y-55559938D01*
X141691519Y-55550499D01*
X143044561Y-55550499D01*
X143047872Y-55550499D01*
X143107483Y-55544091D01*
X143242331Y-55493796D01*
X143357546Y-55407546D01*
X143443796Y-55292331D01*
X143494091Y-55157483D01*
X143500500Y-55097873D01*
X143500500Y-55094518D01*
X147500000Y-55094518D01*
X147500353Y-55101114D01*
X147505573Y-55149667D01*
X147509111Y-55164641D01*
X147553547Y-55283777D01*
X147561962Y-55299189D01*
X147637498Y-55400092D01*
X147649907Y-55412501D01*
X147750810Y-55488037D01*
X147766222Y-55496452D01*
X147885358Y-55540888D01*
X147900332Y-55544426D01*
X147948885Y-55549646D01*
X147955482Y-55550000D01*
X148733674Y-55550000D01*
X148746549Y-55546549D01*
X148750000Y-55533674D01*
X149250000Y-55533674D01*
X149253450Y-55546549D01*
X149266326Y-55550000D01*
X150044518Y-55550000D01*
X150051114Y-55549646D01*
X150099667Y-55544426D01*
X150114641Y-55540888D01*
X150233777Y-55496452D01*
X150249189Y-55488037D01*
X150350092Y-55412501D01*
X150362501Y-55400092D01*
X150438037Y-55299189D01*
X150446452Y-55283777D01*
X150490888Y-55164641D01*
X150494426Y-55149667D01*
X150499646Y-55101114D01*
X150499997Y-55094578D01*
X151499500Y-55094578D01*
X151499501Y-55097872D01*
X151499853Y-55101150D01*
X151499854Y-55101161D01*
X151505079Y-55149768D01*
X151505080Y-55149773D01*
X151505909Y-55157483D01*
X151508619Y-55164749D01*
X151508620Y-55164753D01*
X151541123Y-55251896D01*
X151556204Y-55292331D01*
X151561518Y-55299430D01*
X151561519Y-55299431D01*
X151634543Y-55396979D01*
X151642454Y-55407546D01*
X151757669Y-55493796D01*
X151892517Y-55544091D01*
X151952127Y-55550500D01*
X152175500Y-55550500D01*
X152237500Y-55567113D01*
X152282887Y-55612500D01*
X152299500Y-55674500D01*
X152299500Y-58375501D01*
X152282887Y-58437501D01*
X152237500Y-58482888D01*
X152175500Y-58499501D01*
X152102128Y-58499501D01*
X152098850Y-58499853D01*
X152098838Y-58499854D01*
X152050231Y-58505079D01*
X152050225Y-58505080D01*
X152042517Y-58505909D01*
X152035252Y-58508618D01*
X152035246Y-58508620D01*
X151915980Y-58553104D01*
X151915978Y-58553104D01*
X151907669Y-58556204D01*
X151900572Y-58561516D01*
X151900568Y-58561519D01*
X151799550Y-58637141D01*
X151799546Y-58637144D01*
X151792454Y-58642454D01*
X151787144Y-58649546D01*
X151787141Y-58649550D01*
X151711519Y-58750568D01*
X151711516Y-58750572D01*
X151706204Y-58757669D01*
X151703104Y-58765978D01*
X151703104Y-58765980D01*
X151658620Y-58885247D01*
X151658619Y-58885250D01*
X151655909Y-58892517D01*
X151655079Y-58900227D01*
X151655079Y-58900232D01*
X151649855Y-58948819D01*
X151649854Y-58948831D01*
X151649500Y-58952127D01*
X151649500Y-58955448D01*
X151649500Y-58955449D01*
X151649500Y-61044560D01*
X151649500Y-61044578D01*
X151649501Y-61047872D01*
X151649853Y-61051150D01*
X151649854Y-61051161D01*
X151655079Y-61099768D01*
X151655080Y-61099773D01*
X151655909Y-61107483D01*
X151658619Y-61114749D01*
X151658620Y-61114753D01*
X151669626Y-61144261D01*
X151706204Y-61242331D01*
X151711518Y-61249430D01*
X151711519Y-61249431D01*
X151759402Y-61313395D01*
X151792454Y-61357546D01*
X151907669Y-61443796D01*
X152042517Y-61494091D01*
X152102127Y-61500500D01*
X153897872Y-61500499D01*
X153957483Y-61494091D01*
X154092331Y-61443796D01*
X154207546Y-61357546D01*
X154293796Y-61242331D01*
X154344091Y-61107483D01*
X154350500Y-61047873D01*
X154350499Y-58952128D01*
X154344091Y-58892517D01*
X154293796Y-58757669D01*
X154207546Y-58642454D01*
X154154735Y-58602920D01*
X154099431Y-58561519D01*
X154099430Y-58561518D01*
X154092331Y-58556204D01*
X153957483Y-58505909D01*
X153949770Y-58505079D01*
X153949767Y-58505079D01*
X153901180Y-58499855D01*
X153901169Y-58499854D01*
X153897873Y-58499500D01*
X153894551Y-58499500D01*
X153824500Y-58499500D01*
X153762500Y-58482887D01*
X153717113Y-58437500D01*
X153700500Y-58375500D01*
X153700500Y-55674499D01*
X153717113Y-55612499D01*
X153762500Y-55567112D01*
X153824500Y-55550499D01*
X154044561Y-55550499D01*
X154047872Y-55550499D01*
X154107483Y-55544091D01*
X154242331Y-55493796D01*
X154357546Y-55407546D01*
X154443796Y-55292331D01*
X154494091Y-55157483D01*
X154500500Y-55097873D01*
X154500499Y-53302128D01*
X154494091Y-53242517D01*
X154443796Y-53107669D01*
X154357546Y-52992454D01*
X154242331Y-52906204D01*
X154171965Y-52879959D01*
X154114752Y-52858620D01*
X154114750Y-52858619D01*
X154107483Y-52855909D01*
X154099770Y-52855079D01*
X154099767Y-52855079D01*
X154051180Y-52849855D01*
X154051169Y-52849854D01*
X154047873Y-52849500D01*
X154044550Y-52849500D01*
X151955439Y-52849500D01*
X151955420Y-52849500D01*
X151952128Y-52849501D01*
X151948850Y-52849853D01*
X151948838Y-52849854D01*
X151900231Y-52855079D01*
X151900225Y-52855080D01*
X151892517Y-52855909D01*
X151885252Y-52858618D01*
X151885246Y-52858620D01*
X151765980Y-52903104D01*
X151765978Y-52903104D01*
X151757669Y-52906204D01*
X151750572Y-52911516D01*
X151750568Y-52911519D01*
X151649550Y-52987141D01*
X151649546Y-52987144D01*
X151642454Y-52992454D01*
X151637144Y-52999546D01*
X151637141Y-52999550D01*
X151561519Y-53100568D01*
X151561516Y-53100572D01*
X151556204Y-53107669D01*
X151553104Y-53115978D01*
X151553104Y-53115980D01*
X151508620Y-53235247D01*
X151508619Y-53235250D01*
X151505909Y-53242517D01*
X151505079Y-53250227D01*
X151505079Y-53250232D01*
X151499855Y-53298819D01*
X151499854Y-53298831D01*
X151499500Y-53302127D01*
X151499500Y-53305448D01*
X151499500Y-53305449D01*
X151499500Y-55094560D01*
X151499500Y-55094578D01*
X150499997Y-55094578D01*
X150500000Y-55094518D01*
X150500000Y-54466326D01*
X150496549Y-54453450D01*
X150483674Y-54450000D01*
X149266326Y-54450000D01*
X149253450Y-54453450D01*
X149250000Y-54466326D01*
X149250000Y-55533674D01*
X148750000Y-55533674D01*
X148750000Y-54466326D01*
X148746549Y-54453450D01*
X148733674Y-54450000D01*
X147516326Y-54450000D01*
X147503450Y-54453450D01*
X147500000Y-54466326D01*
X147500000Y-55094518D01*
X143500500Y-55094518D01*
X143500499Y-53933674D01*
X147500000Y-53933674D01*
X147503450Y-53946549D01*
X147516326Y-53950000D01*
X148733674Y-53950000D01*
X148746549Y-53946549D01*
X148750000Y-53933674D01*
X149250000Y-53933674D01*
X149253450Y-53946549D01*
X149266326Y-53950000D01*
X150483674Y-53950000D01*
X150496549Y-53946549D01*
X150500000Y-53933674D01*
X150500000Y-53305482D01*
X150499646Y-53298885D01*
X150494426Y-53250332D01*
X150490888Y-53235358D01*
X150446452Y-53116222D01*
X150438037Y-53100810D01*
X150362501Y-52999907D01*
X150350092Y-52987498D01*
X150249189Y-52911962D01*
X150233777Y-52903547D01*
X150114641Y-52859111D01*
X150099667Y-52855573D01*
X150051114Y-52850353D01*
X150044518Y-52850000D01*
X149266326Y-52850000D01*
X149253450Y-52853450D01*
X149250000Y-52866326D01*
X149250000Y-53933674D01*
X148750000Y-53933674D01*
X148750000Y-52866326D01*
X148746549Y-52853450D01*
X148733674Y-52850000D01*
X147955482Y-52850000D01*
X147948885Y-52850353D01*
X147900332Y-52855573D01*
X147885358Y-52859111D01*
X147766222Y-52903547D01*
X147750810Y-52911962D01*
X147649907Y-52987498D01*
X147637498Y-52999907D01*
X147561962Y-53100810D01*
X147553547Y-53116222D01*
X147509111Y-53235358D01*
X147505573Y-53250332D01*
X147500353Y-53298885D01*
X147500000Y-53305482D01*
X147500000Y-53933674D01*
X143500499Y-53933674D01*
X143500499Y-53302128D01*
X143494091Y-53242517D01*
X143443796Y-53107669D01*
X143357546Y-52992454D01*
X143242331Y-52906204D01*
X143171965Y-52879959D01*
X143114752Y-52858620D01*
X143114750Y-52858619D01*
X143107483Y-52855909D01*
X143099770Y-52855079D01*
X143099767Y-52855079D01*
X143051180Y-52849855D01*
X143051169Y-52849854D01*
X143047873Y-52849500D01*
X143044550Y-52849500D01*
X140955439Y-52849500D01*
X140955420Y-52849500D01*
X140952128Y-52849501D01*
X140948850Y-52849853D01*
X140948838Y-52849854D01*
X140900231Y-52855079D01*
X140900225Y-52855080D01*
X140892517Y-52855909D01*
X140885252Y-52858618D01*
X140885246Y-52858620D01*
X140765980Y-52903104D01*
X140765978Y-52903104D01*
X140757669Y-52906204D01*
X140750572Y-52911516D01*
X140750568Y-52911519D01*
X140649550Y-52987141D01*
X140649546Y-52987144D01*
X140642454Y-52992454D01*
X140637144Y-52999546D01*
X140637141Y-52999550D01*
X140561519Y-53100568D01*
X140561516Y-53100572D01*
X140556204Y-53107669D01*
X140553104Y-53115978D01*
X140553104Y-53115980D01*
X140508620Y-53235247D01*
X140508619Y-53235250D01*
X140505909Y-53242517D01*
X140505079Y-53250227D01*
X140505079Y-53250232D01*
X140499855Y-53298819D01*
X140499854Y-53298831D01*
X140499500Y-53302127D01*
X140499500Y-53305449D01*
X140499500Y-54658480D01*
X140490061Y-54705933D01*
X140463181Y-54746161D01*
X137522290Y-57687051D01*
X137516838Y-57692184D01*
X137477431Y-57727096D01*
X137477425Y-57727102D01*
X137471817Y-57732071D01*
X137467560Y-57738236D01*
X137467551Y-57738248D01*
X137437649Y-57781568D01*
X137433213Y-57787597D01*
X137400749Y-57829035D01*
X137400743Y-57829043D01*
X137396122Y-57834943D01*
X137393044Y-57841780D01*
X137393043Y-57841783D01*
X137391962Y-57844185D01*
X137380940Y-57863727D01*
X137379441Y-57865898D01*
X137379437Y-57865904D01*
X137375182Y-57872070D01*
X137372526Y-57879070D01*
X137372522Y-57879080D01*
X137353853Y-57928305D01*
X137350989Y-57935219D01*
X137329382Y-57983229D01*
X137329379Y-57983235D01*
X137326305Y-57990068D01*
X137324953Y-57997439D01*
X137324951Y-57997449D01*
X137324474Y-58000053D01*
X137318456Y-58021643D01*
X137317519Y-58024114D01*
X137317517Y-58024119D01*
X137314860Y-58031128D01*
X137313956Y-58038565D01*
X137313956Y-58038569D01*
X137307610Y-58090827D01*
X137306483Y-58098226D01*
X137296994Y-58150010D01*
X137296993Y-58150018D01*
X137295642Y-58157394D01*
X137296094Y-58164873D01*
X137296094Y-58164881D01*
X137299274Y-58217433D01*
X137299500Y-58224921D01*
X137299500Y-58375501D01*
X137282887Y-58437501D01*
X137237500Y-58482888D01*
X137175500Y-58499501D01*
X137102128Y-58499501D01*
X137098850Y-58499853D01*
X137098838Y-58499854D01*
X137050231Y-58505079D01*
X137050225Y-58505080D01*
X137042517Y-58505909D01*
X137035252Y-58508618D01*
X137035246Y-58508620D01*
X136915980Y-58553104D01*
X136915978Y-58553104D01*
X136907669Y-58556204D01*
X136900572Y-58561516D01*
X136900568Y-58561519D01*
X136799550Y-58637141D01*
X136799546Y-58637144D01*
X136792454Y-58642454D01*
X136787144Y-58649546D01*
X136787141Y-58649550D01*
X136711519Y-58750568D01*
X136711516Y-58750572D01*
X136706204Y-58757669D01*
X136703104Y-58765978D01*
X136703104Y-58765980D01*
X136658620Y-58885247D01*
X136658619Y-58885250D01*
X136655909Y-58892517D01*
X136655079Y-58900227D01*
X136655079Y-58900232D01*
X136649855Y-58948819D01*
X136649854Y-58948831D01*
X136649500Y-58952127D01*
X136649500Y-58955448D01*
X136649500Y-58955449D01*
X136649500Y-61044560D01*
X136649500Y-61044578D01*
X130724791Y-61044578D01*
X130732229Y-60992074D01*
X130732663Y-60989262D01*
X130766778Y-60785093D01*
X130768413Y-60776993D01*
X130821697Y-60552443D01*
X130822188Y-60550455D01*
X130872345Y-60354616D01*
X130874957Y-60345797D01*
X130952537Y-60115744D01*
X130952798Y-60114983D01*
X131015571Y-59935180D01*
X131019272Y-59925821D01*
X131142536Y-59647944D01*
X131195367Y-59529976D01*
X131195701Y-59529834D01*
X131195595Y-59529586D01*
X131195715Y-59529347D01*
X131195441Y-59529210D01*
X131106775Y-59298644D01*
X131010606Y-59047045D01*
X131007760Y-59038724D01*
X130932279Y-58789563D01*
X130932063Y-58788841D01*
X130900839Y-58683467D01*
X130858768Y-58541488D01*
X130856688Y-58533499D01*
X130799080Y-58277308D01*
X130798889Y-58276440D01*
X130745230Y-58025978D01*
X130743857Y-58018420D01*
X130704939Y-57757769D01*
X130704734Y-57756324D01*
X130670645Y-57503510D01*
X130669891Y-57496326D01*
X130650052Y-57233184D01*
X130649912Y-57231075D01*
X130635409Y-56976935D01*
X130635209Y-56970169D01*
X130634779Y-56781698D01*
X130634607Y-56706086D01*
X130634632Y-56703331D01*
X130639720Y-56449162D01*
X130640002Y-56442956D01*
X130658667Y-56179348D01*
X130658925Y-56176265D01*
X130683555Y-55923252D01*
X130684240Y-55917581D01*
X130722095Y-55655890D01*
X130722663Y-55652348D01*
X130766666Y-55402100D01*
X130767668Y-55397035D01*
X130824514Y-55138739D01*
X130825465Y-55134746D01*
X130835783Y-55094518D01*
X136500000Y-55094518D01*
X136500353Y-55101114D01*
X136505573Y-55149667D01*
X136509111Y-55164641D01*
X136553547Y-55283777D01*
X136561962Y-55299189D01*
X136637498Y-55400092D01*
X136649907Y-55412501D01*
X136750810Y-55488037D01*
X136766222Y-55496452D01*
X136885358Y-55540888D01*
X136900332Y-55544426D01*
X136948885Y-55549646D01*
X136955482Y-55550000D01*
X137733674Y-55550000D01*
X137746549Y-55546549D01*
X137750000Y-55533674D01*
X138250000Y-55533674D01*
X138253450Y-55546549D01*
X138266326Y-55550000D01*
X139044518Y-55550000D01*
X139051114Y-55549646D01*
X139099667Y-55544426D01*
X139114641Y-55540888D01*
X139233777Y-55496452D01*
X139249189Y-55488037D01*
X139350092Y-55412501D01*
X139362501Y-55400092D01*
X139438037Y-55299189D01*
X139446452Y-55283777D01*
X139490888Y-55164641D01*
X139494426Y-55149667D01*
X139499646Y-55101114D01*
X139500000Y-55094518D01*
X139500000Y-54466326D01*
X139496549Y-54453450D01*
X139483674Y-54450000D01*
X138266326Y-54450000D01*
X138253450Y-54453450D01*
X138250000Y-54466326D01*
X138250000Y-55533674D01*
X137750000Y-55533674D01*
X137750000Y-54466326D01*
X137746549Y-54453450D01*
X137733674Y-54450000D01*
X136516326Y-54450000D01*
X136503450Y-54453450D01*
X136500000Y-54466326D01*
X136500000Y-55094518D01*
X130835783Y-55094518D01*
X130888583Y-54888666D01*
X130889826Y-54884182D01*
X130965359Y-54630689D01*
X130966778Y-54626243D01*
X131048630Y-54385792D01*
X131050009Y-54381957D01*
X131143835Y-54134611D01*
X131145765Y-54129834D01*
X131229888Y-53933674D01*
X136500000Y-53933674D01*
X136503450Y-53946549D01*
X136516326Y-53950000D01*
X137733674Y-53950000D01*
X137746549Y-53946549D01*
X137750000Y-53933674D01*
X138250000Y-53933674D01*
X138253450Y-53946549D01*
X138266326Y-53950000D01*
X139483674Y-53950000D01*
X139496549Y-53946549D01*
X139500000Y-53933674D01*
X139500000Y-53305482D01*
X139499646Y-53298885D01*
X139494426Y-53250332D01*
X139490888Y-53235358D01*
X139446452Y-53116222D01*
X139438037Y-53100810D01*
X139362501Y-52999907D01*
X139350092Y-52987498D01*
X139249189Y-52911962D01*
X139233777Y-52903547D01*
X139114641Y-52859111D01*
X139099667Y-52855573D01*
X139051114Y-52850353D01*
X139044518Y-52850000D01*
X138266326Y-52850000D01*
X138253450Y-52853450D01*
X138250000Y-52866326D01*
X138250000Y-53933674D01*
X137750000Y-53933674D01*
X137750000Y-52866326D01*
X137746549Y-52853450D01*
X137733674Y-52850000D01*
X136955482Y-52850000D01*
X136948885Y-52850353D01*
X136900332Y-52855573D01*
X136885358Y-52859111D01*
X136766222Y-52903547D01*
X136750810Y-52911962D01*
X136649907Y-52987498D01*
X136637498Y-52999907D01*
X136561962Y-53100810D01*
X136553547Y-53116222D01*
X136509111Y-53235358D01*
X136505573Y-53250332D01*
X136500353Y-53298885D01*
X136500000Y-53305482D01*
X136500000Y-53933674D01*
X131229888Y-53933674D01*
X131245903Y-53896329D01*
X131247365Y-53893058D01*
X131358943Y-53653277D01*
X131361446Y-53648211D01*
X131479320Y-53422979D01*
X131480759Y-53420315D01*
X131609478Y-53189383D01*
X131612620Y-53184069D01*
X131747520Y-52968503D01*
X131748938Y-52966290D01*
X131894055Y-52745502D01*
X131897858Y-52740047D01*
X132049214Y-52535138D01*
X132050323Y-52533665D01*
X132211031Y-52324199D01*
X132215574Y-52318624D01*
X132382566Y-52125600D01*
X132383522Y-52124511D01*
X132558690Y-51927749D01*
X132563990Y-51922159D01*
X132746091Y-51741813D01*
X132746458Y-51741453D01*
X132935053Y-51558423D01*
X132941148Y-51552891D01*
X133138183Y-51385735D01*
X133338048Y-51218259D01*
X133344895Y-51212922D01*
X133562971Y-51055081D01*
X133763472Y-50910580D01*
X133763651Y-50910667D01*
X133763810Y-50910339D01*
X133764113Y-50910138D01*
X133764001Y-50909970D01*
X133927146Y-50601725D01*
X134035551Y-50397611D01*
X134039486Y-50390744D01*
X134206040Y-50120695D01*
X134346909Y-49894470D01*
X134351104Y-49888175D01*
X134531074Y-49635284D01*
X134691377Y-49413410D01*
X134695766Y-49407696D01*
X134889868Y-49169798D01*
X134890286Y-49169291D01*
X135067388Y-48956615D01*
X135071893Y-48951502D01*
X135280040Y-48728169D01*
X135280957Y-48727198D01*
X135473200Y-48526187D01*
X135477820Y-48521605D01*
X135699582Y-48313049D01*
X135700642Y-48312068D01*
X135907038Y-48124000D01*
X135911652Y-48120001D01*
X136146054Y-47926989D01*
X136147566Y-47925767D01*
X136366946Y-47751873D01*
X136371479Y-47748452D01*
X136617724Y-47571536D01*
X136619661Y-47570176D01*
X136850699Y-47411595D01*
X136855188Y-47408658D01*
X137112258Y-47248507D01*
X137114657Y-47247054D01*
X137356284Y-47104567D01*
X137360607Y-47102137D01*
X137627413Y-46959384D01*
X137630306Y-46957886D01*
X137881281Y-46832261D01*
X137885489Y-46830256D01*
X138160990Y-46705425D01*
X138164265Y-46704000D01*
X138423396Y-46595855D01*
X138427364Y-46594281D01*
X138710499Y-46487846D01*
X138714065Y-46486572D01*
X138980109Y-46396441D01*
X138983860Y-46395239D01*
X139273262Y-46307705D01*
X139277472Y-46306514D01*
X139548982Y-46234890D01*
X139552363Y-46234052D01*
X139847020Y-46165725D01*
X139851616Y-46164753D01*
X140127253Y-46111970D01*
X140130436Y-46111406D01*
X140429041Y-46062604D01*
X140434010Y-46061897D01*
X140712527Y-46028177D01*
X140715284Y-46027878D01*
X141016695Y-45998810D01*
X141022091Y-45998410D01*
X141301884Y-45983915D01*
X141304356Y-45983813D01*
X141607390Y-45974633D01*
X141613117Y-45974595D01*
X141892846Y-45979340D01*
G37*
%TD.AperFunction*%
D17*
X149000000Y-60000000D02*
G75*
G03*
X149000000Y-60000000I-2000000J0D01*
G01*
X155000000Y-98000000D02*
G75*
G03*
X158000000Y-95000000I0J3000000D01*
G01*
X159586331Y-59225214D02*
G75*
G03*
X158711630Y-53038653I-4919131J2459614D01*
G01*
X135000000Y-98000000D02*
X155000000Y-98000000D01*
X158000000Y-67000000D02*
X158000000Y-95000000D01*
X158711617Y-53038657D02*
G75*
G03*
X154636932Y-48795887I-6044417J-1726943D01*
G01*
X145600000Y-46900000D02*
G75*
G03*
X133763421Y-50909999I-3932820J-7865640D01*
G01*
X154636940Y-48795879D02*
G75*
G03*
X145600000Y-46900001I-5969740J-5969721D01*
G01*
X131195010Y-59529554D02*
G75*
G03*
X131667180Y-64765639I4472190J-2236046D01*
G01*
X132000000Y-67000000D02*
X131667180Y-64765639D01*
X158312126Y-64410585D02*
G75*
G03*
X159586366Y-59225232I-3644946J3644945D01*
G01*
X133763421Y-50910001D02*
G75*
G03*
X131195045Y-59529571I3903759J-5855639D01*
G01*
X132000000Y-95000000D02*
X132000000Y-67000000D01*
X132000000Y-95000000D02*
G75*
G03*
X135000000Y-98000000I3000000J0D01*
G01*
X158000000Y-67000000D02*
X158312125Y-64410584D01*
M02*
