(kicad_sch (version 20230121) (generator eeschema)

  (uuid b956c67f-4d6a-475b-ac99-d75cd9f3bb78)

  (paper "A4")

  (lib_symbols
    (symbol "fab:Button_CnK_PTS636_6.0x3.5mm" (pin_numbers hide) (pin_names (offset 1.016) hide) (in_bom yes) (on_board yes)
      (property "Reference" "SW" (at 1.27 2.54 0)
        (effects (font (size 1.27 1.27)) (justify left))
      )
      (property "Value" "Button_CnK_PTS636_6.0x3.5mm" (at 0 -1.524 0)
        (effects (font (size 1.27 1.27)))
      )
      (property "Footprint" "fab:Button_CnK_PTS636.0_6x3.5mm" (at 0 5.08 0)
        (effects (font (size 1.27 1.27)) hide)
      )
      (property "Datasheet" "https://www.ckswitches.com/media/2779/pts636.pdf" (at 0 5.08 0)
        (effects (font (size 1.27 1.27)) hide)
      )
      (property "ki_keywords" "switch normally-open pushbutton push-button button tactile spst single pole single throw" (at 0 0 0)
        (effects (font (size 1.27 1.27)) hide)
      )
      (property "ki_description" "Push button switch, C&K PTS636 SM25F SMTR LFS, Tactile Switch SPST-NO Top Actuated Surface Mount" (at 0 0 0)
        (effects (font (size 1.27 1.27)) hide)
      )
      (property "ki_fp_filters" "*Button*" (at 0 0 0)
        (effects (font (size 1.27 1.27)) hide)
      )
      (symbol "Button_CnK_PTS636_6.0x3.5mm_0_1"
        (circle (center -2.032 0) (radius 0.508)
          (stroke (width 0) (type default))
          (fill (type none))
        )
        (polyline
          (pts
            (xy 0 1.27)
            (xy 0 3.048)
          )
          (stroke (width 0) (type default))
          (fill (type none))
        )
        (polyline
          (pts
            (xy 2.54 1.27)
            (xy -2.54 1.27)
          )
          (stroke (width 0) (type default))
          (fill (type none))
        )
        (circle (center 2.032 0) (radius 0.508)
          (stroke (width 0) (type default))
          (fill (type none))
        )
        (pin passive line (at -5.08 0 0) (length 2.54)
          (name "1" (effects (font (size 1.27 1.27))))
          (number "1" (effects (font (size 1.27 1.27))))
        )
        (pin passive line (at 5.08 0 180) (length 2.54)
          (name "2" (effects (font (size 1.27 1.27))))
          (number "2" (effects (font (size 1.27 1.27))))
        )
      )
    )
    (symbol "fab:LED_1206" (pin_numbers hide) (pin_names (offset 1.016) hide) (in_bom yes) (on_board yes)
      (property "Reference" "D" (at 0 2.54 0)
        (effects (font (size 1.27 1.27)))
      )
      (property "Value" "LED_1206" (at 0 -2.54 0)
        (effects (font (size 1.27 1.27)))
      )
      (property "Footprint" "fab:LED_1206" (at 0 0 0)
        (effects (font (size 1.27 1.27)) hide)
      )
      (property "Datasheet" "https://optoelectronics.liteon.com/upload/download/DS-22-98-0002/LTST-C150CKT.pdf" (at 0 0 0)
        (effects (font (size 1.27 1.27)) hide)
      )
      (property "ki_keywords" "LED diode 1206" (at 0 0 0)
        (effects (font (size 1.27 1.27)) hide)
      )
      (property "ki_description" "Light emitting diode, Lite-On Inc. LTST, SMD" (at 0 0 0)
        (effects (font (size 1.27 1.27)) hide)
      )
      (property "ki_fp_filters" "*LED*1206*" (at 0 0 0)
        (effects (font (size 1.27 1.27)) hide)
      )
      (symbol "LED_1206_0_1"
        (polyline
          (pts
            (xy -1.27 -1.27)
            (xy -1.27 1.27)
          )
          (stroke (width 0.2032) (type default))
          (fill (type none))
        )
        (polyline
          (pts
            (xy -1.27 0)
            (xy 1.27 0)
          )
          (stroke (width 0) (type default))
          (fill (type none))
        )
        (polyline
          (pts
            (xy 1.27 -1.27)
            (xy 1.27 1.27)
            (xy -1.27 0)
            (xy 1.27 -1.27)
          )
          (stroke (width 0.2032) (type default))
          (fill (type none))
        )
        (polyline
          (pts
            (xy -3.048 -0.762)
            (xy -4.572 -2.286)
            (xy -3.81 -2.286)
            (xy -4.572 -2.286)
            (xy -4.572 -1.524)
          )
          (stroke (width 0) (type default))
          (fill (type none))
        )
        (polyline
          (pts
            (xy -1.778 -0.762)
            (xy -3.302 -2.286)
            (xy -2.54 -2.286)
            (xy -3.302 -2.286)
            (xy -3.302 -1.524)
          )
          (stroke (width 0) (type default))
          (fill (type none))
        )
      )
      (symbol "LED_1206_1_1"
        (pin passive line (at -3.81 0 0) (length 2.54)
          (name "K" (effects (font (size 1.27 1.27))))
          (number "1" (effects (font (size 1.27 1.27))))
        )
        (pin passive line (at 3.81 0 180) (length 2.54)
          (name "A" (effects (font (size 1.27 1.27))))
          (number "2" (effects (font (size 1.27 1.27))))
        )
      )
    )
    (symbol "fab:Module_XIAO-RP2040" (in_bom yes) (on_board yes)
      (property "Reference" "M" (at 0 0 0)
        (effects (font (size 1.27 1.27)))
      )
      (property "Value" "Module_XIAO-RP2040" (at 0 2.54 0)
        (effects (font (size 1.27 1.27)))
      )
      (property "Footprint" "fab:SeedStudio_XIAO" (at 0 0 0)
        (effects (font (size 1.27 1.27)) hide)
      )
      (property "Datasheet" "https://wiki.seeedstudio.com/XIAO-RP2040/" (at 0 0 0)
        (effects (font (size 1.27 1.27)) hide)
      )
      (property "ki_keywords" "XIAO RP2040" (at 0 0 0)
        (effects (font (size 1.27 1.27)) hide)
      )
      (property "ki_description" "RP2040 XIAO RP2040 - ARM® Cortex®-M0+ MCU 32-Bit Embedded Evaluation Board" (at 0 0 0)
        (effects (font (size 1.27 1.27)) hide)
      )
      (symbol "Module_XIAO-RP2040_0_1"
        (rectangle (start -10.16 15.24) (end 10.16 -15.24)
          (stroke (width 0) (type default))
          (fill (type background))
        )
      )
      (symbol "Module_XIAO-RP2040_1_1"
        (pin bidirectional line (at -12.7 12.7 0) (length 2.54)
          (name "D0" (effects (font (size 1.27 1.27))))
          (number "1" (effects (font (size 1.27 1.27))))
        )
        (pin bidirectional line (at -12.7 -10.16 0) (length 2.54)
          (name "D9" (effects (font (size 1.27 1.27))))
          (number "10" (effects (font (size 1.27 1.27))))
        )
        (pin bidirectional line (at -12.7 -12.7 0) (length 2.54)
          (name "D10" (effects (font (size 1.27 1.27))))
          (number "11" (effects (font (size 1.27 1.27))))
        )
        (pin power_in line (at -2.54 17.78 270) (length 2.54)
          (name "3V3" (effects (font (size 1.27 1.27))))
          (number "12" (effects (font (size 1.27 1.27))))
        )
        (pin power_in line (at 0 -17.78 90) (length 2.54)
          (name "GND" (effects (font (size 1.27 1.27))))
          (number "13" (effects (font (size 1.27 1.27))))
        )
        (pin power_in line (at 0 17.78 270) (length 2.54)
          (name "5V" (effects (font (size 1.27 1.27))))
          (number "14" (effects (font (size 1.27 1.27))))
        )
        (pin bidirectional line (at -12.7 10.16 0) (length 2.54)
          (name "D1" (effects (font (size 1.27 1.27))))
          (number "2" (effects (font (size 1.27 1.27))))
        )
        (pin bidirectional line (at -12.7 7.62 0) (length 2.54)
          (name "D2" (effects (font (size 1.27 1.27))))
          (number "3" (effects (font (size 1.27 1.27))))
        )
        (pin bidirectional line (at -12.7 5.08 0) (length 2.54)
          (name "D3" (effects (font (size 1.27 1.27))))
          (number "4" (effects (font (size 1.27 1.27))))
        )
        (pin bidirectional line (at -12.7 2.54 0) (length 2.54)
          (name "D4" (effects (font (size 1.27 1.27))))
          (number "5" (effects (font (size 1.27 1.27))))
        )
        (pin bidirectional line (at -12.7 0 0) (length 2.54)
          (name "D5" (effects (font (size 1.27 1.27))))
          (number "6" (effects (font (size 1.27 1.27))))
        )
        (pin bidirectional line (at -12.7 -2.54 0) (length 2.54)
          (name "D6" (effects (font (size 1.27 1.27))))
          (number "7" (effects (font (size 1.27 1.27))))
        )
        (pin bidirectional line (at -12.7 -5.08 0) (length 2.54)
          (name "D7" (effects (font (size 1.27 1.27))))
          (number "8" (effects (font (size 1.27 1.27))))
        )
        (pin bidirectional line (at -12.7 -7.62 0) (length 2.54)
          (name "D8" (effects (font (size 1.27 1.27))))
          (number "9" (effects (font (size 1.27 1.27))))
        )
      )
    )
    (symbol "fab:PWR_3V3" (power) (pin_names (offset 0)) (in_bom yes) (on_board yes)
      (property "Reference" "#PWR" (at 0 -3.81 0)
        (effects (font (size 1.27 1.27)) hide)
      )
      (property "Value" "PWR_3V3" (at 0 3.556 0)
        (effects (font (size 1.27 1.27)))
      )
      (property "Footprint" "" (at 0 0 0)
        (effects (font (size 1.27 1.27)) hide)
      )
      (property "Datasheet" "" (at 0 0 0)
        (effects (font (size 1.27 1.27)) hide)
      )
      (property "ki_keywords" "power-flag" (at 0 0 0)
        (effects (font (size 1.27 1.27)) hide)
      )
      (property "ki_description" "Power symbol creates a global label with name \"+3V3\"" (at 0 0 0)
        (effects (font (size 1.27 1.27)) hide)
      )
      (symbol "PWR_3V3_0_1"
        (polyline
          (pts
            (xy -0.762 1.27)
            (xy 0 2.54)
          )
          (stroke (width 0) (type default))
          (fill (type none))
        )
        (polyline
          (pts
            (xy 0 0)
            (xy 0 2.54)
          )
          (stroke (width 0) (type default))
          (fill (type none))
        )
        (polyline
          (pts
            (xy 0 2.54)
            (xy 0.762 1.27)
          )
          (stroke (width 0) (type default))
          (fill (type none))
        )
      )
      (symbol "PWR_3V3_1_1"
        (pin power_in line (at 0 0 90) (length 0) hide
          (name "PWR_3V3" (effects (font (size 1.27 1.27))))
          (number "1" (effects (font (size 1.27 1.27))))
        )
      )
    )
    (symbol "fab:PWR_FLAG" (power) (pin_numbers hide) (pin_names (offset 0) hide) (in_bom yes) (on_board yes)
      (property "Reference" "#FLG" (at 0 1.905 0)
        (effects (font (size 1.27 1.27)) hide)
      )
      (property "Value" "PWR_FLAG" (at 0 3.81 0)
        (effects (font (size 1.27 1.27)))
      )
      (property "Footprint" "" (at 0 0 0)
        (effects (font (size 1.27 1.27)) hide)
      )
      (property "Datasheet" "~" (at 0 0 0)
        (effects (font (size 1.27 1.27)) hide)
      )
      (property "ki_keywords" "power-flag" (at 0 0 0)
        (effects (font (size 1.27 1.27)) hide)
      )
      (property "ki_description" "Special symbol for telling ERC where power comes from" (at 0 0 0)
        (effects (font (size 1.27 1.27)) hide)
      )
      (symbol "PWR_FLAG_0_0"
        (pin power_out line (at 0 0 90) (length 0)
          (name "PWR_FLAG" (effects (font (size 1.27 1.27))))
          (number "1" (effects (font (size 1.27 1.27))))
        )
      )
      (symbol "PWR_FLAG_0_1"
        (polyline
          (pts
            (xy 0 0)
            (xy 0 1.27)
            (xy -1.016 1.905)
            (xy 0 2.54)
            (xy 1.016 1.905)
            (xy 0 1.27)
          )
          (stroke (width 0) (type default))
          (fill (type none))
        )
      )
    )
    (symbol "fab:PWR_GND" (power) (pin_names (offset 0)) (in_bom yes) (on_board yes)
      (property "Reference" "#PWR" (at 0 -6.35 0)
        (effects (font (size 1.27 1.27)) hide)
      )
      (property "Value" "PWR_GND" (at 0 -3.81 0)
        (effects (font (size 1.27 1.27)))
      )
      (property "Footprint" "" (at 0 0 0)
        (effects (font (size 1.27 1.27)) hide)
      )
      (property "Datasheet" "" (at 0 0 0)
        (effects (font (size 1.27 1.27)) hide)
      )
      (property "ki_keywords" "power-flag" (at 0 0 0)
        (effects (font (size 1.27 1.27)) hide)
      )
      (property "ki_description" "Power symbol creates a global label with name \"GND\" , ground" (at 0 0 0)
        (effects (font (size 1.27 1.27)) hide)
      )
      (symbol "PWR_GND_0_1"
        (polyline
          (pts
            (xy 0 0)
            (xy 0 -1.27)
            (xy 1.27 -1.27)
            (xy 0 -2.54)
            (xy -1.27 -1.27)
            (xy 0 -1.27)
          )
          (stroke (width 0) (type default))
          (fill (type none))
        )
      )
      (symbol "PWR_GND_1_1"
        (pin power_in line (at 0 0 270) (length 0) hide
          (name "PWR_GND" (effects (font (size 1.27 1.27))))
          (number "1" (effects (font (size 1.27 1.27))))
        )
      )
    )
    (symbol "fab:R_1206" (pin_numbers hide) (pin_names (offset 0)) (in_bom yes) (on_board yes)
      (property "Reference" "R" (at 2.54 0 90)
        (effects (font (size 1.27 1.27)))
      )
      (property "Value" "R_1206" (at -2.54 0 90)
        (effects (font (size 1.27 1.27)))
      )
      (property "Footprint" "fab:R_1206" (at 0 0 90)
        (effects (font (size 1.27 1.27)) hide)
      )
      (property "Datasheet" "~" (at 0 0 0)
        (effects (font (size 1.27 1.27)) hide)
      )
      (property "ki_keywords" "R res resistor RC1206FR-070RL RC1206FR-071RL RC1206FR-0710RL RC1206FR-07100RL RC1206FR-07499RL RC1206FR-071KL RC1206FR-074K99L RC1206FR-0710KL RC1206FR-07100KL RC1206FR-071ML RC1206FR-0710ML" (at 0 0 0)
        (effects (font (size 1.27 1.27)) hide)
      )
      (property "ki_description" "Resistor" (at 0 0 0)
        (effects (font (size 1.27 1.27)) hide)
      )
      (property "ki_fp_filters" "*R*1206*" (at 0 0 0)
        (effects (font (size 1.27 1.27)) hide)
      )
      (symbol "R_1206_0_1"
        (rectangle (start -1.016 -2.54) (end 1.016 2.54)
          (stroke (width 0.254) (type default))
          (fill (type background))
        )
      )
      (symbol "R_1206_1_1"
        (pin passive line (at 0 5.08 270) (length 2.54)
          (name "~" (effects (font (size 1.27 1.27))))
          (number "1" (effects (font (size 1.27 1.27))))
        )
        (pin passive line (at 0 -5.08 90) (length 2.54)
          (name "~" (effects (font (size 1.27 1.27))))
          (number "2" (effects (font (size 1.27 1.27))))
        )
      )
    )
    (symbol "fab:R_POT_10K_Trimmer" (pin_names (offset 1.016) hide) (in_bom yes) (on_board yes)
      (property "Reference" "RV" (at -5.08 0 90)
        (effects (font (size 1.27 1.27)))
      )
      (property "Value" "R_POT_10K_Trimmer" (at -2.54 0 90)
        (effects (font (size 1.27 1.27)))
      )
      (property "Footprint" "fab:Potentiometer_TT_Model-23_4.5x5.0x3.0mm" (at 0 0 0)
        (effects (font (size 1.27 1.27)) hide)
      )
      (property "Datasheet" "https://www.ttelectronics.com/TTElectronics/media/ProductFiles/Trimmers/Datasheets/23.pdf" (at 0 0 0)
        (effects (font (size 1.27 1.27)) hide)
      )
      (property "ki_keywords" "resistor variable trimmer" (at 0 0 0)
        (effects (font (size 1.27 1.27)) hide)
      )
      (property "ki_description" "Trimmer Potentiometer 10K TT Electronics 23BR10KLFTR" (at 0 0 0)
        (effects (font (size 1.27 1.27)) hide)
      )
      (property "ki_fp_filters" "Potentiometer*" (at 0 0 0)
        (effects (font (size 1.27 1.27)) hide)
      )
      (symbol "R_POT_10K_Trimmer_0_1"
        (polyline
          (pts
            (xy 2.54 0)
            (xy 1.524 0)
          )
          (stroke (width 0) (type default))
          (fill (type none))
        )
        (polyline
          (pts
            (xy 1.143 0)
            (xy 2.286 0.508)
            (xy 2.286 -0.508)
            (xy 1.143 0)
          )
          (stroke (width 0) (type default))
          (fill (type outline))
        )
        (rectangle (start 1.016 2.54) (end -1.016 -2.54)
          (stroke (width 0.254) (type default))
          (fill (type background))
        )
      )
      (symbol "R_POT_10K_Trimmer_1_1"
        (pin passive line (at 0 5.08 270) (length 2.54)
          (name "1" (effects (font (size 1.27 1.27))))
          (number "1" (effects (font (size 1.27 1.27))))
        )
        (pin passive line (at 5.08 0 180) (length 2.54)
          (name "2" (effects (font (size 1.27 1.27))))
          (number "2" (effects (font (size 1.27 1.27))))
        )
        (pin passive line (at 0 -5.08 90) (length 2.54)
          (name "3" (effects (font (size 1.27 1.27))))
          (number "3" (effects (font (size 1.27 1.27))))
        )
      )
    )
  )

  (junction (at 143.51 62.23) (diameter 0) (color 0 0 0 0)
    (uuid 6482fbdd-c7ff-4994-a66b-244e76153e85)
  )
  (junction (at 147.32 68.58) (diameter 0) (color 0 0 0 0)
    (uuid 9eb875da-d2e7-49b0-ae15-662cacd19655)
  )
  (junction (at 149.86 113.03) (diameter 0) (color 0 0 0 0)
    (uuid b59db362-3be6-416e-bea0-db9cc8363576)
  )

  (no_connect (at 137.16 82.55) (uuid 36ce59af-ca1e-4aca-afc8-269ebae15d58))
  (no_connect (at 137.16 102.87) (uuid 3ecc1b96-94d0-41d3-a252-678f99ad6785))
  (no_connect (at 149.86 72.39) (uuid 5f6161d7-3a8e-4ec1-90b0-5c0cf8d2b00c))
  (no_connect (at 137.16 95.25) (uuid 6af573ea-6795-4481-ab89-1f4794ecdc44))
  (no_connect (at 137.16 90.17) (uuid 74ec64a2-0bb3-4b91-a2ee-ec4db38c0dc7))
  (no_connect (at 137.16 92.71) (uuid 94658154-6620-420d-a12b-58b44f4fa1c2))
  (no_connect (at 137.16 97.79) (uuid b9b33c02-1d44-4a2a-ac87-187efc9f72c9))
  (no_connect (at 137.16 100.33) (uuid eb9f7dce-9dee-4497-8101-adcd1957db82))

  (wire (pts (xy 172.72 105.41) (xy 172.72 111.76))
    (stroke (width 0) (type default))
    (uuid 0859d481-0fd2-4a9e-b11e-4240e4430584)
  )
  (wire (pts (xy 137.16 87.63) (xy 119.38 87.63))
    (stroke (width 0) (type default))
    (uuid 0f0c9eb5-2994-4d59-a72f-5d56f0cc4e5c)
  )
  (wire (pts (xy 200.66 38.1) (xy 187.96 38.1))
    (stroke (width 0) (type default))
    (uuid 1951660f-2318-4520-a2f1-4251818e4b68)
  )
  (wire (pts (xy 137.16 85.09) (xy 115.57 85.09))
    (stroke (width 0) (type default))
    (uuid 19b974fd-cf9a-4ae4-9811-f059e7886052)
  )
  (wire (pts (xy 137.16 29.21) (xy 182.88 29.21))
    (stroke (width 0) (type default))
    (uuid 209f1384-a4f5-4ff8-9438-56d0e5406ca5)
  )
  (wire (pts (xy 143.51 62.23) (xy 143.51 63.5))
    (stroke (width 0) (type default))
    (uuid 23ba922b-9a8b-4cdb-b31e-4c0b37be08c2)
  )
  (wire (pts (xy 105.41 87.63) (xy 105.41 80.01))
    (stroke (width 0) (type default))
    (uuid 3138494c-a949-4534-a441-eecbfa821e9b)
  )
  (wire (pts (xy 189.23 115.57) (xy 195.58 115.57))
    (stroke (width 0) (type default))
    (uuid 3aa8d715-7ee6-4c31-ac7b-c280105c319a)
  )
  (wire (pts (xy 182.88 29.21) (xy 182.88 33.02))
    (stroke (width 0) (type default))
    (uuid 419b09fa-2444-458b-b11a-65319da7d65d)
  )
  (wire (pts (xy 104.14 87.63) (xy 105.41 87.63))
    (stroke (width 0) (type default))
    (uuid 42bd4ca6-17f3-4345-8b8b-62b7d80f5a5b)
  )
  (wire (pts (xy 143.51 60.96) (xy 143.51 62.23))
    (stroke (width 0) (type default))
    (uuid 470fda42-9ac5-4ddb-b63e-acbef62e1f1d)
  )
  (wire (pts (xy 137.16 29.21) (xy 137.16 62.23))
    (stroke (width 0) (type default))
    (uuid 47b7a1b3-66a5-4732-aa89-f2260711def8)
  )
  (wire (pts (xy 120.65 77.47) (xy 104.14 77.47))
    (stroke (width 0) (type default))
    (uuid 523ec127-954d-4cd9-b2b7-4a5323cb8d14)
  )
  (wire (pts (xy 119.38 87.63) (xy 119.38 91.44))
    (stroke (width 0) (type default))
    (uuid 5362a896-0e19-49a9-be43-c2856b28f3d6)
  )
  (wire (pts (xy 200.66 33.02) (xy 200.66 38.1))
    (stroke (width 0) (type default))
    (uuid 5aa0f6d1-6e47-45f4-aa13-ddc76f17ac64)
  )
  (wire (pts (xy 149.86 113.03) (xy 149.86 107.95))
    (stroke (width 0) (type default))
    (uuid 5b859068-473a-458b-9c3b-a58fa3496b22)
  )
  (wire (pts (xy 105.41 80.01) (xy 137.16 80.01))
    (stroke (width 0) (type default))
    (uuid 5dde5756-11cd-41b9-b130-d97b8b90d2b7)
  )
  (wire (pts (xy 96.52 87.63) (xy 95.25 87.63))
    (stroke (width 0) (type default))
    (uuid 73c52b30-7c2d-4ae7-a40a-835fe834d166)
  )
  (wire (pts (xy 147.32 63.5) (xy 147.32 68.58))
    (stroke (width 0) (type default))
    (uuid 7644e78b-0a7c-472d-9140-2e585b3c2bc6)
  )
  (wire (pts (xy 147.32 68.58) (xy 147.32 72.39))
    (stroke (width 0) (type default))
    (uuid 8ff4edf6-4f7a-443b-8113-a0b0ce412db4)
  )
  (wire (pts (xy 149.86 116.84) (xy 149.86 113.03))
    (stroke (width 0) (type default))
    (uuid 9ae4ca49-f2ae-4064-9b37-b949e9a34ac6)
  )
  (wire (pts (xy 83.82 88.9) (xy 83.82 77.47))
    (stroke (width 0) (type default))
    (uuid b98ea368-ad25-49b9-afb0-20c689a3b292)
  )
  (wire (pts (xy 137.16 77.47) (xy 128.27 77.47))
    (stroke (width 0) (type default))
    (uuid c04b1868-8eaa-47d5-8dd5-da7064df6a26)
  )
  (wire (pts (xy 189.23 105.41) (xy 189.23 115.57))
    (stroke (width 0) (type default))
    (uuid c356fc2b-8a25-4f93-8268-6e65d85483b8)
  )
  (wire (pts (xy 182.88 43.18) (xy 182.88 45.72))
    (stroke (width 0) (type default))
    (uuid d94afe6a-8b15-4cc4-bd6b-713c783a7fd3)
  )
  (wire (pts (xy 115.57 85.09) (xy 115.57 96.52))
    (stroke (width 0) (type default))
    (uuid dd976cc8-597b-4387-8dac-d53a9fcf254b)
  )
  (wire (pts (xy 83.82 77.47) (xy 93.98 77.47))
    (stroke (width 0) (type default))
    (uuid e456ff0f-6ba3-4da4-8553-44ca20d08ba9)
  )
  (wire (pts (xy 137.16 62.23) (xy 143.51 62.23))
    (stroke (width 0) (type default))
    (uuid f1f33b27-a73f-48f1-821a-9dfa97b6ec42)
  )
  (wire (pts (xy 179.07 105.41) (xy 172.72 105.41))
    (stroke (width 0) (type default))
    (uuid f68f7206-d9f6-4388-bc81-015cd22721b9)
  )
  (wire (pts (xy 95.25 87.63) (xy 95.25 95.25))
    (stroke (width 0) (type default))
    (uuid fc0ec8f6-7b92-4d3d-bd90-75d10c0937b0)
  )
  (wire (pts (xy 143.51 63.5) (xy 147.32 63.5))
    (stroke (width 0) (type default))
    (uuid feb7717e-57e5-4f75-a273-ec2cbe43f2f7)
  )

  (text "Circuit Total\n\n3.3V 30mA\n3.3V 30mA=0.03A" (at 109.22 57.15 0)
    (effects (font (size 1.27 1.27)) (justify left bottom))
    (uuid 13a77f98-237c-4aac-97ba-fa4b62233a18)
  )
  (text "3.3V - 2V = 1.3V\nV=IR\n1.3 = 0.03 * R\nR = 43 OHM" (at 93.98 69.85 0)
    (effects (font (size 1.27 1.27)) (justify left bottom))
    (uuid 318ba73a-d2d7-41ed-b32f-867d5c0003e8)
  )
  (text "2V 30mA\n2V 30 mA = 0.03A" (at 114.3 69.85 0)
    (effects (font (size 1.27 1.27)) (justify left bottom))
    (uuid 81314964-82bb-4d20-b81f-dca6f407c137)
  )
  (text "R = ?" (at 97.79 60.96 0)
    (effects (font (size 1.27 1.27)) (justify left bottom))
    (uuid 8bb41b4d-02bf-4673-bf55-18a2443e99e6)
  )

  (label "POTENTIOMETER" (at 115.57 96.52 0) (fields_autoplaced)
    (effects (font (size 1.27 1.27)) (justify left bottom))
    (uuid 25be836b-de58-47d7-b85a-0bd89b8eecf5)
  )
  (label "POTENTIOMETER" (at 200.66 33.02 180) (fields_autoplaced)
    (effects (font (size 1.27 1.27)) (justify right bottom))
    (uuid 3d779a6a-751d-472e-a90a-2cadf878fdd1)
  )
  (label "BUTTON" (at 119.38 91.44 0) (fields_autoplaced)
    (effects (font (size 1.27 1.27)) (justify left bottom))
    (uuid 6a7f6142-ec85-4a29-bcbf-6fb58e3db3dc)
  )
  (label "BUTTON" (at 172.72 111.76 0) (fields_autoplaced)
    (effects (font (size 1.27 1.27)) (justify left bottom))
    (uuid b6a9bc7d-b451-4da7-8c4f-6c8067549d00)
  )

  (symbol (lib_id "fab:R_1206") (at 95.25 100.33 180) (unit 1)
    (in_bom yes) (on_board yes) (dnp no)
    (uuid 11adc38b-718e-4744-80ba-1526a63a16bc)
    (property "Reference" "R2" (at 90.17 100.33 90)
      (effects (font (size 1.27 1.27)))
    )
    (property "Value" "49R9" (at 92.71 100.33 90)
      (effects (font (size 1.27 1.27)))
    )
    (property "Footprint" "fab:R_1206" (at 95.25 100.33 90)
      (effects (font (size 1.27 1.27)) hide)
    )
    (property "Datasheet" "~" (at 95.25 100.33 0)
      (effects (font (size 1.27 1.27)) hide)
    )
    (pin "1" (uuid 0f99e462-03e1-4d3a-84ca-799067f834ec))
    (pin "2" (uuid 1d9ba8f4-265e-4133-b637-424222afaba3))
    (instances
      (project "XIAOShieldBasic"
        (path "/b956c67f-4d6a-475b-ac99-d75cd9f3bb78"
          (reference "R2") (unit 1)
        )
      )
    )
  )

  (symbol (lib_id "fab:PWR_GND") (at 182.88 45.72 0) (unit 1)
    (in_bom yes) (on_board yes) (dnp no)
    (uuid 205fc761-3455-4ed2-9701-2db53ffed519)
    (property "Reference" "#PWR05" (at 182.88 52.07 0)
      (effects (font (size 1.27 1.27)) hide)
    )
    (property "Value" "PWR_GND" (at 182.88 50.8 0)
      (effects (font (size 1.27 1.27)))
    )
    (property "Footprint" "" (at 182.88 45.72 0)
      (effects (font (size 1.27 1.27)) hide)
    )
    (property "Datasheet" "" (at 182.88 45.72 0)
      (effects (font (size 1.27 1.27)) hide)
    )
    (pin "1" (uuid 65b729a9-a3f8-400a-935d-7eb2afe331bd))
    (instances
      (project "XIAOShieldBasic"
        (path "/b956c67f-4d6a-475b-ac99-d75cd9f3bb78"
          (reference "#PWR05") (unit 1)
        )
      )
    )
  )

  (symbol (lib_id "fab:PWR_3V3") (at 143.51 60.96 0) (unit 1)
    (in_bom yes) (on_board yes) (dnp no)
    (uuid 3585030d-803c-4091-854c-0740bca32782)
    (property "Reference" "#PWR01" (at 143.51 64.77 0)
      (effects (font (size 1.27 1.27)) hide)
    )
    (property "Value" "PWR_3V3" (at 143.51 57.15 0)
      (effects (font (size 1.27 1.27)))
    )
    (property "Footprint" "" (at 143.51 60.96 0)
      (effects (font (size 1.27 1.27)) hide)
    )
    (property "Datasheet" "" (at 143.51 60.96 0)
      (effects (font (size 1.27 1.27)) hide)
    )
    (pin "1" (uuid 5a62abb4-bf4d-43b9-bed3-6f2796d6634f))
    (instances
      (project "XIAOShieldBasic"
        (path "/b956c67f-4d6a-475b-ac99-d75cd9f3bb78"
          (reference "#PWR01") (unit 1)
        )
      )
    )
  )

  (symbol (lib_id "fab:LED_1206") (at 124.46 77.47 0) (unit 1)
    (in_bom yes) (on_board yes) (dnp no) (fields_autoplaced)
    (uuid 5d5e953e-a7e7-4a28-98b4-7f9c7afebee5)
    (property "Reference" "D1" (at 122.8598 72.39 0)
      (effects (font (size 1.27 1.27)))
    )
    (property "Value" "LED_RED" (at 122.8598 74.93 0)
      (effects (font (size 1.27 1.27)))
    )
    (property "Footprint" "fab:LED_1206" (at 124.46 77.47 0)
      (effects (font (size 1.27 1.27)) hide)
    )
    (property "Datasheet" "https://optoelectronics.liteon.com/upload/download/DS-22-98-0002/LTST-C150CKT.pdf" (at 124.46 77.47 0)
      (effects (font (size 1.27 1.27)) hide)
    )
    (pin "1" (uuid 8d2f578e-da9d-4d90-9c9d-e84d8c3c1d93))
    (pin "2" (uuid a6584e9f-f29a-4a7c-95dc-9546c05075e9))
    (instances
      (project "XIAOShieldBasic"
        (path "/b956c67f-4d6a-475b-ac99-d75cd9f3bb78"
          (reference "D1") (unit 1)
        )
      )
    )
  )

  (symbol (lib_id "fab:R_1206") (at 99.06 77.47 90) (unit 1)
    (in_bom yes) (on_board yes) (dnp no)
    (uuid 8164f2fc-bc24-477f-8750-b797fc4ae6b9)
    (property "Reference" "R1" (at 99.06 72.39 90)
      (effects (font (size 1.27 1.27)))
    )
    (property "Value" "49R9" (at 99.06 74.93 90)
      (effects (font (size 1.27 1.27)))
    )
    (property "Footprint" "fab:R_1206" (at 99.06 77.47 90)
      (effects (font (size 1.27 1.27)) hide)
    )
    (property "Datasheet" "~" (at 99.06 77.47 0)
      (effects (font (size 1.27 1.27)) hide)
    )
    (pin "1" (uuid 620e7612-b5c1-44de-9830-fa5d01a03148))
    (pin "2" (uuid c6790cff-c039-4508-b400-f9276eb98e26))
    (instances
      (project "XIAOShieldBasic"
        (path "/b956c67f-4d6a-475b-ac99-d75cd9f3bb78"
          (reference "R1") (unit 1)
        )
      )
    )
  )

  (symbol (lib_id "fab:Button_CnK_PTS636_6.0x3.5mm") (at 184.15 105.41 0) (unit 1)
    (in_bom yes) (on_board yes) (dnp no) (fields_autoplaced)
    (uuid 867402c1-9f84-4fbe-b8ec-c7d94ccf0d4f)
    (property "Reference" "SW1" (at 184.15 99.06 0)
      (effects (font (size 1.27 1.27)))
    )
    (property "Value" "Button_CnK_PTS636_6.0x3.5mm" (at 184.15 101.6 0)
      (effects (font (size 1.27 1.27)))
    )
    (property "Footprint" "fab:Button_CnK_PTS636.0_6x3.5mm" (at 184.15 100.33 0)
      (effects (font (size 1.27 1.27)) hide)
    )
    (property "Datasheet" "https://www.ckswitches.com/media/2779/pts636.pdf" (at 184.15 100.33 0)
      (effects (font (size 1.27 1.27)) hide)
    )
    (pin "1" (uuid e43defab-2488-4c81-aca2-e032fb83de90))
    (pin "2" (uuid 344aed04-fc03-40a7-a57c-fcc991cc06a4))
    (instances
      (project "XIAOShieldBasic"
        (path "/b956c67f-4d6a-475b-ac99-d75cd9f3bb78"
          (reference "SW1") (unit 1)
        )
      )
    )
  )

  (symbol (lib_id "fab:LED_1206") (at 100.33 87.63 0) (unit 1)
    (in_bom yes) (on_board yes) (dnp no) (fields_autoplaced)
    (uuid 8dc1a102-123a-4492-b096-2afad96f209f)
    (property "Reference" "D2" (at 98.7298 82.55 0)
      (effects (font (size 1.27 1.27)))
    )
    (property "Value" "LED_1206" (at 98.7298 85.09 0)
      (effects (font (size 1.27 1.27)))
    )
    (property "Footprint" "fab:LED_1206" (at 100.33 87.63 0)
      (effects (font (size 1.27 1.27)) hide)
    )
    (property "Datasheet" "https://optoelectronics.liteon.com/upload/download/DS-22-98-0002/LTST-C150CKT.pdf" (at 100.33 87.63 0)
      (effects (font (size 1.27 1.27)) hide)
    )
    (pin "1" (uuid 2b54f635-ffa4-49f0-8a8b-d23cba812d92))
    (pin "2" (uuid 3cd2c821-3daa-414b-9de8-746063b34e96))
    (instances
      (project "XIAOShieldBasic"
        (path "/b956c67f-4d6a-475b-ac99-d75cd9f3bb78"
          (reference "D2") (unit 1)
        )
      )
    )
  )

  (symbol (lib_id "fab:PWR_GND") (at 195.58 115.57 0) (unit 1)
    (in_bom yes) (on_board yes) (dnp no)
    (uuid a4a7f6b3-1c16-4031-8848-0bee8b0c1f64)
    (property "Reference" "#PWR04" (at 195.58 121.92 0)
      (effects (font (size 1.27 1.27)) hide)
    )
    (property "Value" "PWR_GND" (at 195.58 120.65 0)
      (effects (font (size 1.27 1.27)))
    )
    (property "Footprint" "" (at 195.58 115.57 0)
      (effects (font (size 1.27 1.27)) hide)
    )
    (property "Datasheet" "" (at 195.58 115.57 0)
      (effects (font (size 1.27 1.27)) hide)
    )
    (pin "1" (uuid e8f761a4-041e-4eea-8f45-321a8c643075))
    (instances
      (project "XIAOShieldBasic"
        (path "/b956c67f-4d6a-475b-ac99-d75cd9f3bb78"
          (reference "#PWR04") (unit 1)
        )
      )
    )
  )

  (symbol (lib_id "fab:PWR_GND") (at 95.25 105.41 0) (unit 1)
    (in_bom yes) (on_board yes) (dnp no)
    (uuid ab3d1ead-6cd6-4ac0-86e5-dbe0bd83c8a7)
    (property "Reference" "#PWR08" (at 95.25 111.76 0)
      (effects (font (size 1.27 1.27)) hide)
    )
    (property "Value" "PWR_GND" (at 95.25 110.49 0)
      (effects (font (size 1.27 1.27)))
    )
    (property "Footprint" "" (at 95.25 105.41 0)
      (effects (font (size 1.27 1.27)) hide)
    )
    (property "Datasheet" "" (at 95.25 105.41 0)
      (effects (font (size 1.27 1.27)) hide)
    )
    (pin "1" (uuid a1b2e5cb-be23-430c-b9d5-7a5df85edfb5))
    (instances
      (project "XIAOShieldBasic"
        (path "/b956c67f-4d6a-475b-ac99-d75cd9f3bb78"
          (reference "#PWR08") (unit 1)
        )
      )
    )
  )

  (symbol (lib_id "fab:R_POT_10K_Trimmer") (at 182.88 38.1 0) (unit 1)
    (in_bom yes) (on_board yes) (dnp no) (fields_autoplaced)
    (uuid bf19d1d9-5477-406a-9052-cbce3547bb50)
    (property "Reference" "RV1" (at 180.34 37.465 0)
      (effects (font (size 1.27 1.27)) (justify right))
    )
    (property "Value" "R_POT_10K_Trimmer" (at 180.34 40.005 0)
      (effects (font (size 1.27 1.27)) (justify right))
    )
    (property "Footprint" "fab:Potentiometer_TT_Model-23_4.5x5.0x3.0mm" (at 182.88 38.1 0)
      (effects (font (size 1.27 1.27)) hide)
    )
    (property "Datasheet" "https://www.ttelectronics.com/TTElectronics/media/ProductFiles/Trimmers/Datasheets/23.pdf" (at 182.88 38.1 0)
      (effects (font (size 1.27 1.27)) hide)
    )
    (pin "1" (uuid da47249e-2bd1-4e4f-a98a-a46516a5d95e))
    (pin "2" (uuid b7e9d39b-14a5-4273-a140-9a39f0e0b136))
    (pin "3" (uuid 80bcacdb-c6b2-4c24-bed4-46eb212c6a69))
    (instances
      (project "XIAOShieldBasic"
        (path "/b956c67f-4d6a-475b-ac99-d75cd9f3bb78"
          (reference "RV1") (unit 1)
        )
      )
    )
  )

  (symbol (lib_id "fab:PWR_GND") (at 149.86 116.84 0) (unit 1)
    (in_bom yes) (on_board yes) (dnp no)
    (uuid bfed2a25-2644-48cb-aa74-29d689c15a51)
    (property "Reference" "#PWR02" (at 149.86 123.19 0)
      (effects (font (size 1.27 1.27)) hide)
    )
    (property "Value" "PWR_GND" (at 149.86 121.92 0)
      (effects (font (size 1.27 1.27)))
    )
    (property "Footprint" "" (at 149.86 116.84 0)
      (effects (font (size 1.27 1.27)) hide)
    )
    (property "Datasheet" "" (at 149.86 116.84 0)
      (effects (font (size 1.27 1.27)) hide)
    )
    (pin "1" (uuid 4800fdd8-d2f2-46d1-87b0-99ad7612aa7a))
    (instances
      (project "XIAOShieldBasic"
        (path "/b956c67f-4d6a-475b-ac99-d75cd9f3bb78"
          (reference "#PWR02") (unit 1)
        )
      )
    )
  )

  (symbol (lib_id "fab:Module_XIAO-RP2040") (at 149.86 90.17 0) (unit 1)
    (in_bom yes) (on_board yes) (dnp no) (fields_autoplaced)
    (uuid c28329dd-a5a2-4cca-9ee7-ed2d32daaf99)
    (property "Reference" "M1" (at 161.29 89.535 0)
      (effects (font (size 1.27 1.27)) (justify left))
    )
    (property "Value" "Module_XIAO-RP2040" (at 161.29 92.075 0)
      (effects (font (size 1.27 1.27)) (justify left))
    )
    (property "Footprint" "fab:SeedStudio_XIAO" (at 149.86 90.17 0)
      (effects (font (size 1.27 1.27)) hide)
    )
    (property "Datasheet" "https://wiki.seeedstudio.com/XIAO-RP2040/" (at 149.86 90.17 0)
      (effects (font (size 1.27 1.27)) hide)
    )
    (pin "1" (uuid c538882e-5a7d-4e2b-b162-8a423461d2b1))
    (pin "10" (uuid 17774861-509c-468b-8ea4-918c4fb7cad3))
    (pin "11" (uuid 92707866-5cfc-4ca9-9479-59706a5506b5))
    (pin "12" (uuid 83caaa51-01d2-4ea0-a5c5-4ce24490f6c5))
    (pin "13" (uuid 1c8d34ba-bf39-49eb-a0d9-3d5b76cf8571))
    (pin "14" (uuid 269aa954-0308-45b7-b1cf-da5705583d06))
    (pin "2" (uuid 047c1bd5-78f5-4bf6-968c-a59600ade452))
    (pin "3" (uuid 18a6661d-6edb-478e-beac-545ad6251586))
    (pin "4" (uuid 27a7f237-c752-4f6e-ae2b-e393f5e1399a))
    (pin "5" (uuid 2a05bf40-6343-4932-a58a-39c6eb1ba226))
    (pin "6" (uuid e5d8972a-6278-41ab-b416-c207f3536f4f))
    (pin "7" (uuid 0151e7bd-689c-476c-835c-04dbcd5f5ff2))
    (pin "8" (uuid 819b02d9-996c-4cee-95dd-303d124da6f7))
    (pin "9" (uuid a2cb7b13-a23b-4f48-9a34-c95470785a7d))
    (instances
      (project "XIAOShieldBasic"
        (path "/b956c67f-4d6a-475b-ac99-d75cd9f3bb78"
          (reference "M1") (unit 1)
        )
      )
    )
  )

  (symbol (lib_id "fab:PWR_FLAG") (at 149.86 113.03 90) (unit 1)
    (in_bom yes) (on_board yes) (dnp no) (fields_autoplaced)
    (uuid c4029afe-dae2-4f1f-8cab-65c98231114b)
    (property "Reference" "#FLG02" (at 147.955 113.03 0)
      (effects (font (size 1.27 1.27)) hide)
    )
    (property "Value" "PWR_FLAG" (at 146.05 113.665 90)
      (effects (font (size 1.27 1.27)) (justify left))
    )
    (property "Footprint" "" (at 149.86 113.03 0)
      (effects (font (size 1.27 1.27)) hide)
    )
    (property "Datasheet" "~" (at 149.86 113.03 0)
      (effects (font (size 1.27 1.27)) hide)
    )
    (pin "1" (uuid 5cd788a2-6050-45be-a09f-a8eaba4fcfdf))
    (instances
      (project "XIAOShieldBasic"
        (path "/b956c67f-4d6a-475b-ac99-d75cd9f3bb78"
          (reference "#FLG02") (unit 1)
        )
      )
    )
  )

  (symbol (lib_id "fab:PWR_FLAG") (at 147.32 68.58 90) (unit 1)
    (in_bom yes) (on_board yes) (dnp no) (fields_autoplaced)
    (uuid dc5b5f06-ad05-416f-8638-9b6e7aa1090d)
    (property "Reference" "#FLG01" (at 145.415 68.58 0)
      (effects (font (size 1.27 1.27)) hide)
    )
    (property "Value" "PWR_FLAG" (at 143.51 69.215 90)
      (effects (font (size 1.27 1.27)) (justify left))
    )
    (property "Footprint" "" (at 147.32 68.58 0)
      (effects (font (size 1.27 1.27)) hide)
    )
    (property "Datasheet" "~" (at 147.32 68.58 0)
      (effects (font (size 1.27 1.27)) hide)
    )
    (pin "1" (uuid a7ec8ea7-7732-4487-b4a5-133747ae2ed6))
    (instances
      (project "XIAOShieldBasic"
        (path "/b956c67f-4d6a-475b-ac99-d75cd9f3bb78"
          (reference "#FLG01") (unit 1)
        )
      )
    )
  )

  (symbol (lib_id "fab:PWR_GND") (at 83.82 88.9 0) (unit 1)
    (in_bom yes) (on_board yes) (dnp no)
    (uuid dcce6616-38b1-49a4-9f88-ef51b30b9234)
    (property "Reference" "#PWR03" (at 83.82 95.25 0)
      (effects (font (size 1.27 1.27)) hide)
    )
    (property "Value" "PWR_GND" (at 83.82 93.98 0)
      (effects (font (size 1.27 1.27)))
    )
    (property "Footprint" "" (at 83.82 88.9 0)
      (effects (font (size 1.27 1.27)) hide)
    )
    (property "Datasheet" "" (at 83.82 88.9 0)
      (effects (font (size 1.27 1.27)) hide)
    )
    (pin "1" (uuid 4ad15ed6-eca7-4e3f-a626-927be326c92c))
    (instances
      (project "XIAOShieldBasic"
        (path "/b956c67f-4d6a-475b-ac99-d75cd9f3bb78"
          (reference "#PWR03") (unit 1)
        )
      )
    )
  )

  (sheet_instances
    (path "/" (page "1"))
  )
)
