%TF.GenerationSoftware,KiCad,Pcbnew,(7.0.0)*%
%TF.CreationDate,2023-04-17T11:29:52+03:00*%
%TF.ProjectId,Week11OutputDevices,5765656b-3131-44f7-9574-707574446576,rev?*%
%TF.SameCoordinates,Original*%
%TF.FileFunction,Copper,L1,Top*%
%TF.FilePolarity,Positive*%
%FSLAX46Y46*%
G04 Gerber Fmt 4.6, Leading zero omitted, Abs format (unit mm)*
G04 Created by KiCad (PCBNEW (7.0.0)) date 2023-04-17 11:29:52*
%MOMM*%
%LPD*%
G01*
G04 APERTURE LIST*
%TA.AperFunction,SMDPad,CuDef*%
%ADD10R,2.000000X1.000000*%
%TD*%
%TA.AperFunction,SMDPad,CuDef*%
%ADD11R,1.000000X2.000000*%
%TD*%
%TA.AperFunction,ComponentPad*%
%ADD12R,2.100000X2.100000*%
%TD*%
%TA.AperFunction,ComponentPad*%
%ADD13C,2.100000*%
%TD*%
%TA.AperFunction,ComponentPad*%
%ADD14C,1.600000*%
%TD*%
%TA.AperFunction,Conductor*%
%ADD15C,0.400000*%
%TD*%
%TA.AperFunction,Profile*%
%ADD16C,0.100000*%
%TD*%
G04 APERTURE END LIST*
D10*
X107349999Y-123809999D03*
X110649999Y-121269999D03*
X107349999Y-118729999D03*
X110649999Y-116189999D03*
X110649999Y-106729999D03*
X107349999Y-109269999D03*
D11*
X127539999Y-97649999D03*
X124999999Y-94349999D03*
X122459999Y-97649999D03*
D12*
X131349999Y-123879999D03*
D13*
X131350000Y-121340000D03*
X131350000Y-118800000D03*
X131350000Y-116260000D03*
X131350000Y-113720000D03*
X131350000Y-111180000D03*
X131350000Y-108640000D03*
X131350000Y-106100000D03*
X118650000Y-106100000D03*
X118650000Y-108640000D03*
X118650000Y-111180000D03*
X118650000Y-113720000D03*
X118650000Y-116260000D03*
X118650000Y-118800000D03*
X118650000Y-121340000D03*
X118650000Y-123880000D03*
D14*
X153615000Y-107380000D03*
X153615000Y-109920000D03*
X153615000Y-112460000D03*
X153615000Y-115000000D03*
X153615000Y-117540000D03*
X153615000Y-120080000D03*
X153615000Y-122620000D03*
X138380000Y-122620000D03*
X138380000Y-120080000D03*
X138380000Y-117540000D03*
X138380000Y-115000000D03*
X138380000Y-112460000D03*
X138380000Y-109920000D03*
X138380000Y-107380000D03*
D15*
X131350000Y-125850000D02*
X131350000Y-123880000D01*
X133100000Y-127600000D02*
X131350000Y-125850000D01*
X153615000Y-120080000D02*
X148520000Y-120080000D01*
X148520000Y-120080000D02*
X141000000Y-127600000D01*
X141000000Y-127600000D02*
X133100000Y-127600000D01*
X139600000Y-125800000D02*
X135000000Y-125800000D01*
X147860000Y-117540000D02*
X139600000Y-125800000D01*
X153615000Y-117540000D02*
X147860000Y-117540000D01*
X135000000Y-122500000D02*
X133840000Y-121340000D01*
X133840000Y-121340000D02*
X131350000Y-121340000D01*
X135000000Y-125800000D02*
X135000000Y-122500000D01*
X153615000Y-122620000D02*
X149380000Y-122620000D01*
X128000000Y-107200000D02*
X129100000Y-106100000D01*
X128000000Y-125600000D02*
X128000000Y-107200000D01*
X142300000Y-129700000D02*
X132100000Y-129700000D01*
X149380000Y-122620000D02*
X142300000Y-129700000D01*
X129100000Y-106100000D02*
X131350000Y-106100000D01*
X132100000Y-129700000D02*
X128000000Y-125600000D01*
X110650000Y-106730000D02*
X111280000Y-106100000D01*
X111280000Y-106100000D02*
X118650000Y-106100000D01*
X113640000Y-116190000D02*
X118650000Y-111180000D01*
X110650000Y-116190000D02*
X113640000Y-116190000D01*
X113640000Y-118730000D02*
X118650000Y-113720000D01*
X107350000Y-118730000D02*
X113640000Y-118730000D01*
X113640000Y-121270000D02*
X118650000Y-116260000D01*
X110650000Y-121270000D02*
X113640000Y-121270000D01*
X107350000Y-123810000D02*
X113640000Y-123810000D01*
X113640000Y-123810000D02*
X118650000Y-118800000D01*
X122460000Y-102360000D02*
X124450000Y-104350000D01*
X135000000Y-109080000D02*
X135000000Y-102700000D01*
X126100000Y-102700000D02*
X124450000Y-104350000D01*
X122400000Y-120200000D02*
X121260000Y-121340000D01*
X122460000Y-97650000D02*
X122460000Y-102360000D01*
X124450000Y-104350000D02*
X122400000Y-106400000D01*
X122400000Y-106400000D02*
X122400000Y-120200000D01*
X138380000Y-112460000D02*
X135000000Y-109080000D01*
X135000000Y-102700000D02*
X126100000Y-102700000D01*
X121260000Y-121340000D02*
X118650000Y-121340000D01*
X131350000Y-94350000D02*
X146920000Y-109920000D01*
X146920000Y-109920000D02*
X153615000Y-109920000D01*
X125000000Y-94350000D02*
X131350000Y-94350000D01*
%TA.AperFunction,Conductor*%
G36*
X134002520Y-92000603D02*
G01*
X134009366Y-92000882D01*
X134023167Y-92001446D01*
X134025675Y-92001574D01*
X134422486Y-92025907D01*
X134429945Y-92026595D01*
X134546576Y-92040952D01*
X134553997Y-92042098D01*
X134944934Y-92114745D01*
X134947277Y-92115206D01*
X134963215Y-92118505D01*
X134963414Y-92118547D01*
X134976424Y-92121987D01*
X156881650Y-99207538D01*
X156905651Y-99218228D01*
X156950086Y-99243975D01*
X156950909Y-99244456D01*
X157110362Y-99338493D01*
X157122234Y-99346450D01*
X157204626Y-99408847D01*
X157206886Y-99410600D01*
X157318182Y-99498999D01*
X157327486Y-99507180D01*
X157407379Y-99584834D01*
X157410724Y-99588212D01*
X157503338Y-99685427D01*
X157510227Y-99693299D01*
X157551768Y-99745029D01*
X157581756Y-99782372D01*
X157585792Y-99787685D01*
X157662682Y-99894759D01*
X157667441Y-99901896D01*
X157727871Y-99999673D01*
X157732127Y-100007123D01*
X157793521Y-100123801D01*
X157796468Y-100129786D01*
X157844139Y-100233577D01*
X157848104Y-100243272D01*
X157893635Y-100369578D01*
X157895165Y-100374093D01*
X157928885Y-100480260D01*
X157932041Y-100492239D01*
X157961344Y-100631359D01*
X157961901Y-100634166D01*
X157980856Y-100735728D01*
X157982664Y-100749903D01*
X157995465Y-100934581D01*
X157995527Y-100935532D01*
X157999265Y-100996215D01*
X157999500Y-101003839D01*
X157999500Y-128996753D01*
X157999330Y-129003243D01*
X157992523Y-129133114D01*
X157992498Y-129133577D01*
X157982372Y-129313887D01*
X157981040Y-129326332D01*
X157957507Y-129474911D01*
X157957282Y-129476283D01*
X157930264Y-129635304D01*
X157927791Y-129646628D01*
X157887879Y-129795579D01*
X157887258Y-129797813D01*
X157843655Y-129949162D01*
X157840265Y-129959271D01*
X157784462Y-130104645D01*
X157783259Y-130107661D01*
X157723575Y-130251751D01*
X157719498Y-130260594D01*
X157648433Y-130400064D01*
X157646477Y-130403748D01*
X157571430Y-130539538D01*
X157566897Y-130547094D01*
X157481412Y-130678728D01*
X157478546Y-130682947D01*
X157389002Y-130809147D01*
X157384239Y-130815428D01*
X157285333Y-130937567D01*
X157281427Y-130942158D01*
X157178419Y-131057424D01*
X157173640Y-131062478D01*
X157062478Y-131173640D01*
X157057424Y-131178419D01*
X156942158Y-131281427D01*
X156937567Y-131285333D01*
X156815428Y-131384239D01*
X156809147Y-131389002D01*
X156682947Y-131478546D01*
X156678728Y-131481412D01*
X156547094Y-131566897D01*
X156539538Y-131571430D01*
X156403748Y-131646477D01*
X156400064Y-131648433D01*
X156260594Y-131719498D01*
X156251751Y-131723575D01*
X156107661Y-131783259D01*
X156104645Y-131784462D01*
X155959271Y-131840265D01*
X155949162Y-131843655D01*
X155797813Y-131887258D01*
X155795579Y-131887879D01*
X155646628Y-131927791D01*
X155635304Y-131930264D01*
X155476283Y-131957282D01*
X155474911Y-131957507D01*
X155326332Y-131981040D01*
X155313887Y-131982372D01*
X155133577Y-131992498D01*
X155133114Y-131992523D01*
X155003243Y-131999330D01*
X154996753Y-131999500D01*
X106003247Y-131999500D01*
X105996757Y-131999330D01*
X105866884Y-131992523D01*
X105866421Y-131992498D01*
X105686111Y-131982372D01*
X105673666Y-131981040D01*
X105525087Y-131957507D01*
X105523715Y-131957282D01*
X105364694Y-131930264D01*
X105353370Y-131927791D01*
X105204419Y-131887879D01*
X105202185Y-131887258D01*
X105050836Y-131843655D01*
X105040727Y-131840265D01*
X104895353Y-131784462D01*
X104892337Y-131783259D01*
X104748247Y-131723575D01*
X104739404Y-131719498D01*
X104599934Y-131648433D01*
X104596250Y-131646477D01*
X104460460Y-131571430D01*
X104452921Y-131566907D01*
X104321266Y-131481409D01*
X104317051Y-131478546D01*
X104190851Y-131389002D01*
X104184570Y-131384239D01*
X104062431Y-131285333D01*
X104057840Y-131281427D01*
X103942574Y-131178419D01*
X103937520Y-131173640D01*
X103826358Y-131062478D01*
X103821579Y-131057424D01*
X103718571Y-130942158D01*
X103714665Y-130937567D01*
X103615759Y-130815428D01*
X103610996Y-130809147D01*
X103521452Y-130682947D01*
X103518604Y-130678754D01*
X103433081Y-130547061D01*
X103428568Y-130539538D01*
X103353521Y-130403748D01*
X103351565Y-130400064D01*
X103280500Y-130260594D01*
X103276430Y-130251768D01*
X103216714Y-130107599D01*
X103215562Y-130104710D01*
X103159729Y-129959260D01*
X103156347Y-129949174D01*
X103112725Y-129797761D01*
X103112134Y-129795635D01*
X103072202Y-129646606D01*
X103069738Y-129635324D01*
X103042709Y-129476245D01*
X103042491Y-129474911D01*
X103018955Y-129326309D01*
X103017628Y-129313908D01*
X103007485Y-129133285D01*
X103007476Y-129133114D01*
X103000669Y-129003243D01*
X103000500Y-128996755D01*
X103000500Y-125141020D01*
X117746068Y-125141020D01*
X117754045Y-125148841D01*
X117939980Y-125262782D01*
X117948643Y-125267196D01*
X118165042Y-125356831D01*
X118174279Y-125359833D01*
X118402043Y-125414514D01*
X118411628Y-125416032D01*
X118645146Y-125434411D01*
X118654854Y-125434411D01*
X118888371Y-125416032D01*
X118897956Y-125414514D01*
X119125720Y-125359833D01*
X119134957Y-125356831D01*
X119351356Y-125267196D01*
X119360019Y-125262782D01*
X119545953Y-125148841D01*
X119553930Y-125141020D01*
X119547999Y-125131552D01*
X118661542Y-124245095D01*
X118649999Y-124238431D01*
X118638457Y-124245095D01*
X117751999Y-125131552D01*
X117746068Y-125141020D01*
X103000500Y-125141020D01*
X103000500Y-124354578D01*
X105849500Y-124354578D01*
X105849501Y-124357872D01*
X105849853Y-124361150D01*
X105849854Y-124361161D01*
X105855079Y-124409768D01*
X105855080Y-124409773D01*
X105855909Y-124417483D01*
X105858619Y-124424749D01*
X105858620Y-124424753D01*
X105882043Y-124487553D01*
X105906204Y-124552331D01*
X105911518Y-124559430D01*
X105911519Y-124559431D01*
X105912086Y-124560189D01*
X105992454Y-124667546D01*
X106107669Y-124753796D01*
X106242517Y-124804091D01*
X106302127Y-124810500D01*
X108397872Y-124810499D01*
X108457483Y-124804091D01*
X108592331Y-124753796D01*
X108707546Y-124667546D01*
X108787914Y-124560187D01*
X108831676Y-124523616D01*
X108887180Y-124510500D01*
X113615079Y-124510500D01*
X113622566Y-124510725D01*
X113682606Y-124514358D01*
X113741782Y-124503513D01*
X113749181Y-124502387D01*
X113808872Y-124495140D01*
X113818332Y-124491551D01*
X113839959Y-124485522D01*
X113849932Y-124483695D01*
X113904808Y-124458996D01*
X113911673Y-124456152D01*
X113967930Y-124434818D01*
X113976264Y-124429064D01*
X113995821Y-124418034D01*
X114005057Y-124413878D01*
X114052413Y-124376775D01*
X114058420Y-124372355D01*
X114107929Y-124338183D01*
X114147822Y-124293151D01*
X114152924Y-124287731D01*
X114555801Y-123884854D01*
X117095589Y-123884854D01*
X117113967Y-124118371D01*
X117115485Y-124127956D01*
X117170166Y-124355720D01*
X117173168Y-124364957D01*
X117262803Y-124581356D01*
X117267217Y-124590019D01*
X117381157Y-124775953D01*
X117388978Y-124783930D01*
X117398446Y-124777999D01*
X118284904Y-123891542D01*
X118291567Y-123880000D01*
X119008431Y-123880000D01*
X119015095Y-123891542D01*
X119901552Y-124777999D01*
X119911020Y-124783930D01*
X119918841Y-124775953D01*
X120032782Y-124590019D01*
X120037196Y-124581356D01*
X120126831Y-124364957D01*
X120129833Y-124355720D01*
X120184514Y-124127956D01*
X120186032Y-124118371D01*
X120204411Y-123884854D01*
X120204411Y-123875146D01*
X120186032Y-123641628D01*
X120184514Y-123632043D01*
X120129833Y-123404279D01*
X120126831Y-123395042D01*
X120037196Y-123178643D01*
X120032782Y-123169980D01*
X119918841Y-122984045D01*
X119911020Y-122976068D01*
X119901552Y-122981999D01*
X119015095Y-123868457D01*
X119008431Y-123880000D01*
X118291567Y-123880000D01*
X118291568Y-123879999D01*
X118284904Y-123868457D01*
X117398446Y-122981999D01*
X117388978Y-122976068D01*
X117381157Y-122984044D01*
X117267212Y-123169988D01*
X117262806Y-123178636D01*
X117173168Y-123395042D01*
X117170166Y-123404279D01*
X117115485Y-123632043D01*
X117113967Y-123641628D01*
X117095589Y-123875146D01*
X117095589Y-123884854D01*
X114555801Y-123884854D01*
X116907631Y-121533024D01*
X116964001Y-121500725D01*
X117028968Y-121501362D01*
X117084696Y-121534764D01*
X117115884Y-121591759D01*
X117169375Y-121814560D01*
X117170828Y-121820612D01*
X117172693Y-121825116D01*
X117172694Y-121825117D01*
X117262357Y-122041586D01*
X117262361Y-122041594D01*
X117264223Y-122046089D01*
X117317395Y-122132858D01*
X117363736Y-122208480D01*
X117391741Y-122254179D01*
X117394905Y-122257884D01*
X117394909Y-122257889D01*
X117547074Y-122436051D01*
X117550241Y-122439759D01*
X117715487Y-122580892D01*
X117740040Y-122609355D01*
X117751999Y-122628446D01*
X118638457Y-123514904D01*
X118649999Y-123521568D01*
X118661542Y-123514904D01*
X119547997Y-122628448D01*
X119559953Y-122609361D01*
X119584501Y-122580902D01*
X119749759Y-122439759D01*
X119908259Y-122254179D01*
X120002917Y-122099710D01*
X120048056Y-122056310D01*
X120108645Y-122040500D01*
X121235079Y-122040500D01*
X121242566Y-122040725D01*
X121302606Y-122044358D01*
X121361782Y-122033513D01*
X121369181Y-122032387D01*
X121428872Y-122025140D01*
X121438332Y-122021551D01*
X121459959Y-122015522D01*
X121469932Y-122013695D01*
X121524808Y-121988996D01*
X121531673Y-121986152D01*
X121587930Y-121964818D01*
X121596264Y-121959064D01*
X121615821Y-121948034D01*
X121625057Y-121943878D01*
X121672413Y-121906775D01*
X121678420Y-121902355D01*
X121727929Y-121868183D01*
X121767822Y-121823151D01*
X121772924Y-121817731D01*
X122877731Y-120712924D01*
X122883151Y-120707822D01*
X122928183Y-120667929D01*
X122962362Y-120618410D01*
X122966779Y-120612407D01*
X123003877Y-120565057D01*
X123008030Y-120555826D01*
X123019058Y-120536272D01*
X123024818Y-120527930D01*
X123046149Y-120471680D01*
X123049014Y-120464766D01*
X123070614Y-120416776D01*
X123070614Y-120416773D01*
X123073694Y-120409932D01*
X123075518Y-120399974D01*
X123081548Y-120378340D01*
X123085140Y-120368872D01*
X123092389Y-120309165D01*
X123093516Y-120301762D01*
X123104357Y-120242606D01*
X123100726Y-120182578D01*
X123100500Y-120175091D01*
X123100500Y-106741519D01*
X123109939Y-106694066D01*
X123136819Y-106653838D01*
X126353838Y-103436819D01*
X126394066Y-103409939D01*
X126441519Y-103400500D01*
X134175500Y-103400500D01*
X134237500Y-103417113D01*
X134282887Y-103462500D01*
X134299500Y-103524500D01*
X134299500Y-109055079D01*
X134299274Y-109062567D01*
X134296094Y-109115118D01*
X134296094Y-109115126D01*
X134295642Y-109122606D01*
X134296993Y-109129982D01*
X134296994Y-109129987D01*
X134306483Y-109181771D01*
X134307610Y-109189171D01*
X134313955Y-109241425D01*
X134313956Y-109241430D01*
X134314860Y-109248872D01*
X134317519Y-109255885D01*
X134317521Y-109255891D01*
X134318450Y-109258340D01*
X134324475Y-109279952D01*
X134324951Y-109282551D01*
X134324954Y-109282560D01*
X134326305Y-109289932D01*
X134329382Y-109296769D01*
X134329383Y-109296772D01*
X134350991Y-109344784D01*
X134353857Y-109351702D01*
X134375182Y-109407930D01*
X134379442Y-109414102D01*
X134379445Y-109414107D01*
X134380937Y-109416268D01*
X134391959Y-109435810D01*
X134393039Y-109438210D01*
X134393044Y-109438219D01*
X134396122Y-109445057D01*
X134400745Y-109450958D01*
X134400747Y-109450961D01*
X134433216Y-109492404D01*
X134437636Y-109498410D01*
X134471817Y-109547929D01*
X134516847Y-109587822D01*
X134522282Y-109592939D01*
X137059364Y-112130021D01*
X137089943Y-112180412D01*
X137093406Y-112233224D01*
X137094365Y-112233308D01*
X137074532Y-112460000D01*
X137075004Y-112465395D01*
X137088875Y-112623948D01*
X137094365Y-112686692D01*
X137095762Y-112691907D01*
X137095764Y-112691916D01*
X137151858Y-112901263D01*
X137151861Y-112901271D01*
X137153261Y-112906496D01*
X137249432Y-113112734D01*
X137379953Y-113299139D01*
X137540861Y-113460047D01*
X137727266Y-113590568D01*
X137732172Y-113592855D01*
X137732176Y-113592858D01*
X137785274Y-113617618D01*
X137837450Y-113663375D01*
X137856869Y-113730000D01*
X137837450Y-113796625D01*
X137785274Y-113842382D01*
X137732176Y-113867141D01*
X137732163Y-113867148D01*
X137727266Y-113869432D01*
X137722833Y-113872535D01*
X137722826Y-113872540D01*
X137545296Y-113996847D01*
X137545291Y-113996850D01*
X137540861Y-113999953D01*
X137537037Y-114003776D01*
X137537031Y-114003782D01*
X137383782Y-114157031D01*
X137383776Y-114157037D01*
X137379953Y-114160861D01*
X137376850Y-114165291D01*
X137376847Y-114165296D01*
X137252540Y-114342826D01*
X137252535Y-114342833D01*
X137249432Y-114347266D01*
X137247144Y-114352172D01*
X137247142Y-114352176D01*
X137155550Y-114548594D01*
X137155547Y-114548599D01*
X137153261Y-114553504D01*
X137151862Y-114558724D01*
X137151858Y-114558736D01*
X137095764Y-114768083D01*
X137095762Y-114768094D01*
X137094365Y-114773308D01*
X137093893Y-114778693D01*
X137093893Y-114778698D01*
X137083656Y-114895709D01*
X137074532Y-115000000D01*
X137075004Y-115005395D01*
X137088875Y-115163948D01*
X137094365Y-115226692D01*
X137095762Y-115231907D01*
X137095764Y-115231916D01*
X137151858Y-115441263D01*
X137151861Y-115441271D01*
X137153261Y-115446496D01*
X137249432Y-115652734D01*
X137379953Y-115839139D01*
X137540861Y-116000047D01*
X137727266Y-116130568D01*
X137732172Y-116132855D01*
X137732176Y-116132858D01*
X137785274Y-116157618D01*
X137837450Y-116203375D01*
X137856869Y-116270000D01*
X137837450Y-116336625D01*
X137785274Y-116382382D01*
X137732176Y-116407141D01*
X137732163Y-116407148D01*
X137727266Y-116409432D01*
X137722833Y-116412535D01*
X137722826Y-116412540D01*
X137545296Y-116536847D01*
X137545291Y-116536850D01*
X137540861Y-116539953D01*
X137537037Y-116543776D01*
X137537031Y-116543782D01*
X137383782Y-116697031D01*
X137383776Y-116697037D01*
X137379953Y-116700861D01*
X137376850Y-116705291D01*
X137376847Y-116705296D01*
X137252540Y-116882826D01*
X137252535Y-116882833D01*
X137249432Y-116887266D01*
X137247144Y-116892172D01*
X137247142Y-116892176D01*
X137155550Y-117088594D01*
X137155547Y-117088599D01*
X137153261Y-117093504D01*
X137151862Y-117098724D01*
X137151858Y-117098736D01*
X137095764Y-117308083D01*
X137095762Y-117308094D01*
X137094365Y-117313308D01*
X137093893Y-117318693D01*
X137093893Y-117318698D01*
X137083656Y-117435709D01*
X137074532Y-117540000D01*
X137075004Y-117545395D01*
X137088875Y-117703948D01*
X137094365Y-117766692D01*
X137095762Y-117771907D01*
X137095764Y-117771916D01*
X137151858Y-117981263D01*
X137151861Y-117981271D01*
X137153261Y-117986496D01*
X137249432Y-118192734D01*
X137379953Y-118379139D01*
X137540861Y-118540047D01*
X137727266Y-118670568D01*
X137732172Y-118672855D01*
X137732176Y-118672858D01*
X137785274Y-118697618D01*
X137837450Y-118743375D01*
X137856869Y-118810000D01*
X137837450Y-118876625D01*
X137785274Y-118922382D01*
X137732176Y-118947141D01*
X137732163Y-118947148D01*
X137727266Y-118949432D01*
X137722833Y-118952535D01*
X137722826Y-118952540D01*
X137545296Y-119076847D01*
X137545291Y-119076850D01*
X137540861Y-119079953D01*
X137537037Y-119083776D01*
X137537031Y-119083782D01*
X137383782Y-119237031D01*
X137383776Y-119237037D01*
X137379953Y-119240861D01*
X137376850Y-119245291D01*
X137376847Y-119245296D01*
X137252540Y-119422826D01*
X137252535Y-119422833D01*
X137249432Y-119427266D01*
X137247144Y-119432172D01*
X137247142Y-119432176D01*
X137155550Y-119628594D01*
X137155547Y-119628599D01*
X137153261Y-119633504D01*
X137151862Y-119638724D01*
X137151858Y-119638736D01*
X137095764Y-119848083D01*
X137095762Y-119848094D01*
X137094365Y-119853308D01*
X137093893Y-119858693D01*
X137093893Y-119858698D01*
X137086241Y-119946162D01*
X137074532Y-120080000D01*
X137075004Y-120085395D01*
X137089403Y-120249984D01*
X137094365Y-120306692D01*
X137095762Y-120311907D01*
X137095764Y-120311916D01*
X137151858Y-120521263D01*
X137151861Y-120521271D01*
X137153261Y-120526496D01*
X137155549Y-120531403D01*
X137155550Y-120531405D01*
X137213119Y-120654860D01*
X137249432Y-120732734D01*
X137252539Y-120737171D01*
X137252540Y-120737173D01*
X137279393Y-120775523D01*
X137379953Y-120919139D01*
X137540861Y-121080047D01*
X137727266Y-121210568D01*
X137785276Y-121237618D01*
X137837449Y-121283373D01*
X137856869Y-121349997D01*
X137837451Y-121416622D01*
X137785276Y-121462380D01*
X137732178Y-121487141D01*
X137732173Y-121487143D01*
X137727266Y-121489432D01*
X137722833Y-121492535D01*
X137722826Y-121492540D01*
X137545296Y-121616847D01*
X137545291Y-121616850D01*
X137540861Y-121619953D01*
X137537037Y-121623776D01*
X137537031Y-121623782D01*
X137383782Y-121777031D01*
X137383776Y-121777037D01*
X137379953Y-121780861D01*
X137376850Y-121785291D01*
X137376847Y-121785296D01*
X137252540Y-121962826D01*
X137252535Y-121962833D01*
X137249432Y-121967266D01*
X137247144Y-121972172D01*
X137247142Y-121972176D01*
X137155550Y-122168594D01*
X137155547Y-122168599D01*
X137153261Y-122173504D01*
X137151862Y-122178724D01*
X137151858Y-122178736D01*
X137095764Y-122388083D01*
X137095762Y-122388094D01*
X137094365Y-122393308D01*
X137093893Y-122398693D01*
X137093893Y-122398698D01*
X137077361Y-122587669D01*
X137074532Y-122620000D01*
X137075004Y-122625395D01*
X137088428Y-122778838D01*
X137094365Y-122846692D01*
X137095762Y-122851907D01*
X137095764Y-122851916D01*
X137151858Y-123061263D01*
X137151861Y-123061271D01*
X137153261Y-123066496D01*
X137249432Y-123272734D01*
X137379953Y-123459139D01*
X137540861Y-123620047D01*
X137727266Y-123750568D01*
X137933504Y-123846739D01*
X137938734Y-123848140D01*
X137938736Y-123848141D01*
X138057636Y-123880000D01*
X138153308Y-123905635D01*
X138380000Y-123925468D01*
X138606692Y-123905635D01*
X138826496Y-123846739D01*
X139032734Y-123750568D01*
X139219139Y-123620047D01*
X139380047Y-123459139D01*
X139510568Y-123272734D01*
X139606739Y-123066496D01*
X139665635Y-122846692D01*
X139685468Y-122620000D01*
X139665635Y-122393308D01*
X139664235Y-122388083D01*
X139608141Y-122178736D01*
X139608140Y-122178734D01*
X139606739Y-122173504D01*
X139510568Y-121967266D01*
X139380047Y-121780861D01*
X139219139Y-121619953D01*
X139157224Y-121576600D01*
X139037173Y-121492540D01*
X139037171Y-121492539D01*
X139032734Y-121489432D01*
X139027827Y-121487143D01*
X139027817Y-121487138D01*
X138974724Y-121462380D01*
X138922549Y-121416623D01*
X138903130Y-121349997D01*
X138922550Y-121283372D01*
X138974723Y-121237618D01*
X139032734Y-121210568D01*
X139219139Y-121080047D01*
X139380047Y-120919139D01*
X139510568Y-120732734D01*
X139606739Y-120526496D01*
X139665635Y-120306692D01*
X139685468Y-120080000D01*
X139665635Y-119853308D01*
X139632634Y-119730145D01*
X139608141Y-119638736D01*
X139608140Y-119638734D01*
X139606739Y-119633504D01*
X139510568Y-119427266D01*
X139380047Y-119240861D01*
X139219139Y-119079953D01*
X139157224Y-119036600D01*
X139037173Y-118952540D01*
X139037171Y-118952539D01*
X139032734Y-118949432D01*
X138974724Y-118922381D01*
X138922549Y-118876625D01*
X138903130Y-118810000D01*
X138922549Y-118743375D01*
X138974725Y-118697618D01*
X139032734Y-118670568D01*
X139219139Y-118540047D01*
X139380047Y-118379139D01*
X139510568Y-118192734D01*
X139606739Y-117986496D01*
X139665635Y-117766692D01*
X139685468Y-117540000D01*
X139665635Y-117313308D01*
X139632634Y-117190145D01*
X139608141Y-117098736D01*
X139608140Y-117098734D01*
X139606739Y-117093504D01*
X139510568Y-116887266D01*
X139380047Y-116700861D01*
X139219139Y-116539953D01*
X139157224Y-116496600D01*
X139037173Y-116412540D01*
X139037171Y-116412539D01*
X139032734Y-116409432D01*
X138974724Y-116382381D01*
X138922549Y-116336625D01*
X138903130Y-116270000D01*
X138922549Y-116203375D01*
X138974725Y-116157618D01*
X139032734Y-116130568D01*
X139219139Y-116000047D01*
X139380047Y-115839139D01*
X139510568Y-115652734D01*
X139606739Y-115446496D01*
X139665635Y-115226692D01*
X139685468Y-115000000D01*
X139665635Y-114773308D01*
X139606739Y-114553504D01*
X139510568Y-114347266D01*
X139380047Y-114160861D01*
X139219139Y-113999953D01*
X139157224Y-113956600D01*
X139037173Y-113872540D01*
X139037171Y-113872539D01*
X139032734Y-113869432D01*
X138974724Y-113842381D01*
X138922549Y-113796625D01*
X138903130Y-113730000D01*
X138922549Y-113663375D01*
X138974725Y-113617618D01*
X139032734Y-113590568D01*
X139219139Y-113460047D01*
X139380047Y-113299139D01*
X139510568Y-113112734D01*
X139606739Y-112906496D01*
X139665635Y-112686692D01*
X139685468Y-112460000D01*
X139665635Y-112233308D01*
X139651204Y-112179452D01*
X139608141Y-112018736D01*
X139608140Y-112018734D01*
X139606739Y-112013504D01*
X139510568Y-111807266D01*
X139380047Y-111620861D01*
X139219139Y-111459953D01*
X139032734Y-111329432D01*
X139027831Y-111327145D01*
X139027823Y-111327141D01*
X138974134Y-111302106D01*
X138921958Y-111256349D01*
X138902539Y-111189723D01*
X138921959Y-111123098D01*
X138974135Y-111077341D01*
X139027580Y-111052419D01*
X139036920Y-111047026D01*
X139094348Y-111006814D01*
X139101780Y-110998703D01*
X139095867Y-110989421D01*
X138380000Y-110273553D01*
X138026446Y-109919999D01*
X138738431Y-109919999D01*
X138745095Y-109931542D01*
X139449421Y-110635867D01*
X139458703Y-110641780D01*
X139466814Y-110634348D01*
X139507026Y-110576920D01*
X139512422Y-110567575D01*
X139603979Y-110371231D01*
X139607667Y-110361097D01*
X139663739Y-110151837D01*
X139665613Y-110141206D01*
X139684494Y-109925395D01*
X139684494Y-109914605D01*
X139665613Y-109698793D01*
X139663739Y-109688162D01*
X139607667Y-109478902D01*
X139603979Y-109468768D01*
X139512423Y-109272427D01*
X139507025Y-109263077D01*
X139466814Y-109205650D01*
X139458703Y-109198217D01*
X139449424Y-109204128D01*
X138745095Y-109908457D01*
X138738431Y-109919999D01*
X138026446Y-109919999D01*
X137310574Y-109204128D01*
X137301296Y-109198217D01*
X137293183Y-109205651D01*
X137252971Y-109263081D01*
X137247577Y-109272425D01*
X137156020Y-109468768D01*
X137152332Y-109478902D01*
X137096260Y-109688162D01*
X137094386Y-109698793D01*
X137078550Y-109879810D01*
X137053398Y-109944489D01*
X136997433Y-109985525D01*
X136928184Y-109990064D01*
X136867341Y-109956684D01*
X135736819Y-108826162D01*
X135709939Y-108785934D01*
X135700500Y-108738481D01*
X135700500Y-107380000D01*
X137074532Y-107380000D01*
X137075004Y-107385395D01*
X137093154Y-107592858D01*
X137094365Y-107606692D01*
X137095762Y-107611907D01*
X137095764Y-107611916D01*
X137151858Y-107821263D01*
X137151861Y-107821271D01*
X137153261Y-107826496D01*
X137249432Y-108032734D01*
X137379953Y-108219139D01*
X137540861Y-108380047D01*
X137727266Y-108510568D01*
X137732175Y-108512857D01*
X137732180Y-108512860D01*
X137785864Y-108537893D01*
X137838040Y-108583649D01*
X137857460Y-108650274D01*
X137838041Y-108716899D01*
X137785866Y-108762657D01*
X137732421Y-108787579D01*
X137723081Y-108792971D01*
X137665651Y-108833183D01*
X137658217Y-108841296D01*
X137664128Y-108850574D01*
X138368457Y-109554903D01*
X138380000Y-109561567D01*
X138391542Y-109554903D01*
X139095870Y-108850574D01*
X139101781Y-108841295D01*
X139094348Y-108833184D01*
X139036922Y-108792974D01*
X139027572Y-108787575D01*
X138974134Y-108762657D01*
X138921958Y-108716899D01*
X138902539Y-108650274D01*
X138921959Y-108583649D01*
X138974131Y-108537894D01*
X139032734Y-108510568D01*
X139219139Y-108380047D01*
X139380047Y-108219139D01*
X139510568Y-108032734D01*
X139606739Y-107826496D01*
X139665635Y-107606692D01*
X139685468Y-107380000D01*
X139665635Y-107153308D01*
X139606739Y-106933504D01*
X139510568Y-106727266D01*
X139380047Y-106540861D01*
X139219139Y-106379953D01*
X139032734Y-106249432D01*
X138826496Y-106153261D01*
X138821271Y-106151861D01*
X138821263Y-106151858D01*
X138611916Y-106095764D01*
X138611907Y-106095762D01*
X138606692Y-106094365D01*
X138601304Y-106093893D01*
X138601301Y-106093893D01*
X138385395Y-106075004D01*
X138380000Y-106074532D01*
X138374605Y-106075004D01*
X138158698Y-106093893D01*
X138158693Y-106093893D01*
X138153308Y-106094365D01*
X138148094Y-106095762D01*
X138148083Y-106095764D01*
X137938736Y-106151858D01*
X137938724Y-106151862D01*
X137933504Y-106153261D01*
X137928599Y-106155547D01*
X137928594Y-106155550D01*
X137732176Y-106247142D01*
X137732172Y-106247144D01*
X137727266Y-106249432D01*
X137722833Y-106252535D01*
X137722826Y-106252540D01*
X137545296Y-106376847D01*
X137545291Y-106376850D01*
X137540861Y-106379953D01*
X137537037Y-106383776D01*
X137537031Y-106383782D01*
X137383782Y-106537031D01*
X137383776Y-106537037D01*
X137379953Y-106540861D01*
X137376850Y-106545291D01*
X137376847Y-106545296D01*
X137252540Y-106722826D01*
X137252535Y-106722833D01*
X137249432Y-106727266D01*
X137247144Y-106732172D01*
X137247142Y-106732176D01*
X137155550Y-106928594D01*
X137155547Y-106928599D01*
X137153261Y-106933504D01*
X137151862Y-106938724D01*
X137151858Y-106938736D01*
X137095764Y-107148083D01*
X137095762Y-107148094D01*
X137094365Y-107153308D01*
X137093893Y-107158693D01*
X137093893Y-107158698D01*
X137077616Y-107344752D01*
X137074532Y-107380000D01*
X135700500Y-107380000D01*
X135700500Y-102622449D01*
X135700500Y-102614944D01*
X135692078Y-102580779D01*
X135689380Y-102566053D01*
X135686044Y-102538574D01*
X135686043Y-102538573D01*
X135685140Y-102531128D01*
X135672663Y-102498228D01*
X135668213Y-102483952D01*
X135659790Y-102449775D01*
X135643432Y-102418609D01*
X135637299Y-102404982D01*
X135624818Y-102372070D01*
X135604829Y-102343112D01*
X135597082Y-102330297D01*
X135584219Y-102305789D01*
X135580734Y-102299148D01*
X135557404Y-102272813D01*
X135548172Y-102261030D01*
X135528183Y-102232071D01*
X135522570Y-102227098D01*
X135522568Y-102227096D01*
X135501848Y-102208740D01*
X135491257Y-102198149D01*
X135472905Y-102177433D01*
X135472901Y-102177430D01*
X135467929Y-102171817D01*
X135461757Y-102167556D01*
X135461753Y-102167553D01*
X135438966Y-102151824D01*
X135427181Y-102142591D01*
X135419199Y-102135520D01*
X135400852Y-102119266D01*
X135394213Y-102115781D01*
X135394208Y-102115778D01*
X135369703Y-102102917D01*
X135356892Y-102095173D01*
X135351617Y-102091532D01*
X135327930Y-102075182D01*
X135320918Y-102072522D01*
X135320915Y-102072521D01*
X135295026Y-102062702D01*
X135281376Y-102056559D01*
X135256865Y-102043695D01*
X135250225Y-102040210D01*
X135216063Y-102031789D01*
X135201773Y-102027337D01*
X135175882Y-102017518D01*
X135175878Y-102017517D01*
X135168872Y-102014860D01*
X135161432Y-102013956D01*
X135161422Y-102013954D01*
X135133941Y-102010617D01*
X135119219Y-102007920D01*
X135092336Y-102001294D01*
X135092333Y-102001293D01*
X135085056Y-101999500D01*
X135077555Y-101999500D01*
X126124910Y-101999500D01*
X126117423Y-101999274D01*
X126064881Y-101996095D01*
X126064873Y-101996095D01*
X126057394Y-101995643D01*
X126050019Y-101996994D01*
X126050009Y-101996995D01*
X125998242Y-102006481D01*
X125990843Y-102007608D01*
X125938567Y-102013956D01*
X125938561Y-102013957D01*
X125931128Y-102014860D01*
X125924123Y-102017516D01*
X125924112Y-102017519D01*
X125921639Y-102018457D01*
X125900041Y-102024478D01*
X125897451Y-102024952D01*
X125897444Y-102024954D01*
X125890068Y-102026306D01*
X125877883Y-102031790D01*
X125835234Y-102050984D01*
X125828318Y-102053848D01*
X125779088Y-102072519D01*
X125779078Y-102072523D01*
X125772070Y-102075182D01*
X125765899Y-102079441D01*
X125765894Y-102079444D01*
X125763722Y-102080944D01*
X125744187Y-102091962D01*
X125741784Y-102093043D01*
X125741777Y-102093047D01*
X125734943Y-102096123D01*
X125729043Y-102100745D01*
X125729040Y-102100747D01*
X125687595Y-102133216D01*
X125681566Y-102137651D01*
X125638249Y-102167551D01*
X125638241Y-102167557D01*
X125632071Y-102171817D01*
X125627101Y-102177426D01*
X125627094Y-102177433D01*
X125592184Y-102216838D01*
X125587051Y-102222290D01*
X124537680Y-103271661D01*
X124482093Y-103303755D01*
X124417905Y-103303755D01*
X124362318Y-103271661D01*
X123196819Y-102106162D01*
X123169939Y-102065934D01*
X123160500Y-102018481D01*
X123160500Y-99187180D01*
X123173616Y-99131676D01*
X123210187Y-99087914D01*
X123317546Y-99007546D01*
X123403796Y-98892331D01*
X123454091Y-98757483D01*
X123460500Y-98697873D01*
X123460500Y-98694518D01*
X126540000Y-98694518D01*
X126540353Y-98701114D01*
X126545573Y-98749667D01*
X126549111Y-98764641D01*
X126593547Y-98883777D01*
X126601962Y-98899189D01*
X126677498Y-99000092D01*
X126689907Y-99012501D01*
X126790810Y-99088037D01*
X126806222Y-99096452D01*
X126925358Y-99140888D01*
X126940332Y-99144426D01*
X126988885Y-99149646D01*
X126995482Y-99150000D01*
X127273674Y-99150000D01*
X127286549Y-99146549D01*
X127290000Y-99133674D01*
X127790000Y-99133674D01*
X127793450Y-99146549D01*
X127806326Y-99150000D01*
X128084518Y-99150000D01*
X128091114Y-99149646D01*
X128139667Y-99144426D01*
X128154641Y-99140888D01*
X128273777Y-99096452D01*
X128289189Y-99088037D01*
X128390092Y-99012501D01*
X128402501Y-99000092D01*
X128478037Y-98899189D01*
X128486452Y-98883777D01*
X128530888Y-98764641D01*
X128534426Y-98749667D01*
X128539646Y-98701114D01*
X128540000Y-98694518D01*
X128540000Y-97916326D01*
X128536549Y-97903450D01*
X128523674Y-97900000D01*
X127806326Y-97900000D01*
X127793450Y-97903450D01*
X127790000Y-97916326D01*
X127790000Y-99133674D01*
X127290000Y-99133674D01*
X127290000Y-97916326D01*
X127286549Y-97903450D01*
X127273674Y-97900000D01*
X126556326Y-97900000D01*
X126543450Y-97903450D01*
X126540000Y-97916326D01*
X126540000Y-98694518D01*
X123460500Y-98694518D01*
X123460499Y-97383674D01*
X126540000Y-97383674D01*
X126543450Y-97396549D01*
X126556326Y-97400000D01*
X127273674Y-97400000D01*
X127286549Y-97396549D01*
X127290000Y-97383674D01*
X127790000Y-97383674D01*
X127793450Y-97396549D01*
X127806326Y-97400000D01*
X128523674Y-97400000D01*
X128536549Y-97396549D01*
X128540000Y-97383674D01*
X128540000Y-96605482D01*
X128539646Y-96598885D01*
X128534426Y-96550332D01*
X128530888Y-96535358D01*
X128486452Y-96416222D01*
X128478037Y-96400810D01*
X128402501Y-96299907D01*
X128390092Y-96287498D01*
X128289189Y-96211962D01*
X128273777Y-96203547D01*
X128154641Y-96159111D01*
X128139667Y-96155573D01*
X128091114Y-96150353D01*
X128084518Y-96150000D01*
X127806326Y-96150000D01*
X127793450Y-96153450D01*
X127790000Y-96166326D01*
X127790000Y-97383674D01*
X127290000Y-97383674D01*
X127290000Y-96166326D01*
X127286549Y-96153450D01*
X127273674Y-96150000D01*
X126995482Y-96150000D01*
X126988885Y-96150353D01*
X126940332Y-96155573D01*
X126925358Y-96159111D01*
X126806222Y-96203547D01*
X126790810Y-96211962D01*
X126689907Y-96287498D01*
X126677498Y-96299907D01*
X126601962Y-96400810D01*
X126593547Y-96416222D01*
X126549111Y-96535358D01*
X126545573Y-96550332D01*
X126540353Y-96598885D01*
X126540000Y-96605482D01*
X126540000Y-97383674D01*
X123460499Y-97383674D01*
X123460499Y-96602128D01*
X123454091Y-96542517D01*
X123403796Y-96407669D01*
X123317546Y-96292454D01*
X123202331Y-96206204D01*
X123131965Y-96179959D01*
X123074752Y-96158620D01*
X123074750Y-96158619D01*
X123067483Y-96155909D01*
X123059770Y-96155079D01*
X123059767Y-96155079D01*
X123011180Y-96149855D01*
X123011169Y-96149854D01*
X123007873Y-96149500D01*
X123004550Y-96149500D01*
X121915439Y-96149500D01*
X121915420Y-96149500D01*
X121912128Y-96149501D01*
X121908850Y-96149853D01*
X121908838Y-96149854D01*
X121860231Y-96155079D01*
X121860225Y-96155080D01*
X121852517Y-96155909D01*
X121845252Y-96158618D01*
X121845246Y-96158620D01*
X121725980Y-96203104D01*
X121725978Y-96203104D01*
X121717669Y-96206204D01*
X121710572Y-96211516D01*
X121710568Y-96211519D01*
X121609550Y-96287141D01*
X121609546Y-96287144D01*
X121602454Y-96292454D01*
X121597144Y-96299546D01*
X121597141Y-96299550D01*
X121521519Y-96400568D01*
X121521516Y-96400572D01*
X121516204Y-96407669D01*
X121513104Y-96415978D01*
X121513104Y-96415980D01*
X121468620Y-96535247D01*
X121468619Y-96535250D01*
X121465909Y-96542517D01*
X121465079Y-96550227D01*
X121465079Y-96550232D01*
X121459855Y-96598819D01*
X121459854Y-96598831D01*
X121459500Y-96602127D01*
X121459500Y-96605448D01*
X121459500Y-96605449D01*
X121459500Y-98694560D01*
X121459500Y-98694578D01*
X121459501Y-98697872D01*
X121459853Y-98701150D01*
X121459854Y-98701161D01*
X121465079Y-98749768D01*
X121465080Y-98749773D01*
X121465909Y-98757483D01*
X121468619Y-98764749D01*
X121468620Y-98764753D01*
X121502217Y-98854831D01*
X121516204Y-98892331D01*
X121602454Y-99007546D01*
X121709812Y-99087914D01*
X121746384Y-99131676D01*
X121759500Y-99187180D01*
X121759500Y-102335079D01*
X121759274Y-102342567D01*
X121756094Y-102395118D01*
X121756094Y-102395126D01*
X121755642Y-102402606D01*
X121756993Y-102409982D01*
X121756994Y-102409987D01*
X121766483Y-102461771D01*
X121767610Y-102469171D01*
X121773955Y-102521425D01*
X121773956Y-102521430D01*
X121774860Y-102528872D01*
X121777519Y-102535885D01*
X121777521Y-102535891D01*
X121778450Y-102538340D01*
X121784475Y-102559952D01*
X121784951Y-102562551D01*
X121784954Y-102562560D01*
X121786305Y-102569932D01*
X121789382Y-102576769D01*
X121789383Y-102576772D01*
X121810991Y-102624784D01*
X121813857Y-102631702D01*
X121835182Y-102687930D01*
X121839442Y-102694102D01*
X121839445Y-102694107D01*
X121840937Y-102696268D01*
X121851959Y-102715810D01*
X121853039Y-102718210D01*
X121853044Y-102718219D01*
X121856122Y-102725057D01*
X121860745Y-102730958D01*
X121860747Y-102730961D01*
X121893216Y-102772404D01*
X121897636Y-102778410D01*
X121931817Y-102827929D01*
X121976847Y-102867822D01*
X121982282Y-102872939D01*
X123371661Y-104262318D01*
X123403755Y-104317905D01*
X123403755Y-104382093D01*
X123371661Y-104437680D01*
X121922290Y-105887051D01*
X121916838Y-105892184D01*
X121877431Y-105927096D01*
X121877425Y-105927102D01*
X121871817Y-105932071D01*
X121867560Y-105938236D01*
X121867551Y-105938248D01*
X121837649Y-105981568D01*
X121833213Y-105987597D01*
X121800749Y-106029035D01*
X121800743Y-106029043D01*
X121796122Y-106034943D01*
X121793044Y-106041780D01*
X121793043Y-106041783D01*
X121791962Y-106044185D01*
X121780940Y-106063727D01*
X121779441Y-106065898D01*
X121779437Y-106065904D01*
X121775182Y-106072070D01*
X121772526Y-106079070D01*
X121772522Y-106079080D01*
X121753853Y-106128305D01*
X121750989Y-106135219D01*
X121729382Y-106183229D01*
X121729379Y-106183235D01*
X121726305Y-106190068D01*
X121724953Y-106197439D01*
X121724951Y-106197449D01*
X121724474Y-106200053D01*
X121718456Y-106221643D01*
X121717519Y-106224114D01*
X121717517Y-106224119D01*
X121714860Y-106231128D01*
X121713956Y-106238565D01*
X121713956Y-106238569D01*
X121707610Y-106290827D01*
X121706483Y-106298226D01*
X121696994Y-106350010D01*
X121696993Y-106350018D01*
X121695642Y-106357394D01*
X121696094Y-106364873D01*
X121696094Y-106364881D01*
X121699274Y-106417433D01*
X121699500Y-106424921D01*
X121699500Y-119858481D01*
X121690061Y-119905934D01*
X121663181Y-119946162D01*
X121006162Y-120603181D01*
X120965934Y-120630061D01*
X120918481Y-120639500D01*
X120108645Y-120639500D01*
X120048056Y-120623690D01*
X120002918Y-120580290D01*
X119910807Y-120429979D01*
X119908259Y-120425821D01*
X119902903Y-120419550D01*
X119752925Y-120243948D01*
X119749759Y-120240241D01*
X119660829Y-120164287D01*
X119628752Y-120121912D01*
X119617362Y-120069998D01*
X119628753Y-120018084D01*
X119660825Y-119975715D01*
X119749759Y-119899759D01*
X119908259Y-119714179D01*
X120035777Y-119506089D01*
X120129172Y-119280612D01*
X120186146Y-119043302D01*
X120205294Y-118800000D01*
X120186146Y-118556698D01*
X120129172Y-118319388D01*
X120035777Y-118093911D01*
X119908259Y-117885821D01*
X119902903Y-117879550D01*
X119752925Y-117703948D01*
X119749759Y-117700241D01*
X119660827Y-117624286D01*
X119628752Y-117581914D01*
X119617362Y-117530000D01*
X119628752Y-117478086D01*
X119660827Y-117435713D01*
X119749759Y-117359759D01*
X119908259Y-117174179D01*
X120035777Y-116966089D01*
X120129172Y-116740612D01*
X120186146Y-116503302D01*
X120205294Y-116260000D01*
X120186146Y-116016698D01*
X120129172Y-115779388D01*
X120035777Y-115553911D01*
X119908259Y-115345821D01*
X119902903Y-115339550D01*
X119752925Y-115163948D01*
X119749759Y-115160241D01*
X119660827Y-115084286D01*
X119628752Y-115041914D01*
X119617362Y-114990000D01*
X119628752Y-114938086D01*
X119660827Y-114895713D01*
X119749759Y-114819759D01*
X119908259Y-114634179D01*
X120035777Y-114426089D01*
X120129172Y-114200612D01*
X120186146Y-113963302D01*
X120205294Y-113720000D01*
X120186146Y-113476698D01*
X120129172Y-113239388D01*
X120035777Y-113013911D01*
X119908259Y-112805821D01*
X119806513Y-112686692D01*
X119752925Y-112623948D01*
X119749759Y-112620241D01*
X119660827Y-112544286D01*
X119628752Y-112501914D01*
X119617362Y-112450000D01*
X119628752Y-112398086D01*
X119660827Y-112355713D01*
X119749759Y-112279759D01*
X119908259Y-112094179D01*
X120035777Y-111886089D01*
X120129172Y-111660612D01*
X120186146Y-111423302D01*
X120205294Y-111180000D01*
X120186146Y-110936698D01*
X120129172Y-110699388D01*
X120035777Y-110473911D01*
X119908259Y-110265821D01*
X119806513Y-110146692D01*
X119752925Y-110083948D01*
X119749759Y-110080241D01*
X119584511Y-109939106D01*
X119559957Y-109910642D01*
X119547999Y-109891552D01*
X118661542Y-109005095D01*
X118649999Y-108998431D01*
X118638457Y-109005095D01*
X117751999Y-109891552D01*
X117740039Y-109910646D01*
X117715486Y-109939107D01*
X117550241Y-110080241D01*
X117547080Y-110083941D01*
X117547074Y-110083948D01*
X117394909Y-110262110D01*
X117394900Y-110262121D01*
X117391741Y-110265821D01*
X117389198Y-110269970D01*
X117389192Y-110269979D01*
X117310915Y-110397716D01*
X117264223Y-110473911D01*
X117262363Y-110478400D01*
X117262357Y-110478413D01*
X117181602Y-110673377D01*
X117170828Y-110699388D01*
X117169691Y-110704120D01*
X117169690Y-110704126D01*
X117114989Y-110931968D01*
X117114987Y-110931975D01*
X117113854Y-110936698D01*
X117113472Y-110941542D01*
X117113472Y-110941547D01*
X117099162Y-111123375D01*
X117094706Y-111180000D01*
X117095088Y-111184854D01*
X117104337Y-111302382D01*
X117113854Y-111423302D01*
X117114987Y-111428024D01*
X117114989Y-111428032D01*
X117156146Y-111599459D01*
X117154916Y-111662065D01*
X117123253Y-111716088D01*
X113386162Y-115453181D01*
X113345934Y-115480061D01*
X113298481Y-115489500D01*
X112187180Y-115489500D01*
X112131676Y-115476384D01*
X112087913Y-115439811D01*
X112017552Y-115345821D01*
X112007546Y-115332454D01*
X111892331Y-115246204D01*
X111757483Y-115195909D01*
X111749770Y-115195079D01*
X111749767Y-115195079D01*
X111701180Y-115189855D01*
X111701169Y-115189854D01*
X111697873Y-115189500D01*
X111694550Y-115189500D01*
X109605439Y-115189500D01*
X109605420Y-115189500D01*
X109602128Y-115189501D01*
X109598850Y-115189853D01*
X109598838Y-115189854D01*
X109550231Y-115195079D01*
X109550225Y-115195080D01*
X109542517Y-115195909D01*
X109535252Y-115198618D01*
X109535246Y-115198620D01*
X109415980Y-115243104D01*
X109415978Y-115243104D01*
X109407669Y-115246204D01*
X109400572Y-115251516D01*
X109400568Y-115251519D01*
X109299550Y-115327141D01*
X109299546Y-115327144D01*
X109292454Y-115332454D01*
X109287144Y-115339546D01*
X109287141Y-115339550D01*
X109211519Y-115440568D01*
X109211516Y-115440572D01*
X109206204Y-115447669D01*
X109203104Y-115455978D01*
X109203104Y-115455980D01*
X109158620Y-115575247D01*
X109158619Y-115575250D01*
X109155909Y-115582517D01*
X109155079Y-115590227D01*
X109155079Y-115590232D01*
X109149855Y-115638819D01*
X109149854Y-115638831D01*
X109149500Y-115642127D01*
X109149500Y-115645448D01*
X109149500Y-115645449D01*
X109149500Y-116734560D01*
X109149500Y-116734578D01*
X109149501Y-116737872D01*
X109149853Y-116741150D01*
X109149854Y-116741161D01*
X109155079Y-116789768D01*
X109155080Y-116789773D01*
X109155909Y-116797483D01*
X109158619Y-116804749D01*
X109158620Y-116804753D01*
X109183536Y-116871554D01*
X109206204Y-116932331D01*
X109211518Y-116939430D01*
X109211519Y-116939431D01*
X109238537Y-116975523D01*
X109292454Y-117047546D01*
X109407669Y-117133796D01*
X109542517Y-117184091D01*
X109602127Y-117190500D01*
X111697872Y-117190499D01*
X111757483Y-117184091D01*
X111892331Y-117133796D01*
X112007546Y-117047546D01*
X112087914Y-116940187D01*
X112131676Y-116903616D01*
X112187180Y-116890500D01*
X113615079Y-116890500D01*
X113622566Y-116890725D01*
X113682606Y-116894358D01*
X113741782Y-116883513D01*
X113749181Y-116882387D01*
X113808872Y-116875140D01*
X113818332Y-116871551D01*
X113839959Y-116865522D01*
X113849932Y-116863695D01*
X113904808Y-116838996D01*
X113911673Y-116836152D01*
X113967930Y-116814818D01*
X113976264Y-116809064D01*
X113995821Y-116798034D01*
X114005057Y-116793878D01*
X114052413Y-116756775D01*
X114058420Y-116752355D01*
X114107929Y-116718183D01*
X114147822Y-116673151D01*
X114152924Y-116667731D01*
X116907631Y-113913024D01*
X116964001Y-113880725D01*
X117028968Y-113881362D01*
X117084696Y-113914764D01*
X117115884Y-113971759D01*
X117156146Y-114139459D01*
X117154917Y-114202065D01*
X117123253Y-114256088D01*
X113386162Y-117993181D01*
X113345934Y-118020061D01*
X113298481Y-118029500D01*
X108887180Y-118029500D01*
X108831676Y-118016384D01*
X108787913Y-117979811D01*
X108717552Y-117885821D01*
X108707546Y-117872454D01*
X108592331Y-117786204D01*
X108457483Y-117735909D01*
X108449770Y-117735079D01*
X108449767Y-117735079D01*
X108401180Y-117729855D01*
X108401169Y-117729854D01*
X108397873Y-117729500D01*
X108394550Y-117729500D01*
X106305439Y-117729500D01*
X106305420Y-117729500D01*
X106302128Y-117729501D01*
X106298850Y-117729853D01*
X106298838Y-117729854D01*
X106250231Y-117735079D01*
X106250225Y-117735080D01*
X106242517Y-117735909D01*
X106235252Y-117738618D01*
X106235246Y-117738620D01*
X106115980Y-117783104D01*
X106115978Y-117783104D01*
X106107669Y-117786204D01*
X106100572Y-117791516D01*
X106100568Y-117791519D01*
X105999550Y-117867141D01*
X105999546Y-117867144D01*
X105992454Y-117872454D01*
X105987144Y-117879546D01*
X105987141Y-117879550D01*
X105911519Y-117980568D01*
X105911516Y-117980572D01*
X105906204Y-117987669D01*
X105903104Y-117995978D01*
X105903104Y-117995980D01*
X105858620Y-118115247D01*
X105858619Y-118115250D01*
X105855909Y-118122517D01*
X105855079Y-118130227D01*
X105855079Y-118130232D01*
X105849855Y-118178819D01*
X105849854Y-118178831D01*
X105849500Y-118182127D01*
X105849500Y-118185448D01*
X105849500Y-118185449D01*
X105849500Y-119274560D01*
X105849500Y-119274578D01*
X105849501Y-119277872D01*
X105849853Y-119281150D01*
X105849854Y-119281161D01*
X105855079Y-119329768D01*
X105855080Y-119329773D01*
X105855909Y-119337483D01*
X105858619Y-119344749D01*
X105858620Y-119344753D01*
X105883536Y-119411554D01*
X105906204Y-119472331D01*
X105911518Y-119479430D01*
X105911519Y-119479431D01*
X105938537Y-119515523D01*
X105992454Y-119587546D01*
X106107669Y-119673796D01*
X106242517Y-119724091D01*
X106302127Y-119730500D01*
X108397872Y-119730499D01*
X108457483Y-119724091D01*
X108592331Y-119673796D01*
X108707546Y-119587546D01*
X108787914Y-119480187D01*
X108831676Y-119443616D01*
X108887180Y-119430500D01*
X113615079Y-119430500D01*
X113622566Y-119430725D01*
X113682606Y-119434358D01*
X113741782Y-119423513D01*
X113749181Y-119422387D01*
X113808872Y-119415140D01*
X113818332Y-119411551D01*
X113839959Y-119405522D01*
X113849932Y-119403695D01*
X113904808Y-119378996D01*
X113911673Y-119376152D01*
X113967930Y-119354818D01*
X113976264Y-119349064D01*
X113995821Y-119338034D01*
X114005057Y-119333878D01*
X114052413Y-119296775D01*
X114058420Y-119292355D01*
X114107929Y-119258183D01*
X114147822Y-119213151D01*
X114152924Y-119207731D01*
X116907631Y-116453024D01*
X116964001Y-116420725D01*
X117028968Y-116421362D01*
X117084696Y-116454764D01*
X117115884Y-116511759D01*
X117156146Y-116679459D01*
X117154917Y-116742065D01*
X117123253Y-116796088D01*
X113386162Y-120533181D01*
X113345934Y-120560061D01*
X113298481Y-120569500D01*
X112187180Y-120569500D01*
X112131676Y-120556384D01*
X112087913Y-120519811D01*
X112051891Y-120471692D01*
X112007546Y-120412454D01*
X111892331Y-120326204D01*
X111757483Y-120275909D01*
X111749770Y-120275079D01*
X111749767Y-120275079D01*
X111701180Y-120269855D01*
X111701169Y-120269854D01*
X111697873Y-120269500D01*
X111694550Y-120269500D01*
X109605439Y-120269500D01*
X109605420Y-120269500D01*
X109602128Y-120269501D01*
X109598850Y-120269853D01*
X109598838Y-120269854D01*
X109550231Y-120275079D01*
X109550225Y-120275080D01*
X109542517Y-120275909D01*
X109535252Y-120278618D01*
X109535246Y-120278620D01*
X109415980Y-120323104D01*
X109415978Y-120323104D01*
X109407669Y-120326204D01*
X109400572Y-120331516D01*
X109400568Y-120331519D01*
X109299550Y-120407141D01*
X109299546Y-120407144D01*
X109292454Y-120412454D01*
X109287144Y-120419546D01*
X109287141Y-120419550D01*
X109211519Y-120520568D01*
X109211516Y-120520572D01*
X109206204Y-120527669D01*
X109203104Y-120535978D01*
X109203104Y-120535980D01*
X109158620Y-120655247D01*
X109158619Y-120655250D01*
X109155909Y-120662517D01*
X109155079Y-120670227D01*
X109155079Y-120670232D01*
X109149855Y-120718819D01*
X109149854Y-120718831D01*
X109149500Y-120722127D01*
X109149500Y-120725448D01*
X109149500Y-120725449D01*
X109149500Y-121814560D01*
X109149500Y-121814578D01*
X109149501Y-121817872D01*
X109149853Y-121821150D01*
X109149854Y-121821161D01*
X109155079Y-121869768D01*
X109155080Y-121869773D01*
X109155909Y-121877483D01*
X109158619Y-121884749D01*
X109158620Y-121884753D01*
X109183536Y-121951554D01*
X109206204Y-122012331D01*
X109211518Y-122019430D01*
X109211519Y-122019431D01*
X109238537Y-122055523D01*
X109292454Y-122127546D01*
X109407669Y-122213796D01*
X109542517Y-122264091D01*
X109602127Y-122270500D01*
X111697872Y-122270499D01*
X111757483Y-122264091D01*
X111892331Y-122213796D01*
X112007546Y-122127546D01*
X112087914Y-122020187D01*
X112131676Y-121983616D01*
X112187180Y-121970500D01*
X113615079Y-121970500D01*
X113622566Y-121970725D01*
X113682606Y-121974358D01*
X113741782Y-121963513D01*
X113749181Y-121962387D01*
X113808872Y-121955140D01*
X113818332Y-121951551D01*
X113839959Y-121945522D01*
X113849932Y-121943695D01*
X113904808Y-121918996D01*
X113911673Y-121916152D01*
X113967930Y-121894818D01*
X113976264Y-121889064D01*
X113995821Y-121878034D01*
X114005057Y-121873878D01*
X114052413Y-121836775D01*
X114058420Y-121832355D01*
X114107929Y-121798183D01*
X114147822Y-121753151D01*
X114152924Y-121747731D01*
X116907631Y-118993024D01*
X116964001Y-118960725D01*
X117028968Y-118961362D01*
X117084696Y-118994764D01*
X117115884Y-119051759D01*
X117156146Y-119219459D01*
X117154917Y-119282065D01*
X117123253Y-119336088D01*
X113386162Y-123073181D01*
X113345934Y-123100061D01*
X113298481Y-123109500D01*
X108887180Y-123109500D01*
X108831676Y-123096384D01*
X108787913Y-123059811D01*
X108712858Y-122959550D01*
X108707546Y-122952454D01*
X108592331Y-122866204D01*
X108457483Y-122815909D01*
X108449770Y-122815079D01*
X108449767Y-122815079D01*
X108401180Y-122809855D01*
X108401169Y-122809854D01*
X108397873Y-122809500D01*
X108394550Y-122809500D01*
X106305439Y-122809500D01*
X106305420Y-122809500D01*
X106302128Y-122809501D01*
X106298850Y-122809853D01*
X106298838Y-122809854D01*
X106250231Y-122815079D01*
X106250225Y-122815080D01*
X106242517Y-122815909D01*
X106235252Y-122818618D01*
X106235246Y-122818620D01*
X106115980Y-122863104D01*
X106115978Y-122863104D01*
X106107669Y-122866204D01*
X106100572Y-122871516D01*
X106100568Y-122871519D01*
X105999550Y-122947141D01*
X105999546Y-122947144D01*
X105992454Y-122952454D01*
X105987144Y-122959546D01*
X105987141Y-122959550D01*
X105911519Y-123060568D01*
X105911516Y-123060572D01*
X105906204Y-123067669D01*
X105903104Y-123075978D01*
X105903104Y-123075980D01*
X105858620Y-123195247D01*
X105858619Y-123195250D01*
X105855909Y-123202517D01*
X105855079Y-123210227D01*
X105855079Y-123210232D01*
X105849855Y-123258819D01*
X105849854Y-123258831D01*
X105849500Y-123262127D01*
X105849500Y-123265448D01*
X105849500Y-123265449D01*
X105849500Y-124354560D01*
X105849500Y-124354578D01*
X103000500Y-124354578D01*
X103000500Y-109814518D01*
X105850000Y-109814518D01*
X105850353Y-109821114D01*
X105855573Y-109869667D01*
X105859111Y-109884641D01*
X105903547Y-110003777D01*
X105911962Y-110019189D01*
X105987498Y-110120092D01*
X105999907Y-110132501D01*
X106100810Y-110208037D01*
X106116222Y-110216452D01*
X106235358Y-110260888D01*
X106250332Y-110264426D01*
X106298885Y-110269646D01*
X106305482Y-110270000D01*
X107083674Y-110270000D01*
X107096549Y-110266549D01*
X107100000Y-110253674D01*
X107600000Y-110253674D01*
X107603450Y-110266549D01*
X107616326Y-110270000D01*
X108394518Y-110270000D01*
X108401114Y-110269646D01*
X108449667Y-110264426D01*
X108464641Y-110260888D01*
X108583777Y-110216452D01*
X108599189Y-110208037D01*
X108700092Y-110132501D01*
X108712501Y-110120092D01*
X108788037Y-110019189D01*
X108796452Y-110003777D01*
X108840888Y-109884641D01*
X108844426Y-109869667D01*
X108849646Y-109821114D01*
X108850000Y-109814518D01*
X108850000Y-109536326D01*
X108846549Y-109523450D01*
X108833674Y-109520000D01*
X107616326Y-109520000D01*
X107603450Y-109523450D01*
X107600000Y-109536326D01*
X107600000Y-110253674D01*
X107100000Y-110253674D01*
X107100000Y-109536326D01*
X107096549Y-109523450D01*
X107083674Y-109520000D01*
X105866326Y-109520000D01*
X105853450Y-109523450D01*
X105850000Y-109536326D01*
X105850000Y-109814518D01*
X103000500Y-109814518D01*
X103000500Y-109003674D01*
X105850000Y-109003674D01*
X105853450Y-109016549D01*
X105866326Y-109020000D01*
X107083674Y-109020000D01*
X107096549Y-109016549D01*
X107100000Y-109003674D01*
X107600000Y-109003674D01*
X107603450Y-109016549D01*
X107616326Y-109020000D01*
X108833674Y-109020000D01*
X108846549Y-109016549D01*
X108850000Y-109003674D01*
X108850000Y-108725482D01*
X108849646Y-108718885D01*
X108844426Y-108670332D01*
X108840888Y-108655358D01*
X108836970Y-108644854D01*
X117095589Y-108644854D01*
X117113967Y-108878371D01*
X117115485Y-108887956D01*
X117170166Y-109115720D01*
X117173168Y-109124957D01*
X117262803Y-109341356D01*
X117267217Y-109350019D01*
X117381157Y-109535953D01*
X117388978Y-109543930D01*
X117398446Y-109537999D01*
X118284904Y-108651542D01*
X118291568Y-108640000D01*
X119008431Y-108640000D01*
X119015095Y-108651542D01*
X119901552Y-109537999D01*
X119911020Y-109543930D01*
X119918841Y-109535953D01*
X120032782Y-109350019D01*
X120037196Y-109341356D01*
X120126831Y-109124957D01*
X120129833Y-109115720D01*
X120184514Y-108887956D01*
X120186032Y-108878371D01*
X120204411Y-108644854D01*
X120204411Y-108635146D01*
X120186032Y-108401628D01*
X120184514Y-108392043D01*
X120129833Y-108164279D01*
X120126831Y-108155042D01*
X120037196Y-107938643D01*
X120032782Y-107929980D01*
X119918841Y-107744045D01*
X119911020Y-107736068D01*
X119901552Y-107741999D01*
X119015095Y-108628457D01*
X119008431Y-108640000D01*
X118291568Y-108640000D01*
X118284904Y-108628457D01*
X117398446Y-107741999D01*
X117388978Y-107736068D01*
X117381157Y-107744044D01*
X117267212Y-107929988D01*
X117262806Y-107938636D01*
X117173168Y-108155042D01*
X117170166Y-108164279D01*
X117115485Y-108392043D01*
X117113967Y-108401628D01*
X117095589Y-108635146D01*
X117095589Y-108644854D01*
X108836970Y-108644854D01*
X108796452Y-108536222D01*
X108788037Y-108520810D01*
X108712501Y-108419907D01*
X108700092Y-108407498D01*
X108599189Y-108331962D01*
X108583777Y-108323547D01*
X108464641Y-108279111D01*
X108449667Y-108275573D01*
X108401114Y-108270353D01*
X108394518Y-108270000D01*
X107616326Y-108270000D01*
X107603450Y-108273450D01*
X107600000Y-108286326D01*
X107600000Y-109003674D01*
X107100000Y-109003674D01*
X107100000Y-108286326D01*
X107096549Y-108273450D01*
X107083674Y-108270000D01*
X106305482Y-108270000D01*
X106298885Y-108270353D01*
X106250332Y-108275573D01*
X106235358Y-108279111D01*
X106116222Y-108323547D01*
X106100810Y-108331962D01*
X105999907Y-108407498D01*
X105987498Y-108419907D01*
X105911962Y-108520810D01*
X105903547Y-108536222D01*
X105859111Y-108655358D01*
X105855573Y-108670332D01*
X105850353Y-108718885D01*
X105850000Y-108725482D01*
X105850000Y-109003674D01*
X103000500Y-109003674D01*
X103000500Y-107274578D01*
X109149500Y-107274578D01*
X109149501Y-107277872D01*
X109149853Y-107281150D01*
X109149854Y-107281161D01*
X109155079Y-107329768D01*
X109155080Y-107329773D01*
X109155909Y-107337483D01*
X109158619Y-107344749D01*
X109158620Y-107344753D01*
X109187400Y-107421914D01*
X109206204Y-107472331D01*
X109211518Y-107479430D01*
X109211519Y-107479431D01*
X109259816Y-107543948D01*
X109292454Y-107587546D01*
X109407669Y-107673796D01*
X109542517Y-107724091D01*
X109602127Y-107730500D01*
X111697872Y-107730499D01*
X111757483Y-107724091D01*
X111892331Y-107673796D01*
X112007546Y-107587546D01*
X112093796Y-107472331D01*
X112144091Y-107337483D01*
X112150500Y-107277873D01*
X112150500Y-106924500D01*
X112167113Y-106862500D01*
X112212500Y-106817113D01*
X112274500Y-106800500D01*
X117191355Y-106800500D01*
X117251944Y-106816310D01*
X117297082Y-106859710D01*
X117383084Y-107000053D01*
X117391741Y-107014179D01*
X117394905Y-107017884D01*
X117394909Y-107017889D01*
X117520452Y-107164881D01*
X117550241Y-107199759D01*
X117715487Y-107340892D01*
X117740040Y-107369355D01*
X117751999Y-107388446D01*
X118638457Y-108274904D01*
X118650000Y-108281568D01*
X118661542Y-108274904D01*
X119547997Y-107388448D01*
X119559953Y-107369361D01*
X119584501Y-107340902D01*
X119749759Y-107199759D01*
X119908259Y-107014179D01*
X120035777Y-106806089D01*
X120129172Y-106580612D01*
X120186146Y-106343302D01*
X120205294Y-106100000D01*
X120186146Y-105856698D01*
X120129172Y-105619388D01*
X120059421Y-105450993D01*
X120037642Y-105398413D01*
X120037640Y-105398410D01*
X120035777Y-105393911D01*
X119908259Y-105185821D01*
X119749759Y-105000241D01*
X119746051Y-104997074D01*
X119567889Y-104844909D01*
X119567884Y-104844905D01*
X119564179Y-104841741D01*
X119560023Y-104839194D01*
X119560020Y-104839192D01*
X119468374Y-104783031D01*
X119356089Y-104714223D01*
X119351594Y-104712361D01*
X119351586Y-104712357D01*
X119135117Y-104622694D01*
X119135116Y-104622693D01*
X119130612Y-104620828D01*
X119125875Y-104619690D01*
X119125873Y-104619690D01*
X118898031Y-104564989D01*
X118898026Y-104564988D01*
X118893302Y-104563854D01*
X118888455Y-104563472D01*
X118888452Y-104563472D01*
X118654854Y-104545088D01*
X118650000Y-104544706D01*
X118645146Y-104545088D01*
X118411547Y-104563472D01*
X118411542Y-104563472D01*
X118406698Y-104563854D01*
X118401975Y-104564987D01*
X118401968Y-104564989D01*
X118174126Y-104619690D01*
X118174120Y-104619691D01*
X118169388Y-104620828D01*
X118164886Y-104622692D01*
X118164882Y-104622694D01*
X117948413Y-104712357D01*
X117948400Y-104712363D01*
X117943911Y-104714223D01*
X117939757Y-104716768D01*
X117939756Y-104716769D01*
X117739979Y-104839192D01*
X117739970Y-104839198D01*
X117735821Y-104841741D01*
X117732121Y-104844900D01*
X117732110Y-104844909D01*
X117553948Y-104997074D01*
X117553941Y-104997080D01*
X117550241Y-105000241D01*
X117547080Y-105003941D01*
X117547074Y-105003948D01*
X117394909Y-105182110D01*
X117394900Y-105182121D01*
X117391741Y-105185821D01*
X117389198Y-105189970D01*
X117389192Y-105189979D01*
X117297082Y-105340290D01*
X117251944Y-105383690D01*
X117191355Y-105399500D01*
X111304921Y-105399500D01*
X111297433Y-105399274D01*
X111244881Y-105396094D01*
X111244873Y-105396094D01*
X111237394Y-105395642D01*
X111230018Y-105396993D01*
X111230011Y-105396994D01*
X111178228Y-105406483D01*
X111170828Y-105407610D01*
X111118569Y-105413956D01*
X111118565Y-105413956D01*
X111111128Y-105414860D01*
X111104119Y-105417517D01*
X111104114Y-105417519D01*
X111101643Y-105418456D01*
X111080053Y-105424474D01*
X111077452Y-105424950D01*
X111077438Y-105424954D01*
X111070069Y-105426305D01*
X111063232Y-105429381D01*
X111063232Y-105429382D01*
X111015226Y-105450987D01*
X111008310Y-105453851D01*
X110959082Y-105472521D01*
X110959070Y-105472526D01*
X110952070Y-105475182D01*
X110945904Y-105479437D01*
X110945894Y-105479443D01*
X110943717Y-105480946D01*
X110924195Y-105491957D01*
X110921788Y-105493040D01*
X110921778Y-105493045D01*
X110914944Y-105496122D01*
X110909043Y-105500744D01*
X110909038Y-105500748D01*
X110867608Y-105533206D01*
X110861580Y-105537642D01*
X110818246Y-105567554D01*
X110818242Y-105567556D01*
X110812071Y-105571817D01*
X110807101Y-105577426D01*
X110807094Y-105577433D01*
X110772177Y-105616846D01*
X110767044Y-105622298D01*
X110696161Y-105693181D01*
X110655933Y-105720061D01*
X110608480Y-105729500D01*
X109605439Y-105729500D01*
X109605420Y-105729500D01*
X109602128Y-105729501D01*
X109598850Y-105729853D01*
X109598838Y-105729854D01*
X109550231Y-105735079D01*
X109550225Y-105735080D01*
X109542517Y-105735909D01*
X109535252Y-105738618D01*
X109535246Y-105738620D01*
X109415980Y-105783104D01*
X109415978Y-105783104D01*
X109407669Y-105786204D01*
X109400572Y-105791516D01*
X109400568Y-105791519D01*
X109299550Y-105867141D01*
X109299546Y-105867144D01*
X109292454Y-105872454D01*
X109287144Y-105879546D01*
X109287141Y-105879550D01*
X109211519Y-105980568D01*
X109211516Y-105980572D01*
X109206204Y-105987669D01*
X109203104Y-105995978D01*
X109203104Y-105995980D01*
X109158620Y-106115247D01*
X109158619Y-106115250D01*
X109155909Y-106122517D01*
X109155079Y-106130227D01*
X109155079Y-106130232D01*
X109149855Y-106178819D01*
X109149854Y-106178831D01*
X109149500Y-106182127D01*
X109149500Y-106185448D01*
X109149500Y-106185449D01*
X109149500Y-107274560D01*
X109149500Y-107274578D01*
X103000500Y-107274578D01*
X103000500Y-101003821D01*
X103000734Y-100996202D01*
X103000978Y-100992223D01*
X103004485Y-100935285D01*
X103004494Y-100935155D01*
X103017334Y-100749883D01*
X103019137Y-100735751D01*
X103038120Y-100634045D01*
X103038633Y-100631461D01*
X103067959Y-100492226D01*
X103071112Y-100480260D01*
X103104852Y-100374033D01*
X103106341Y-100369638D01*
X103151905Y-100243243D01*
X103155854Y-100233588D01*
X103203551Y-100129740D01*
X103206441Y-100123868D01*
X103267887Y-100007091D01*
X103272114Y-99999694D01*
X103332568Y-99901878D01*
X103337300Y-99894781D01*
X103414249Y-99787625D01*
X103418198Y-99782426D01*
X103489791Y-99693273D01*
X103496629Y-99685460D01*
X103589298Y-99588187D01*
X103592627Y-99584826D01*
X103615339Y-99562750D01*
X103672527Y-99507164D01*
X103681786Y-99499022D01*
X103793190Y-99410538D01*
X103795290Y-99408909D01*
X103877781Y-99346437D01*
X103889612Y-99338506D01*
X104049538Y-99244191D01*
X104049835Y-99244017D01*
X104101437Y-99214117D01*
X104110341Y-99209432D01*
X112138576Y-95394578D01*
X123999500Y-95394578D01*
X123999501Y-95397872D01*
X123999853Y-95401150D01*
X123999854Y-95401161D01*
X124005079Y-95449768D01*
X124005080Y-95449773D01*
X124005909Y-95457483D01*
X124008619Y-95464749D01*
X124008620Y-95464753D01*
X124042217Y-95554831D01*
X124056204Y-95592331D01*
X124142454Y-95707546D01*
X124257669Y-95793796D01*
X124392517Y-95844091D01*
X124452127Y-95850500D01*
X125547872Y-95850499D01*
X125607483Y-95844091D01*
X125742331Y-95793796D01*
X125857546Y-95707546D01*
X125943796Y-95592331D01*
X125994091Y-95457483D01*
X126000500Y-95397873D01*
X126000500Y-95174500D01*
X126017113Y-95112500D01*
X126062500Y-95067113D01*
X126124500Y-95050500D01*
X131008481Y-95050500D01*
X131055934Y-95059939D01*
X131096162Y-95086819D01*
X146407059Y-110397716D01*
X146412193Y-110403170D01*
X146452071Y-110448183D01*
X146501577Y-110482355D01*
X146507597Y-110486785D01*
X146554943Y-110523878D01*
X146561783Y-110526956D01*
X146561784Y-110526957D01*
X146564181Y-110528036D01*
X146583730Y-110539061D01*
X146592070Y-110544818D01*
X146648301Y-110566143D01*
X146655223Y-110569010D01*
X146710068Y-110593694D01*
X146720035Y-110595520D01*
X146741653Y-110601547D01*
X146744113Y-110602480D01*
X146744116Y-110602480D01*
X146751128Y-110605140D01*
X146808602Y-110612118D01*
X146810830Y-110612389D01*
X146818235Y-110613516D01*
X146834066Y-110616416D01*
X146877394Y-110624357D01*
X146937422Y-110620726D01*
X146944910Y-110620500D01*
X152453327Y-110620500D01*
X152510584Y-110634511D01*
X152554902Y-110673377D01*
X152614953Y-110759139D01*
X152775861Y-110920047D01*
X152962266Y-111050568D01*
X153020276Y-111077618D01*
X153072449Y-111123373D01*
X153091869Y-111189997D01*
X153072451Y-111256622D01*
X153020276Y-111302380D01*
X152967178Y-111327141D01*
X152967173Y-111327143D01*
X152962266Y-111329432D01*
X152957833Y-111332535D01*
X152957826Y-111332540D01*
X152780296Y-111456847D01*
X152780291Y-111456850D01*
X152775861Y-111459953D01*
X152772037Y-111463776D01*
X152772031Y-111463782D01*
X152618782Y-111617031D01*
X152618776Y-111617037D01*
X152614953Y-111620861D01*
X152611850Y-111625291D01*
X152611847Y-111625296D01*
X152487540Y-111802826D01*
X152487535Y-111802833D01*
X152484432Y-111807266D01*
X152482144Y-111812172D01*
X152482142Y-111812176D01*
X152390550Y-112008594D01*
X152390547Y-112008599D01*
X152388261Y-112013504D01*
X152386862Y-112018724D01*
X152386858Y-112018736D01*
X152330764Y-112228083D01*
X152330762Y-112228094D01*
X152329365Y-112233308D01*
X152328893Y-112238693D01*
X152328893Y-112238698D01*
X152318656Y-112355709D01*
X152309532Y-112460000D01*
X152310004Y-112465395D01*
X152323875Y-112623948D01*
X152329365Y-112686692D01*
X152330762Y-112691907D01*
X152330764Y-112691916D01*
X152386858Y-112901263D01*
X152386861Y-112901271D01*
X152388261Y-112906496D01*
X152484432Y-113112734D01*
X152614953Y-113299139D01*
X152775861Y-113460047D01*
X152962266Y-113590568D01*
X152967172Y-113592855D01*
X152967176Y-113592858D01*
X153020274Y-113617618D01*
X153072450Y-113663375D01*
X153091869Y-113730000D01*
X153072450Y-113796625D01*
X153020274Y-113842382D01*
X152967176Y-113867141D01*
X152967163Y-113867148D01*
X152962266Y-113869432D01*
X152957833Y-113872535D01*
X152957826Y-113872540D01*
X152780296Y-113996847D01*
X152780291Y-113996850D01*
X152775861Y-113999953D01*
X152772037Y-114003776D01*
X152772031Y-114003782D01*
X152618782Y-114157031D01*
X152618776Y-114157037D01*
X152614953Y-114160861D01*
X152611850Y-114165291D01*
X152611847Y-114165296D01*
X152487540Y-114342826D01*
X152487535Y-114342833D01*
X152484432Y-114347266D01*
X152482144Y-114352172D01*
X152482142Y-114352176D01*
X152390550Y-114548594D01*
X152390547Y-114548599D01*
X152388261Y-114553504D01*
X152386862Y-114558724D01*
X152386858Y-114558736D01*
X152330764Y-114768083D01*
X152330762Y-114768094D01*
X152329365Y-114773308D01*
X152328893Y-114778693D01*
X152328893Y-114778698D01*
X152318656Y-114895709D01*
X152309532Y-115000000D01*
X152310004Y-115005395D01*
X152323875Y-115163948D01*
X152329365Y-115226692D01*
X152330762Y-115231907D01*
X152330764Y-115231916D01*
X152386858Y-115441263D01*
X152386861Y-115441271D01*
X152388261Y-115446496D01*
X152484432Y-115652734D01*
X152614953Y-115839139D01*
X152775861Y-116000047D01*
X152962266Y-116130568D01*
X152967172Y-116132855D01*
X152967176Y-116132858D01*
X153020274Y-116157618D01*
X153072450Y-116203375D01*
X153091869Y-116270000D01*
X153072450Y-116336625D01*
X153020274Y-116382382D01*
X152967176Y-116407141D01*
X152967163Y-116407148D01*
X152962266Y-116409432D01*
X152957833Y-116412535D01*
X152957826Y-116412540D01*
X152780296Y-116536847D01*
X152780291Y-116536850D01*
X152775861Y-116539953D01*
X152772037Y-116543776D01*
X152772031Y-116543782D01*
X152618782Y-116697031D01*
X152618776Y-116697037D01*
X152614953Y-116700861D01*
X152611850Y-116705291D01*
X152611847Y-116705296D01*
X152554902Y-116786623D01*
X152510584Y-116825489D01*
X152453327Y-116839500D01*
X147884921Y-116839500D01*
X147877433Y-116839274D01*
X147824881Y-116836094D01*
X147824873Y-116836094D01*
X147817394Y-116835642D01*
X147810018Y-116836993D01*
X147810010Y-116836994D01*
X147758226Y-116846483D01*
X147750827Y-116847610D01*
X147698569Y-116853956D01*
X147698565Y-116853956D01*
X147691128Y-116854860D01*
X147684119Y-116857517D01*
X147684114Y-116857519D01*
X147681643Y-116858456D01*
X147660053Y-116864474D01*
X147657449Y-116864951D01*
X147657439Y-116864953D01*
X147650068Y-116866305D01*
X147643235Y-116869379D01*
X147643229Y-116869382D01*
X147595219Y-116890989D01*
X147588305Y-116893853D01*
X147539080Y-116912522D01*
X147539070Y-116912526D01*
X147532070Y-116915182D01*
X147525904Y-116919437D01*
X147525898Y-116919441D01*
X147523727Y-116920940D01*
X147504185Y-116931962D01*
X147501783Y-116933043D01*
X147501780Y-116933044D01*
X147494943Y-116936122D01*
X147489043Y-116940743D01*
X147489035Y-116940749D01*
X147447597Y-116973213D01*
X147441568Y-116977649D01*
X147398248Y-117007551D01*
X147398236Y-117007560D01*
X147392071Y-117011817D01*
X147387102Y-117017425D01*
X147387096Y-117017431D01*
X147352184Y-117056838D01*
X147347051Y-117062290D01*
X139346162Y-125063181D01*
X139305934Y-125090061D01*
X139258481Y-125099500D01*
X135824500Y-125099500D01*
X135762500Y-125082887D01*
X135717113Y-125037500D01*
X135700500Y-124975500D01*
X135700500Y-122524921D01*
X135700726Y-122517433D01*
X135703905Y-122464881D01*
X135704358Y-122457394D01*
X135693514Y-122398221D01*
X135692387Y-122390815D01*
X135691827Y-122386204D01*
X135685140Y-122331128D01*
X135681547Y-122321656D01*
X135675522Y-122300041D01*
X135673695Y-122290069D01*
X135649009Y-122235220D01*
X135646142Y-122228298D01*
X135646110Y-122228214D01*
X135624818Y-122172070D01*
X135619059Y-122163727D01*
X135608033Y-122144177D01*
X135606956Y-122141784D01*
X135603878Y-122134944D01*
X135576274Y-122099710D01*
X135566791Y-122087605D01*
X135562353Y-122081574D01*
X135544371Y-122055523D01*
X135528183Y-122032071D01*
X135522568Y-122027097D01*
X135522565Y-122027093D01*
X135483170Y-121992193D01*
X135477716Y-121987059D01*
X134352939Y-120862282D01*
X134347822Y-120856847D01*
X134307929Y-120811817D01*
X134258410Y-120777636D01*
X134252404Y-120773216D01*
X134210961Y-120740747D01*
X134210958Y-120740745D01*
X134205057Y-120736122D01*
X134198219Y-120733044D01*
X134198210Y-120733039D01*
X134195810Y-120731959D01*
X134176268Y-120720937D01*
X134174107Y-120719445D01*
X134174102Y-120719442D01*
X134167930Y-120715182D01*
X134111702Y-120693857D01*
X134104784Y-120690991D01*
X134056772Y-120669383D01*
X134056769Y-120669382D01*
X134049932Y-120666305D01*
X134042560Y-120664954D01*
X134042551Y-120664951D01*
X134039952Y-120664475D01*
X134018340Y-120658450D01*
X134015891Y-120657521D01*
X134015885Y-120657519D01*
X134008872Y-120654860D01*
X134001430Y-120653956D01*
X134001425Y-120653955D01*
X133949171Y-120647610D01*
X133941771Y-120646483D01*
X133889987Y-120636994D01*
X133889982Y-120636993D01*
X133882606Y-120635642D01*
X133875126Y-120636094D01*
X133875118Y-120636094D01*
X133822567Y-120639274D01*
X133815079Y-120639500D01*
X132808645Y-120639500D01*
X132748056Y-120623690D01*
X132702918Y-120580290D01*
X132610807Y-120429979D01*
X132608259Y-120425821D01*
X132602903Y-120419550D01*
X132452925Y-120243948D01*
X132449759Y-120240241D01*
X132360829Y-120164287D01*
X132328752Y-120121912D01*
X132317362Y-120069998D01*
X132328753Y-120018084D01*
X132360825Y-119975715D01*
X132449759Y-119899759D01*
X132608259Y-119714179D01*
X132735777Y-119506089D01*
X132829172Y-119280612D01*
X132886146Y-119043302D01*
X132905294Y-118800000D01*
X132886146Y-118556698D01*
X132829172Y-118319388D01*
X132735777Y-118093911D01*
X132608259Y-117885821D01*
X132602903Y-117879550D01*
X132452925Y-117703948D01*
X132449759Y-117700241D01*
X132360827Y-117624286D01*
X132328752Y-117581914D01*
X132317362Y-117530000D01*
X132328752Y-117478086D01*
X132360827Y-117435713D01*
X132449759Y-117359759D01*
X132608259Y-117174179D01*
X132735777Y-116966089D01*
X132829172Y-116740612D01*
X132886146Y-116503302D01*
X132905294Y-116260000D01*
X132886146Y-116016698D01*
X132829172Y-115779388D01*
X132735777Y-115553911D01*
X132608259Y-115345821D01*
X132602903Y-115339550D01*
X132452925Y-115163948D01*
X132449759Y-115160241D01*
X132360827Y-115084286D01*
X132328752Y-115041914D01*
X132317362Y-114990000D01*
X132328752Y-114938086D01*
X132360827Y-114895713D01*
X132449759Y-114819759D01*
X132608259Y-114634179D01*
X132735777Y-114426089D01*
X132829172Y-114200612D01*
X132886146Y-113963302D01*
X132905294Y-113720000D01*
X132886146Y-113476698D01*
X132829172Y-113239388D01*
X132735777Y-113013911D01*
X132608259Y-112805821D01*
X132506513Y-112686692D01*
X132452925Y-112623948D01*
X132449759Y-112620241D01*
X132360827Y-112544286D01*
X132328752Y-112501914D01*
X132317362Y-112450000D01*
X132328752Y-112398086D01*
X132360827Y-112355713D01*
X132449759Y-112279759D01*
X132608259Y-112094179D01*
X132735777Y-111886089D01*
X132829172Y-111660612D01*
X132886146Y-111423302D01*
X132905294Y-111180000D01*
X132886146Y-110936698D01*
X132829172Y-110699388D01*
X132735777Y-110473911D01*
X132608259Y-110265821D01*
X132506513Y-110146692D01*
X132452925Y-110083948D01*
X132449759Y-110080241D01*
X132360827Y-110004286D01*
X132328752Y-109961914D01*
X132317362Y-109910000D01*
X132328752Y-109858086D01*
X132360827Y-109815713D01*
X132449759Y-109739759D01*
X132608259Y-109554179D01*
X132735777Y-109346089D01*
X132829172Y-109120612D01*
X132886146Y-108883302D01*
X132905294Y-108640000D01*
X132886146Y-108396698D01*
X132829172Y-108159388D01*
X132735777Y-107933911D01*
X132608259Y-107725821D01*
X132604465Y-107721379D01*
X132452925Y-107543948D01*
X132449759Y-107540241D01*
X132360827Y-107464286D01*
X132328752Y-107421914D01*
X132317362Y-107370000D01*
X132328752Y-107318086D01*
X132360827Y-107275713D01*
X132449759Y-107199759D01*
X132608259Y-107014179D01*
X132735777Y-106806089D01*
X132829172Y-106580612D01*
X132886146Y-106343302D01*
X132905294Y-106100000D01*
X132886146Y-105856698D01*
X132829172Y-105619388D01*
X132759421Y-105450993D01*
X132737642Y-105398413D01*
X132737640Y-105398410D01*
X132735777Y-105393911D01*
X132608259Y-105185821D01*
X132449759Y-105000241D01*
X132446051Y-104997074D01*
X132267889Y-104844909D01*
X132267884Y-104844905D01*
X132264179Y-104841741D01*
X132260023Y-104839194D01*
X132260020Y-104839192D01*
X132168374Y-104783031D01*
X132056089Y-104714223D01*
X132051594Y-104712361D01*
X132051586Y-104712357D01*
X131835117Y-104622694D01*
X131835116Y-104622693D01*
X131830612Y-104620828D01*
X131825875Y-104619690D01*
X131825873Y-104619690D01*
X131598031Y-104564989D01*
X131598026Y-104564988D01*
X131593302Y-104563854D01*
X131588455Y-104563472D01*
X131588452Y-104563472D01*
X131354854Y-104545088D01*
X131350000Y-104544706D01*
X131345146Y-104545088D01*
X131111547Y-104563472D01*
X131111542Y-104563472D01*
X131106698Y-104563854D01*
X131101975Y-104564987D01*
X131101968Y-104564989D01*
X130874126Y-104619690D01*
X130874120Y-104619691D01*
X130869388Y-104620828D01*
X130864886Y-104622692D01*
X130864882Y-104622694D01*
X130648413Y-104712357D01*
X130648400Y-104712363D01*
X130643911Y-104714223D01*
X130639757Y-104716768D01*
X130639756Y-104716769D01*
X130439979Y-104839192D01*
X130439970Y-104839198D01*
X130435821Y-104841741D01*
X130432121Y-104844900D01*
X130432110Y-104844909D01*
X130253948Y-104997074D01*
X130253941Y-104997080D01*
X130250241Y-105000241D01*
X130247080Y-105003941D01*
X130247074Y-105003948D01*
X130094909Y-105182110D01*
X130094900Y-105182121D01*
X130091741Y-105185821D01*
X130089198Y-105189970D01*
X130089192Y-105189979D01*
X129997082Y-105340290D01*
X129951944Y-105383690D01*
X129891355Y-105399500D01*
X129124921Y-105399500D01*
X129117433Y-105399274D01*
X129064881Y-105396094D01*
X129064873Y-105396094D01*
X129057394Y-105395642D01*
X129050018Y-105396993D01*
X129050011Y-105396994D01*
X128998228Y-105406483D01*
X128990828Y-105407610D01*
X128938569Y-105413956D01*
X128938565Y-105413956D01*
X128931128Y-105414860D01*
X128924119Y-105417517D01*
X128924114Y-105417519D01*
X128921643Y-105418456D01*
X128900053Y-105424474D01*
X128897449Y-105424951D01*
X128897438Y-105424954D01*
X128890069Y-105426305D01*
X128883237Y-105429379D01*
X128883233Y-105429381D01*
X128835212Y-105450993D01*
X128828296Y-105453857D01*
X128779082Y-105472522D01*
X128779077Y-105472524D01*
X128772070Y-105475182D01*
X128765907Y-105479435D01*
X128765897Y-105479441D01*
X128763727Y-105480940D01*
X128744185Y-105491962D01*
X128741783Y-105493043D01*
X128741780Y-105493044D01*
X128734943Y-105496122D01*
X128729043Y-105500743D01*
X128729035Y-105500749D01*
X128687597Y-105533213D01*
X128681568Y-105537649D01*
X128638248Y-105567551D01*
X128638236Y-105567560D01*
X128632071Y-105571817D01*
X128627102Y-105577425D01*
X128627096Y-105577431D01*
X128592184Y-105616838D01*
X128587051Y-105622290D01*
X127522290Y-106687051D01*
X127516838Y-106692184D01*
X127477431Y-106727096D01*
X127477425Y-106727102D01*
X127471817Y-106732071D01*
X127467560Y-106738236D01*
X127467551Y-106738248D01*
X127437649Y-106781568D01*
X127433213Y-106787597D01*
X127400749Y-106829035D01*
X127400743Y-106829043D01*
X127396122Y-106834943D01*
X127393044Y-106841780D01*
X127393043Y-106841783D01*
X127391962Y-106844185D01*
X127380940Y-106863727D01*
X127379441Y-106865898D01*
X127379437Y-106865904D01*
X127375182Y-106872070D01*
X127372526Y-106879070D01*
X127372522Y-106879080D01*
X127353853Y-106928305D01*
X127350989Y-106935219D01*
X127329382Y-106983229D01*
X127329379Y-106983235D01*
X127326305Y-106990068D01*
X127324953Y-106997439D01*
X127324951Y-106997449D01*
X127324474Y-107000053D01*
X127318456Y-107021643D01*
X127317519Y-107024114D01*
X127317517Y-107024119D01*
X127314860Y-107031128D01*
X127313956Y-107038565D01*
X127313956Y-107038569D01*
X127307610Y-107090827D01*
X127306483Y-107098226D01*
X127296994Y-107150010D01*
X127296993Y-107150018D01*
X127295642Y-107157394D01*
X127296094Y-107164873D01*
X127296094Y-107164881D01*
X127299274Y-107217433D01*
X127299500Y-107224921D01*
X127299500Y-125575079D01*
X127299274Y-125582567D01*
X127296094Y-125635118D01*
X127296094Y-125635126D01*
X127295642Y-125642606D01*
X127296993Y-125649982D01*
X127296994Y-125649987D01*
X127306483Y-125701771D01*
X127307610Y-125709171D01*
X127313955Y-125761425D01*
X127313956Y-125761430D01*
X127314860Y-125768872D01*
X127317519Y-125775885D01*
X127317521Y-125775891D01*
X127318450Y-125778340D01*
X127324475Y-125799952D01*
X127324951Y-125802551D01*
X127324954Y-125802560D01*
X127326305Y-125809932D01*
X127329382Y-125816769D01*
X127329383Y-125816772D01*
X127350991Y-125864784D01*
X127353857Y-125871702D01*
X127375182Y-125927930D01*
X127379442Y-125934102D01*
X127379445Y-125934107D01*
X127380937Y-125936268D01*
X127391959Y-125955810D01*
X127393039Y-125958210D01*
X127393044Y-125958219D01*
X127396122Y-125965057D01*
X127400745Y-125970958D01*
X127400747Y-125970961D01*
X127433216Y-126012404D01*
X127437636Y-126018410D01*
X127471817Y-126067929D01*
X127516847Y-126107822D01*
X127522282Y-126112939D01*
X131587052Y-130177708D01*
X131592186Y-130183162D01*
X131632071Y-130228183D01*
X131638243Y-130232443D01*
X131638244Y-130232444D01*
X131681573Y-130262352D01*
X131687603Y-130266788D01*
X131734944Y-130303878D01*
X131744180Y-130308034D01*
X131763727Y-130319059D01*
X131772070Y-130324818D01*
X131828214Y-130346110D01*
X131828298Y-130346142D01*
X131835220Y-130349009D01*
X131890069Y-130373695D01*
X131900041Y-130375522D01*
X131921656Y-130381547D01*
X131931128Y-130385140D01*
X131988831Y-130392146D01*
X131990815Y-130392387D01*
X131998222Y-130393514D01*
X132057394Y-130404358D01*
X132117433Y-130400725D01*
X132124921Y-130400500D01*
X142275079Y-130400500D01*
X142282566Y-130400725D01*
X142342606Y-130404358D01*
X142401782Y-130393513D01*
X142409181Y-130392387D01*
X142468872Y-130385140D01*
X142478332Y-130381551D01*
X142499959Y-130375522D01*
X142509932Y-130373695D01*
X142564808Y-130348996D01*
X142571673Y-130346152D01*
X142627930Y-130324818D01*
X142636264Y-130319064D01*
X142655821Y-130308034D01*
X142665057Y-130303878D01*
X142712413Y-130266775D01*
X142718426Y-130262352D01*
X142767929Y-130228183D01*
X142807822Y-130183151D01*
X142812924Y-130177731D01*
X149633837Y-123356819D01*
X149674066Y-123329939D01*
X149721519Y-123320500D01*
X152453327Y-123320500D01*
X152510584Y-123334511D01*
X152554902Y-123373377D01*
X152614953Y-123459139D01*
X152775861Y-123620047D01*
X152962266Y-123750568D01*
X153168504Y-123846739D01*
X153173734Y-123848140D01*
X153173736Y-123848141D01*
X153292636Y-123880000D01*
X153388308Y-123905635D01*
X153615000Y-123925468D01*
X153841692Y-123905635D01*
X154061496Y-123846739D01*
X154267734Y-123750568D01*
X154454139Y-123620047D01*
X154615047Y-123459139D01*
X154745568Y-123272734D01*
X154841739Y-123066496D01*
X154900635Y-122846692D01*
X154920468Y-122620000D01*
X154900635Y-122393308D01*
X154899235Y-122388083D01*
X154843141Y-122178736D01*
X154843140Y-122178734D01*
X154841739Y-122173504D01*
X154745568Y-121967266D01*
X154615047Y-121780861D01*
X154454139Y-121619953D01*
X154392224Y-121576600D01*
X154272173Y-121492540D01*
X154272171Y-121492539D01*
X154267734Y-121489432D01*
X154262827Y-121487143D01*
X154262817Y-121487138D01*
X154209724Y-121462380D01*
X154157549Y-121416623D01*
X154138130Y-121349997D01*
X154157550Y-121283372D01*
X154209723Y-121237618D01*
X154267734Y-121210568D01*
X154454139Y-121080047D01*
X154615047Y-120919139D01*
X154745568Y-120732734D01*
X154841739Y-120526496D01*
X154900635Y-120306692D01*
X154920468Y-120080000D01*
X154900635Y-119853308D01*
X154867634Y-119730145D01*
X154843141Y-119638736D01*
X154843140Y-119638734D01*
X154841739Y-119633504D01*
X154745568Y-119427266D01*
X154615047Y-119240861D01*
X154454139Y-119079953D01*
X154392224Y-119036600D01*
X154272173Y-118952540D01*
X154272171Y-118952539D01*
X154267734Y-118949432D01*
X154209724Y-118922381D01*
X154157549Y-118876625D01*
X154138130Y-118810000D01*
X154157549Y-118743375D01*
X154209725Y-118697618D01*
X154267734Y-118670568D01*
X154454139Y-118540047D01*
X154615047Y-118379139D01*
X154745568Y-118192734D01*
X154841739Y-117986496D01*
X154900635Y-117766692D01*
X154920468Y-117540000D01*
X154900635Y-117313308D01*
X154867634Y-117190145D01*
X154843141Y-117098736D01*
X154843140Y-117098734D01*
X154841739Y-117093504D01*
X154745568Y-116887266D01*
X154615047Y-116700861D01*
X154454139Y-116539953D01*
X154392224Y-116496600D01*
X154272173Y-116412540D01*
X154272171Y-116412539D01*
X154267734Y-116409432D01*
X154209724Y-116382381D01*
X154157549Y-116336625D01*
X154138130Y-116270000D01*
X154157549Y-116203375D01*
X154209725Y-116157618D01*
X154267734Y-116130568D01*
X154454139Y-116000047D01*
X154615047Y-115839139D01*
X154745568Y-115652734D01*
X154841739Y-115446496D01*
X154900635Y-115226692D01*
X154920468Y-115000000D01*
X154900635Y-114773308D01*
X154841739Y-114553504D01*
X154745568Y-114347266D01*
X154615047Y-114160861D01*
X154454139Y-113999953D01*
X154392224Y-113956600D01*
X154272173Y-113872540D01*
X154272171Y-113872539D01*
X154267734Y-113869432D01*
X154209724Y-113842381D01*
X154157549Y-113796625D01*
X154138130Y-113730000D01*
X154157549Y-113663375D01*
X154209725Y-113617618D01*
X154267734Y-113590568D01*
X154454139Y-113460047D01*
X154615047Y-113299139D01*
X154745568Y-113112734D01*
X154841739Y-112906496D01*
X154900635Y-112686692D01*
X154920468Y-112460000D01*
X154900635Y-112233308D01*
X154886204Y-112179452D01*
X154843141Y-112018736D01*
X154843140Y-112018734D01*
X154841739Y-112013504D01*
X154745568Y-111807266D01*
X154615047Y-111620861D01*
X154454139Y-111459953D01*
X154267734Y-111329432D01*
X154209724Y-111302381D01*
X154157549Y-111256625D01*
X154138130Y-111190000D01*
X154157549Y-111123375D01*
X154209725Y-111077618D01*
X154267734Y-111050568D01*
X154454139Y-110920047D01*
X154615047Y-110759139D01*
X154745568Y-110572734D01*
X154841739Y-110366496D01*
X154900635Y-110146692D01*
X154920468Y-109920000D01*
X154900635Y-109693308D01*
X154861681Y-109547929D01*
X154843141Y-109478736D01*
X154843140Y-109478734D01*
X154841739Y-109473504D01*
X154745568Y-109267266D01*
X154615047Y-109080861D01*
X154454139Y-108919953D01*
X154330219Y-108833184D01*
X154272173Y-108792540D01*
X154272171Y-108792539D01*
X154267734Y-108789432D01*
X154209724Y-108762381D01*
X154157549Y-108716625D01*
X154138130Y-108650000D01*
X154157549Y-108583375D01*
X154209725Y-108537618D01*
X154212719Y-108536222D01*
X154267734Y-108510568D01*
X154454139Y-108380047D01*
X154615047Y-108219139D01*
X154745568Y-108032734D01*
X154841739Y-107826496D01*
X154900635Y-107606692D01*
X154920468Y-107380000D01*
X154900635Y-107153308D01*
X154841739Y-106933504D01*
X154745568Y-106727266D01*
X154615047Y-106540861D01*
X154454139Y-106379953D01*
X154267734Y-106249432D01*
X154061496Y-106153261D01*
X154056271Y-106151861D01*
X154056263Y-106151858D01*
X153846916Y-106095764D01*
X153846907Y-106095762D01*
X153841692Y-106094365D01*
X153836304Y-106093893D01*
X153836301Y-106093893D01*
X153620395Y-106075004D01*
X153615000Y-106074532D01*
X153609605Y-106075004D01*
X153393698Y-106093893D01*
X153393693Y-106093893D01*
X153388308Y-106094365D01*
X153383094Y-106095762D01*
X153383083Y-106095764D01*
X153173736Y-106151858D01*
X153173724Y-106151862D01*
X153168504Y-106153261D01*
X153163599Y-106155547D01*
X153163594Y-106155550D01*
X152967176Y-106247142D01*
X152967172Y-106247144D01*
X152962266Y-106249432D01*
X152957833Y-106252535D01*
X152957826Y-106252540D01*
X152780296Y-106376847D01*
X152780291Y-106376850D01*
X152775861Y-106379953D01*
X152772037Y-106383776D01*
X152772031Y-106383782D01*
X152618782Y-106537031D01*
X152618776Y-106537037D01*
X152614953Y-106540861D01*
X152611850Y-106545291D01*
X152611847Y-106545296D01*
X152487540Y-106722826D01*
X152487535Y-106722833D01*
X152484432Y-106727266D01*
X152482144Y-106732172D01*
X152482142Y-106732176D01*
X152390550Y-106928594D01*
X152390547Y-106928599D01*
X152388261Y-106933504D01*
X152386862Y-106938724D01*
X152386858Y-106938736D01*
X152330764Y-107148083D01*
X152330762Y-107148094D01*
X152329365Y-107153308D01*
X152328893Y-107158693D01*
X152328893Y-107158698D01*
X152312616Y-107344752D01*
X152309532Y-107380000D01*
X152310004Y-107385395D01*
X152328154Y-107592858D01*
X152329365Y-107606692D01*
X152330762Y-107611907D01*
X152330764Y-107611916D01*
X152386858Y-107821263D01*
X152386861Y-107821271D01*
X152388261Y-107826496D01*
X152484432Y-108032734D01*
X152614953Y-108219139D01*
X152775861Y-108380047D01*
X152962266Y-108510568D01*
X152967172Y-108512855D01*
X152967176Y-108512858D01*
X153020274Y-108537618D01*
X153072450Y-108583375D01*
X153091869Y-108650000D01*
X153072450Y-108716625D01*
X153020274Y-108762382D01*
X152967176Y-108787141D01*
X152967163Y-108787148D01*
X152962266Y-108789432D01*
X152957833Y-108792535D01*
X152957826Y-108792540D01*
X152780296Y-108916847D01*
X152780291Y-108916850D01*
X152775861Y-108919953D01*
X152772037Y-108923776D01*
X152772031Y-108923782D01*
X152618782Y-109077031D01*
X152618776Y-109077037D01*
X152614953Y-109080861D01*
X152611850Y-109085291D01*
X152611847Y-109085296D01*
X152554902Y-109166623D01*
X152510584Y-109205489D01*
X152453327Y-109219500D01*
X147261519Y-109219500D01*
X147214066Y-109210061D01*
X147173838Y-109183181D01*
X131862939Y-93872282D01*
X131857822Y-93866847D01*
X131817929Y-93821817D01*
X131768410Y-93787636D01*
X131762404Y-93783216D01*
X131720961Y-93750747D01*
X131720958Y-93750745D01*
X131715057Y-93746122D01*
X131708219Y-93743044D01*
X131708210Y-93743039D01*
X131705810Y-93741959D01*
X131686268Y-93730937D01*
X131684107Y-93729445D01*
X131684102Y-93729442D01*
X131677930Y-93725182D01*
X131621702Y-93703857D01*
X131614784Y-93700991D01*
X131566772Y-93679383D01*
X131566769Y-93679382D01*
X131559932Y-93676305D01*
X131552560Y-93674954D01*
X131552551Y-93674951D01*
X131549952Y-93674475D01*
X131528340Y-93668450D01*
X131525891Y-93667521D01*
X131525885Y-93667519D01*
X131518872Y-93664860D01*
X131511430Y-93663956D01*
X131511425Y-93663955D01*
X131459171Y-93657610D01*
X131451771Y-93656483D01*
X131399987Y-93646994D01*
X131399982Y-93646993D01*
X131392606Y-93645642D01*
X131385126Y-93646094D01*
X131385118Y-93646094D01*
X131332567Y-93649274D01*
X131325079Y-93649500D01*
X126124499Y-93649500D01*
X126062499Y-93632887D01*
X126017112Y-93587500D01*
X126000499Y-93525500D01*
X126000499Y-93305439D01*
X126000499Y-93302128D01*
X125994091Y-93242517D01*
X125943796Y-93107669D01*
X125857546Y-92992454D01*
X125742331Y-92906204D01*
X125607483Y-92855909D01*
X125599770Y-92855079D01*
X125599767Y-92855079D01*
X125551180Y-92849855D01*
X125551169Y-92849854D01*
X125547873Y-92849500D01*
X125544550Y-92849500D01*
X124455439Y-92849500D01*
X124455420Y-92849500D01*
X124452128Y-92849501D01*
X124448850Y-92849853D01*
X124448838Y-92849854D01*
X124400231Y-92855079D01*
X124400225Y-92855080D01*
X124392517Y-92855909D01*
X124385252Y-92858618D01*
X124385246Y-92858620D01*
X124265980Y-92903104D01*
X124265978Y-92903104D01*
X124257669Y-92906204D01*
X124250572Y-92911516D01*
X124250568Y-92911519D01*
X124149550Y-92987141D01*
X124149546Y-92987144D01*
X124142454Y-92992454D01*
X124137144Y-92999546D01*
X124137141Y-92999550D01*
X124061519Y-93100568D01*
X124061516Y-93100572D01*
X124056204Y-93107669D01*
X124053104Y-93115978D01*
X124053104Y-93115980D01*
X124008620Y-93235247D01*
X124008619Y-93235250D01*
X124005909Y-93242517D01*
X124005079Y-93250227D01*
X124005079Y-93250232D01*
X123999855Y-93298819D01*
X123999854Y-93298831D01*
X123999500Y-93302127D01*
X123999500Y-93305448D01*
X123999500Y-93305449D01*
X123999500Y-95394560D01*
X123999500Y-95394578D01*
X112138576Y-95394578D01*
X119016552Y-92126304D01*
X119044604Y-92116886D01*
X119052835Y-92115181D01*
X119054933Y-92114770D01*
X119446011Y-92042096D01*
X119453413Y-92040954D01*
X119570060Y-92026594D01*
X119577507Y-92025907D01*
X119974334Y-92001573D01*
X119976826Y-92001446D01*
X119989379Y-92000933D01*
X119997481Y-92000603D01*
X120002541Y-92000500D01*
X133997459Y-92000500D01*
X134002520Y-92000603D01*
G37*
%TD.AperFunction*%
D16*
X157999999Y-101000000D02*
G75*
G03*
X156894427Y-99211147I-1999999J0D01*
G01*
X104105573Y-99211146D02*
X119029857Y-92119430D01*
X106000000Y-132000000D02*
X155000000Y-132000000D01*
X156894427Y-99211146D02*
X134970143Y-92119430D01*
X120000000Y-92000000D02*
X134000000Y-92000000D01*
X120000000Y-92000000D02*
G75*
G03*
X119029857Y-92119430I0J-4000000D01*
G01*
X103000000Y-129000000D02*
G75*
G03*
X106000000Y-132000000I3000000J0D01*
G01*
X103000000Y-101000000D02*
X103000000Y-129000000D01*
X158000000Y-129000000D02*
X158000000Y-101000000D01*
X155000000Y-132000000D02*
G75*
G03*
X158000000Y-129000000I0J3000000D01*
G01*
X104105573Y-99211146D02*
G75*
G03*
X103000000Y-101000000I894427J-1788854D01*
G01*
X134970143Y-92119430D02*
G75*
G03*
X134000000Y-92000000I-970143J-3880570D01*
G01*
M02*
